[
    {
        "name": "New Year",
        "description": "New Year\u2019s Day is the first day of the year, or January 1, in the Gregorian calendar.",
        "country": {
            "id": "bf",
            "name": "Burkina Faso"
        },
        "date": {
            "iso": "2024-01-01",
            "datetime": {
                "year": 2024,
                "month": 1,
                "day": 1
            }
        },
        "type": [
            "National holiday"
        ],
        "primary_type": "Public Holiday",
        "canonical_url": "https://calendarific.com/holiday/burkina-faso/new-year",
        "urlid": "burkina-faso/new-year",
        "locations": "All",
        "states": "All"
    },
    {
        "name": "Burkina Faso Popular Uprising Day",
        "description": "Burkina Faso Popular Uprising Day is a public holiday in Burkina Faso",
        "country": {
            "id": "bf",
            "name": "Burkina Faso"
        },
        "date": {
            "iso": "2024-01-03",
            "datetime": {
                "year": 2024,
                "month": 1,
                "day": 3
            }
        },
        "type": [
            "National holiday"
        ],
        "primary_type": "Public Holiday",
        "canonical_url": "https://calendarific.com/holiday/burkina-faso/popular-uprising-day",
        "urlid": "burkina-faso/popular-uprising-day",
        "locations": "All",
        "states": "All"
    },
    {
        "name": "International Women's Day",
        "description": "International Women's Day is a public holiday in Burkina Faso",
        "country": {
            "id": "bf",
            "name": "Burkina Faso"
        },
        "date": {
            "iso": "2024-03-08",
            "datetime": {
                "year": 2024,
                "month": 3,
                "day": 8
            }
        },
        "type": [
            "National holiday"
        ],
        "primary_type": "Public Holiday",
        "canonical_url": "https://calendarific.com/holiday/burkina-faso/international-womens-day",
        "urlid": "burkina-faso/international-womens-day",
        "locations": "All",
        "states": "All"
    },
    {
        "name": "Ramadan Start",
        "description": "Ramadan is a period of prayer, reflection and fasting for many Muslims worldwide. It is the ninth month in the Islamic calendar.",
        "country": {
            "id": "bf",
            "name": "Burkina Faso"
        },
        "date": {
            "iso": "2024-03-11",
            "datetime": {
                "year": 2024,
                "month": 3,
                "day": 11
            }
        },
        "type": [
            "Observance"
        ],
        "primary_type": "Observance",
        "canonical_url": "https://calendarific.com/holiday/burkina-faso/ramadan-begins",
        "urlid": "burkina-faso/ramadan-begins",
        "locations": "All",
        "states": "All"
    },
    {
        "name": "March Equinox",
        "description": "March Equinox in Burkina Faso (Ouagadougou)",
        "country": {
            "id": "bf",
            "name": "Burkina Faso"
        },
        "date": {
            "iso": "2024-03-20T03:06:28+00:00",
            "datetime": {
                "year": 2024,
                "month": 3,
                "day": 20,
                "hour": 3,
                "minute": 6,
                "second": 28
            },
            "timezone": {
                "offset": "+00:00",
                "zoneabb": "GMT",
                "zoneoffset": 0,
                "zonedst": 0,
                "zonetotaloffset": 0
            }
        },
        "type": [
            "Season"
        ],
        "primary_type": "Season",
        "canonical_url": "https://calendarific.com/holiday/seasons/vernal-equinox",
        "urlid": "seasons/vernal-equinox",
        "locations": "All",
        "states": "All"
    },
    {
        "name": "Easter Monday",
        "description": "Easter Monday is the day after Easter Sunday.",
        "country": {
            "id": "bf",
            "name": "Burkina Faso"
        },
        "date": {
            "iso": "2024-04-01",
            "datetime": {
                "year": 2024,
                "month": 4,
                "day": 1
            }
        },
        "type": [
            "National holiday"
        ],
        "primary_type": "Public Holiday",
        "canonical_url": "https://calendarific.com/holiday/burkina-faso/easter-monday",
        "urlid": "burkina-faso/easter-monday",
        "locations": "All",
        "states": "All"
    },
    {
        "name": "Eid al-Fitr",
        "description": "Eid al-Fitr is a holiday to mark the end of the Islamic month of Ramadan, during which Muslims fast during the hours of daylight.",
        "country": {
            "id": "bf",
            "name": "Burkina Faso"
        },
        "date": {
            "iso": "2024-04-10",
            "datetime": {
                "year": 2024,
                "month": 4,
                "day": 10
            }
        },
        "type": [
            "National holiday"
        ],
        "primary_type": "Public Holiday",
        "canonical_url": "https://calendarific.com/holiday/burkina-faso/eid-al-fitr",
        "urlid": "burkina-faso/eid-al-fitr",
        "locations": "All",
        "states": "All"
    },
    {
        "name": "Labour Day",
        "description": "Labor Day, International Workers' Day, and May Day, is a day off for workers in many countries around the world.",
        "country": {
            "id": "bf",
            "name": "Burkina Faso"
        },
        "date": {
            "iso": "2024-05-01",
            "datetime": {
                "year": 2024,
                "month": 5,
                "day": 1
            }
        },
        "type": [
            "National holiday"
        ],
        "primary_type": "Public Holiday",
        "canonical_url": "https://calendarific.com/holiday/burkina-faso/may-day",
        "urlid": "burkina-faso/may-day",
        "locations": "All",
        "states": "All"
    },
    {
        "name": "Ascension Day",
        "description": "Ascension Day is the 40th day of Easter. It is a religious holiday that commemorates the ascension of Jesus Christ into heaven.",
        "country": {
            "id": "bf",
            "name": "Burkina Faso"
        },
        "date": {
            "iso": "2024-05-09",
            "datetime": {
                "year": 2024,
                "month": 5,
                "day": 9
            }
        },
        "type": [
            "National holiday"
        ],
        "primary_type": "Public Holiday",
        "canonical_url": "https://calendarific.com/holiday/burkina-faso/ascension",
        "urlid": "burkina-faso/ascension",
        "locations": "All",
        "states": "All"
    },
    {
        "name": "Eid al-Adha",
        "description": "Eid al-Adha (Id ul-Adha) is an Islamic festival falling on the 10th day of the month of Dhul Hijja (Thou al-Hijja) to commemorate the willingness of Ibrahim (Abraham) to sacrifice his son.",
        "country": {
            "id": "bf",
            "name": "Burkina Faso"
        },
        "date": {
            "iso": "2024-06-17",
            "datetime": {
                "year": 2024,
                "month": 6,
                "day": 17
            }
        },
        "type": [
            "National holiday"
        ],
        "primary_type": "Public Holiday",
        "canonical_url": "https://calendarific.com/holiday/burkina-faso/eid-al-adha",
        "urlid": "burkina-faso/eid-al-adha",
        "locations": "All",
        "states": "All"
    },
    {
        "name": "June Solstice",
        "description": "June Solstice in Burkina Faso (Ouagadougou)",
        "country": {
            "id": "bf",
            "name": "Burkina Faso"
        },
        "date": {
            "iso": "2024-06-20T20:50:59+00:00",
            "datetime": {
                "year": 2024,
                "month": 6,
                "day": 20,
                "hour": 20,
                "minute": 50,
                "second": 59
            },
            "timezone": {
                "offset": "+00:00",
                "zoneabb": "GMT",
                "zoneoffset": 0,
                "zonedst": 0,
                "zonetotaloffset": 0
            }
        },
        "type": [
            "Season"
        ],
        "primary_type": "Season",
        "canonical_url": "https://calendarific.com/holiday/seasons/june-solstice",
        "urlid": "seasons/june-solstice",
        "locations": "All",
        "states": "All"
    },
    {
        "name": "National Day",
        "description": "National Day is a public holiday in Burkina Faso",
        "country": {
            "id": "bf",
            "name": "Burkina Faso"
        },
        "date": {
            "iso": "2024-08-05",
            "datetime": {
                "year": 2024,
                "month": 8,
                "day": 5
            }
        },
        "type": [
            "National holiday"
        ],
        "primary_type": "Public Holiday",
        "canonical_url": "https://calendarific.com/holiday/burkina-faso/national-day",
        "urlid": "burkina-faso/national-day",
        "locations": "All",
        "states": "All"
    },
    {
        "name": "Assumption of Mary",
        "description": "The Christian feast of the Assumption of Mary is on or around Aug 15 in most countries. A few celebrate Assumption Day at other times of the year.",
        "country": {
            "id": "bf",
            "name": "Burkina Faso"
        },
        "date": {
            "iso": "2024-08-15",
            "datetime": {
                "year": 2024,
                "month": 8,
                "day": 15
            }
        },
        "type": [
            "National holiday"
        ],
        "primary_type": "Public Holiday",
        "canonical_url": "https://calendarific.com/holiday/burkina-faso/assumption-of-mary",
        "urlid": "burkina-faso/assumption-of-mary",
        "locations": "All",
        "states": "All"
    },
    {
        "name": "The Prophet's Birthday",
        "description": "Mawlid, or Milad, marks the birth of the Islamic prophet Muhammed, or Mohamed, in the year 570 of the Gregorian calendar.",
        "country": {
            "id": "bf",
            "name": "Burkina Faso"
        },
        "date": {
            "iso": "2024-09-16",
            "datetime": {
                "year": 2024,
                "month": 9,
                "day": 16
            }
        },
        "type": [
            "National holiday"
        ],
        "primary_type": "Public Holiday",
        "canonical_url": "https://calendarific.com/holiday/burkina-faso/prophet-birthday",
        "urlid": "burkina-faso/prophet-birthday",
        "locations": "All",
        "states": "All"
    },
    {
        "name": "September Equinox",
        "description": "September Equinox in Burkina Faso (Ouagadougou)",
        "country": {
            "id": "bf",
            "name": "Burkina Faso"
        },
        "date": {
            "iso": "2024-09-22T12:43:33+00:00",
            "datetime": {
                "year": 2024,
                "month": 9,
                "day": 22,
                "hour": 12,
                "minute": 43,
                "second": 33
            },
            "timezone": {
                "offset": "+00:00",
                "zoneabb": "GMT",
                "zoneoffset": 0,
                "zonedst": 0,
                "zonetotaloffset": 0
            }
        },
        "type": [
            "Season"
        ],
        "primary_type": "Season",
        "canonical_url": "https://calendarific.com/holiday/seasons/autumnal-equniox",
        "urlid": "seasons/autumnal-equniox",
        "locations": "All",
        "states": "All"
    },
    {
        "name": "Martyrs' Day",
        "description": "Martyrs' Day is a public holiday in Burkina Faso",
        "country": {
            "id": "bf",
            "name": "Burkina Faso"
        },
        "date": {
            "iso": "2024-10-31",
            "datetime": {
                "year": 2024,
                "month": 10,
                "day": 31
            }
        },
        "type": [
            "National holiday"
        ],
        "primary_type": "Public Holiday",
        "canonical_url": "https://calendarific.com/holiday/burkina-faso/martyrs-day",
        "urlid": "burkina-faso/martyrs-day",
        "locations": "All",
        "states": "All"
    },
    {
        "name": "All Saints\u2019 Day",
        "description": "Many churches honor all their saints on All Saints' Day, also known as All Hallows' Day.",
        "country": {
            "id": "bf",
            "name": "Burkina Faso"
        },
        "date": {
            "iso": "2024-11-01",
            "datetime": {
                "year": 2024,
                "month": 11,
                "day": 1
            }
        },
        "type": [
            "National holiday"
        ],
        "primary_type": "Public Holiday",
        "canonical_url": "https://calendarific.com/holiday/burkina-faso/all-saints-day",
        "urlid": "burkina-faso/all-saints-day",
        "locations": "All",
        "states": "All"
    },
    {
        "name": "Proclamation of Independence Day",
        "description": "Proclamation of Independence Day is a public holiday in Burkina Faso",
        "country": {
            "id": "bf",
            "name": "Burkina Faso"
        },
        "date": {
            "iso": "2024-12-11",
            "datetime": {
                "year": 2024,
                "month": 12,
                "day": 11
            }
        },
        "type": [
            "National holiday"
        ],
        "primary_type": "Public Holiday",
        "canonical_url": "https://calendarific.com/holiday/burkina-faso/independence-day",
        "urlid": "burkina-faso/independence-day",
        "locations": "All",
        "states": "All"
    },
    {
        "name": "December Solstice",
        "description": "December Solstice in Burkina Faso (Ouagadougou)",
        "country": {
            "id": "bf",
            "name": "Burkina Faso"
        },
        "date": {
            "iso": "2024-12-21T09:20:34+00:00",
            "datetime": {
                "year": 2024,
                "month": 12,
                "day": 21,
                "hour": 9,
                "minute": 20,
                "second": 34
            },
            "timezone": {
                "offset": "+00:00",
                "zoneabb": "GMT",
                "zoneoffset": 0,
                "zonedst": 0,
                "zonetotaloffset": 0
            }
        },
        "type": [
            "Season"
        ],
        "primary_type": "Season",
        "canonical_url": "https://calendarific.com/holiday/seasons/december-solstice",
        "urlid": "seasons/december-solstice",
        "locations": "All",
        "states": "All"
    },
    {
        "name": "Christmas Day",
        "description": "Christmas Day is one of the biggest Christian celebrations and falls on December 25 in the Gregorian calendar.",
        "country": {
            "id": "bf",
            "name": "Burkina Faso"
        },
        "date": {
            "iso": "2024-12-25",
            "datetime": {
                "year": 2024,
                "month": 12,
                "day": 25
            }
        },
        "type": [
            "National holiday"
        ],
        "primary_type": "Public Holiday",
        "canonical_url": "https://calendarific.com/holiday/burkina-faso/christmas-day",
        "urlid": "burkina-faso/christmas-day",
        "locations": "All",
        "states": "All"
    }
]