[
    {
        "name": "New Year",
        "description": "New Year\u2019s Day is the first day of the year, or January 1, in the Gregorian calendar.",
        "country": {
            "id": "bi",
            "name": "Burundi"
        },
        "date": {
            "iso": "2024-01-01",
            "datetime": {
                "year": 2024,
                "month": 1,
                "day": 1
            }
        },
        "type": [
            "National holiday"
        ],
        "primary_type": "Public Holiday",
        "canonical_url": "https://calendarific.com/holiday/burundi/new-year",
        "urlid": "burundi/new-year",
        "locations": "All",
        "states": "All"
    },
    {
        "name": "Unity Day",
        "description": "Unity Day is a public holiday in Burundi",
        "country": {
            "id": "bi",
            "name": "Burundi"
        },
        "date": {
            "iso": "2024-02-05",
            "datetime": {
                "year": 2024,
                "month": 2,
                "day": 5
            }
        },
        "type": [
            "National holiday"
        ],
        "primary_type": "Public Holiday",
        "canonical_url": "https://calendarific.com/holiday/burundi/unity-day",
        "urlid": "burundi/unity-day",
        "locations": "All",
        "states": "All"
    },
    {
        "name": "March Equinox",
        "description": "March Equinox in Burundi (Bujumbura)",
        "country": {
            "id": "bi",
            "name": "Burundi"
        },
        "date": {
            "iso": "2024-03-20T05:06:28+02:00",
            "datetime": {
                "year": 2024,
                "month": 3,
                "day": 20,
                "hour": 5,
                "minute": 6,
                "second": 28
            },
            "timezone": {
                "offset": "+02:00",
                "zoneabb": "CAT",
                "zoneoffset": 7200,
                "zonedst": 0,
                "zonetotaloffset": 7200
            }
        },
        "type": [
            "Season"
        ],
        "primary_type": "Season",
        "canonical_url": "https://calendarific.com/holiday/seasons/vernal-equinox",
        "urlid": "seasons/vernal-equinox",
        "locations": "All",
        "states": "All"
    },
    {
        "name": "President Ntaryamira Day",
        "description": "President Ntaryamira Day is a public holiday in Burundi",
        "country": {
            "id": "bi",
            "name": "Burundi"
        },
        "date": {
            "iso": "2024-04-06",
            "datetime": {
                "year": 2024,
                "month": 4,
                "day": 6
            }
        },
        "type": [
            "National holiday"
        ],
        "primary_type": "Public Holiday",
        "canonical_url": "https://calendarific.com/holiday/burundi/president-ntaryamira-day",
        "urlid": "burundi/president-ntaryamira-day",
        "locations": "All",
        "states": "All"
    },
    {
        "name": "Eid ul Fitr",
        "description": "Eid al-Fitr is a holiday to mark the end of the Islamic month of Ramadan, during which Muslims fast during the hours of daylight.",
        "country": {
            "id": "bi",
            "name": "Burundi"
        },
        "date": {
            "iso": "2024-04-10",
            "datetime": {
                "year": 2024,
                "month": 4,
                "day": 10
            }
        },
        "type": [
            "National holiday"
        ],
        "primary_type": "Public Holiday",
        "canonical_url": "https://calendarific.com/holiday/burundi/eid-al-fitr",
        "urlid": "burundi/eid-al-fitr",
        "locations": "All",
        "states": "All"
    },
    {
        "name": "Labour Day",
        "description": "Labor Day, International Workers' Day, and May Day, is a day off for workers in many countries around the world.",
        "country": {
            "id": "bi",
            "name": "Burundi"
        },
        "date": {
            "iso": "2024-05-01",
            "datetime": {
                "year": 2024,
                "month": 5,
                "day": 1
            }
        },
        "type": [
            "National holiday"
        ],
        "primary_type": "Public Holiday",
        "canonical_url": "https://calendarific.com/holiday/burundi/may-day",
        "urlid": "burundi/may-day",
        "locations": "All",
        "states": "All"
    },
    {
        "name": "Ascension Day",
        "description": "Ascension Day is the 40th day of Easter. It is a religious holiday that commemorates the ascension of Jesus Christ into heaven.",
        "country": {
            "id": "bi",
            "name": "Burundi"
        },
        "date": {
            "iso": "2024-05-09",
            "datetime": {
                "year": 2024,
                "month": 5,
                "day": 9
            }
        },
        "type": [
            "National holiday"
        ],
        "primary_type": "Public Holiday",
        "canonical_url": "https://calendarific.com/holiday/burundi/ascension",
        "urlid": "burundi/ascension",
        "locations": "All",
        "states": "All"
    },
    {
        "name": "President Pierre Nkurunziza Day",
        "description": "President Pierre Nkurunziza Day is a public holiday in Burundi",
        "country": {
            "id": "bi",
            "name": "Burundi"
        },
        "date": {
            "iso": "2024-06-08",
            "datetime": {
                "year": 2024,
                "month": 6,
                "day": 8
            }
        },
        "type": [
            "National holiday"
        ],
        "primary_type": "Public Holiday",
        "canonical_url": "https://calendarific.com/holiday/burundi/president-nkurunziza-day",
        "urlid": "burundi/president-nkurunziza-day",
        "locations": "All",
        "states": "All"
    },
    {
        "name": "Eid al-Adha",
        "description": "Eid al-Adha (Id ul-Adha) is an Islamic festival falling on the 10th day of the month of Dhul Hijja (Thou al-Hijja) to commemorate the willingness of Ibrahim (Abraham) to sacrifice his son.",
        "country": {
            "id": "bi",
            "name": "Burundi"
        },
        "date": {
            "iso": "2024-06-17",
            "datetime": {
                "year": 2024,
                "month": 6,
                "day": 17
            }
        },
        "type": [
            "National holiday"
        ],
        "primary_type": "Public Holiday",
        "canonical_url": "https://calendarific.com/holiday/burundi/eid-al-adha",
        "urlid": "burundi/eid-al-adha",
        "locations": "All",
        "states": "All"
    },
    {
        "name": "June Solstice",
        "description": "June Solstice in Burundi (Bujumbura)",
        "country": {
            "id": "bi",
            "name": "Burundi"
        },
        "date": {
            "iso": "2024-06-20T22:50:59+02:00",
            "datetime": {
                "year": 2024,
                "month": 6,
                "day": 20,
                "hour": 22,
                "minute": 50,
                "second": 59
            },
            "timezone": {
                "offset": "+02:00",
                "zoneabb": "CAT",
                "zoneoffset": 7200,
                "zonedst": 0,
                "zonetotaloffset": 7200
            }
        },
        "type": [
            "Season"
        ],
        "primary_type": "Season",
        "canonical_url": "https://calendarific.com/holiday/seasons/june-solstice",
        "urlid": "seasons/june-solstice",
        "locations": "All",
        "states": "All"
    },
    {
        "name": "Independence Day",
        "description": "Independence Day is a public holiday in Burundi",
        "country": {
            "id": "bi",
            "name": "Burundi"
        },
        "date": {
            "iso": "2024-07-01",
            "datetime": {
                "year": 2024,
                "month": 7,
                "day": 1
            }
        },
        "type": [
            "National holiday"
        ],
        "primary_type": "Public Holiday",
        "canonical_url": "https://calendarific.com/holiday/burundi/independence-day",
        "urlid": "burundi/independence-day",
        "locations": "All",
        "states": "All"
    },
    {
        "name": "Assumption of Mary",
        "description": "The Christian feast of the Assumption of Mary is on or around Aug 15 in most countries. A few celebrate Assumption Day at other times of the year.",
        "country": {
            "id": "bi",
            "name": "Burundi"
        },
        "date": {
            "iso": "2024-08-15",
            "datetime": {
                "year": 2024,
                "month": 8,
                "day": 15
            }
        },
        "type": [
            "National holiday"
        ],
        "primary_type": "Public Holiday",
        "canonical_url": "https://calendarific.com/holiday/burundi/assumption-of-mary",
        "urlid": "burundi/assumption-of-mary",
        "locations": "All",
        "states": "All"
    },
    {
        "name": "September Equinox",
        "description": "September Equinox in Burundi (Bujumbura)",
        "country": {
            "id": "bi",
            "name": "Burundi"
        },
        "date": {
            "iso": "2024-09-22T14:43:33+02:00",
            "datetime": {
                "year": 2024,
                "month": 9,
                "day": 22,
                "hour": 14,
                "minute": 43,
                "second": 33
            },
            "timezone": {
                "offset": "+02:00",
                "zoneabb": "CAT",
                "zoneoffset": 7200,
                "zonedst": 0,
                "zonetotaloffset": 7200
            }
        },
        "type": [
            "Season"
        ],
        "primary_type": "Season",
        "canonical_url": "https://calendarific.com/holiday/seasons/autumnal-equniox",
        "urlid": "seasons/autumnal-equniox",
        "locations": "All",
        "states": "All"
    },
    {
        "name": "Prince Louis Rwagasore Day",
        "description": "Prince Louis Rwagasore Day is a public holiday in Burundi",
        "country": {
            "id": "bi",
            "name": "Burundi"
        },
        "date": {
            "iso": "2024-10-13",
            "datetime": {
                "year": 2024,
                "month": 10,
                "day": 13
            }
        },
        "type": [
            "National holiday"
        ],
        "primary_type": "Public Holiday",
        "canonical_url": "https://calendarific.com/holiday/burundi/prince-louis-rwagasore-day",
        "urlid": "burundi/prince-louis-rwagasore-day",
        "locations": "All",
        "states": "All"
    },
    {
        "name": "Day off for Prince Louis Rwagasore Day",
        "description": "Prince Louis Rwagasore Day is a public holiday in Burundi",
        "country": {
            "id": "bi",
            "name": "Burundi"
        },
        "date": {
            "iso": "2024-10-14",
            "datetime": {
                "year": 2024,
                "month": 10,
                "day": 14
            }
        },
        "type": [
            "National holiday"
        ],
        "primary_type": "Public Holiday",
        "canonical_url": "https://calendarific.com/holiday/burundi/prince-louis-rwagasore-day",
        "urlid": "burundi/prince-louis-rwagasore-day",
        "locations": "All",
        "states": "All"
    },
    {
        "name": "President Ndadaye's Day",
        "description": "President Ndadaye's Day is a public holiday in Burundi",
        "country": {
            "id": "bi",
            "name": "Burundi"
        },
        "date": {
            "iso": "2024-10-21",
            "datetime": {
                "year": 2024,
                "month": 10,
                "day": 21
            }
        },
        "type": [
            "National holiday"
        ],
        "primary_type": "Public Holiday",
        "canonical_url": "https://calendarific.com/holiday/burundi/president-ndadayes-day",
        "urlid": "burundi/president-ndadayes-day",
        "locations": "All",
        "states": "All"
    },
    {
        "name": "All Saints' Day",
        "description": "Many churches honor all their saints on All Saints' Day, also known as All Hallows' Day.",
        "country": {
            "id": "bi",
            "name": "Burundi"
        },
        "date": {
            "iso": "2024-11-01",
            "datetime": {
                "year": 2024,
                "month": 11,
                "day": 1
            }
        },
        "type": [
            "National holiday"
        ],
        "primary_type": "Public Holiday",
        "canonical_url": "https://calendarific.com/holiday/burundi/all-saints-day",
        "urlid": "burundi/all-saints-day",
        "locations": "All",
        "states": "All"
    },
    {
        "name": "December Solstice",
        "description": "December Solstice in Burundi (Bujumbura)",
        "country": {
            "id": "bi",
            "name": "Burundi"
        },
        "date": {
            "iso": "2024-12-21T11:20:34+02:00",
            "datetime": {
                "year": 2024,
                "month": 12,
                "day": 21,
                "hour": 11,
                "minute": 20,
                "second": 34
            },
            "timezone": {
                "offset": "+02:00",
                "zoneabb": "CAT",
                "zoneoffset": 7200,
                "zonedst": 0,
                "zonetotaloffset": 7200
            }
        },
        "type": [
            "Season"
        ],
        "primary_type": "Season",
        "canonical_url": "https://calendarific.com/holiday/seasons/december-solstice",
        "urlid": "seasons/december-solstice",
        "locations": "All",
        "states": "All"
    },
    {
        "name": "Christmas Day",
        "description": "Christmas Day is one of the biggest Christian celebrations and falls on December 25 in the Gregorian calendar.",
        "country": {
            "id": "bi",
            "name": "Burundi"
        },
        "date": {
            "iso": "2024-12-25",
            "datetime": {
                "year": 2024,
                "month": 12,
                "day": 25
            }
        },
        "type": [
            "National holiday"
        ],
        "primary_type": "Public Holiday",
        "canonical_url": "https://calendarific.com/holiday/burundi/christmas-day",
        "urlid": "burundi/christmas-day",
        "locations": "All",
        "states": "All"
    }
]