[
    {
        "name": "New Year's Day",
        "description": "New Year\u2019s Day is the first day of the year, or January 1, in the Gregorian calendar.",
        "country": {
            "id": "bl",
            "name": "St. Barts"
        },
        "date": {
            "iso": "2024-01-01",
            "datetime": {
                "year": 2024,
                "month": 1,
                "day": 1
            }
        },
        "type": [
            "National holiday"
        ],
        "primary_type": "Public Holiday",
        "canonical_url": "https://calendarific.com/holiday/saint-barthelemy/new-year",
        "urlid": "saint-barthelemy/new-year",
        "locations": "All",
        "states": "All"
    },
    {
        "name": "Carnival / Shrove Monday",
        "description": "Carnival / Shrove Monday is a observance in Saint Barth\u00e9lemy",
        "country": {
            "id": "bl",
            "name": "St. Barts"
        },
        "date": {
            "iso": "2024-02-12",
            "datetime": {
                "year": 2024,
                "month": 2,
                "day": 12
            }
        },
        "type": [
            "Observance"
        ],
        "primary_type": "Observance",
        "canonical_url": "https://calendarific.com/holiday/saint-barthelemy/carnival-monday",
        "urlid": "saint-barthelemy/carnival-monday",
        "locations": "All",
        "states": "All"
    },
    {
        "name": "Carnival / Shrove Tuesday",
        "description": "Shrove Tuesday is a religious holiday before the fasting period of Lent. It is celebrated by eating pancakes and holding Carnival parades.",
        "country": {
            "id": "bl",
            "name": "St. Barts"
        },
        "date": {
            "iso": "2024-02-13",
            "datetime": {
                "year": 2024,
                "month": 2,
                "day": 13
            }
        },
        "type": [
            "Observance"
        ],
        "primary_type": "Observance",
        "canonical_url": "https://calendarific.com/holiday/saint-barthelemy/carnival-tuesday",
        "urlid": "saint-barthelemy/carnival-tuesday",
        "locations": "All",
        "states": "All"
    },
    {
        "name": "Carnival / Ash Wednesday",
        "description": "Ash Wednesday marks the first day of Lent in western Christian churches.",
        "country": {
            "id": "bl",
            "name": "St. Barts"
        },
        "date": {
            "iso": "2024-02-14",
            "datetime": {
                "year": 2024,
                "month": 2,
                "day": 14
            }
        },
        "type": [
            "Observance"
        ],
        "primary_type": "Observance",
        "canonical_url": "https://calendarific.com/holiday/saint-barthelemy/ash-wednesday",
        "urlid": "saint-barthelemy/ash-wednesday",
        "locations": "All",
        "states": "All"
    },
    {
        "name": "March Equinox",
        "description": "March Equinox in Saint Barth\u00e9lemy (Gustavia)",
        "country": {
            "id": "bl",
            "name": "St. Barts"
        },
        "date": {
            "iso": "2024-03-19T23:06:28-04:00",
            "datetime": {
                "year": 2024,
                "month": 3,
                "day": 19,
                "hour": 23,
                "minute": 6,
                "second": 28
            },
            "timezone": {
                "offset": "-04:00",
                "zoneabb": "AST",
                "zoneoffset": -14400,
                "zonedst": 0,
                "zonetotaloffset": -14400
            }
        },
        "type": [
            "Season"
        ],
        "primary_type": "Season",
        "canonical_url": "https://calendarific.com/holiday/seasons/vernal-equinox",
        "urlid": "seasons/vernal-equinox",
        "locations": "All",
        "states": "All"
    },
    {
        "name": "Good Friday",
        "description": "Good Friday is a global Christian observance two days before Easter Sunday.",
        "country": {
            "id": "bl",
            "name": "St. Barts"
        },
        "date": {
            "iso": "2024-03-29",
            "datetime": {
                "year": 2024,
                "month": 3,
                "day": 29
            }
        },
        "type": [
            "Observance"
        ],
        "primary_type": "Observance",
        "canonical_url": "https://calendarific.com/holiday/saint-barthelemy/good-friday",
        "urlid": "saint-barthelemy/good-friday",
        "locations": "All",
        "states": "All"
    },
    {
        "name": "Easter Sunday",
        "description": "Easter Sunday commemorates Jesus Christ\u2019s resurrection, according to Christian belief.",
        "country": {
            "id": "bl",
            "name": "St. Barts"
        },
        "date": {
            "iso": "2024-03-31",
            "datetime": {
                "year": 2024,
                "month": 3,
                "day": 31
            }
        },
        "type": [
            "Observance"
        ],
        "primary_type": "Observance",
        "canonical_url": "https://calendarific.com/holiday/saint-barthelemy/easter-sunday",
        "urlid": "saint-barthelemy/easter-sunday",
        "locations": "All",
        "states": "All"
    },
    {
        "name": "Easter Monday",
        "description": "Easter Monday is the day after Easter Sunday.",
        "country": {
            "id": "bl",
            "name": "St. Barts"
        },
        "date": {
            "iso": "2024-04-01",
            "datetime": {
                "year": 2024,
                "month": 4,
                "day": 1
            }
        },
        "type": [
            "National holiday"
        ],
        "primary_type": "Public Holiday",
        "canonical_url": "https://calendarific.com/holiday/saint-barthelemy/easter-monday",
        "urlid": "saint-barthelemy/easter-monday",
        "locations": "All",
        "states": "All"
    },
    {
        "name": "Labor Day / May Day",
        "description": "Labor Day, International Workers' Day, and May Day, is a day off for workers in many countries around the world.",
        "country": {
            "id": "bl",
            "name": "St. Barts"
        },
        "date": {
            "iso": "2024-05-01",
            "datetime": {
                "year": 2024,
                "month": 5,
                "day": 1
            }
        },
        "type": [
            "National holiday"
        ],
        "primary_type": "Public Holiday",
        "canonical_url": "https://calendarific.com/holiday/saint-barthelemy/may-day",
        "urlid": "saint-barthelemy/may-day",
        "locations": "All",
        "states": "All"
    },
    {
        "name": "Victory Day",
        "description": "Victory Day is a public holiday in Saint Barth\u00e9lemy",
        "country": {
            "id": "bl",
            "name": "St. Barts"
        },
        "date": {
            "iso": "2024-05-08",
            "datetime": {
                "year": 2024,
                "month": 5,
                "day": 8
            }
        },
        "type": [
            "National holiday"
        ],
        "primary_type": "Public Holiday",
        "canonical_url": "https://calendarific.com/holiday/saint-barthelemy/victory-day",
        "urlid": "saint-barthelemy/victory-day",
        "locations": "All",
        "states": "All"
    },
    {
        "name": "Ascension Day",
        "description": "Ascension Day is the 40th day of Easter. It is a religious holiday that commemorates the ascension of Jesus Christ into heaven.",
        "country": {
            "id": "bl",
            "name": "St. Barts"
        },
        "date": {
            "iso": "2024-05-09",
            "datetime": {
                "year": 2024,
                "month": 5,
                "day": 9
            }
        },
        "type": [
            "National holiday"
        ],
        "primary_type": "Public Holiday",
        "canonical_url": "https://calendarific.com/holiday/saint-barthelemy/ascension",
        "urlid": "saint-barthelemy/ascension",
        "locations": "All",
        "states": "All"
    },
    {
        "name": "Whit Monday",
        "description": "Whit Monday, or Pentecost Monday, is a Christian holiday that falls on the day after Pentecost, which is also known as Whit Sunday or Whitsunday.",
        "country": {
            "id": "bl",
            "name": "St. Barts"
        },
        "date": {
            "iso": "2024-05-20",
            "datetime": {
                "year": 2024,
                "month": 5,
                "day": 20
            }
        },
        "type": [
            "National holiday"
        ],
        "primary_type": "Public Holiday",
        "canonical_url": "https://calendarific.com/holiday/saint-barthelemy/pentecost-monday",
        "urlid": "saint-barthelemy/pentecost-monday",
        "locations": "All",
        "states": "All"
    },
    {
        "name": "June Solstice",
        "description": "June Solstice in Saint Barth\u00e9lemy (Gustavia)",
        "country": {
            "id": "bl",
            "name": "St. Barts"
        },
        "date": {
            "iso": "2024-06-20T16:50:59-04:00",
            "datetime": {
                "year": 2024,
                "month": 6,
                "day": 20,
                "hour": 16,
                "minute": 50,
                "second": 59
            },
            "timezone": {
                "offset": "-04:00",
                "zoneabb": "AST",
                "zoneoffset": -14400,
                "zonedst": 0,
                "zonetotaloffset": -14400
            }
        },
        "type": [
            "Season"
        ],
        "primary_type": "Season",
        "canonical_url": "https://calendarific.com/holiday/seasons/june-solstice",
        "urlid": "seasons/june-solstice",
        "locations": "All",
        "states": "All"
    },
    {
        "name": "French National Day",
        "description": "French National Day is a public holiday in Saint Barth\u00e9lemy",
        "country": {
            "id": "bl",
            "name": "St. Barts"
        },
        "date": {
            "iso": "2024-07-14",
            "datetime": {
                "year": 2024,
                "month": 7,
                "day": 14
            }
        },
        "type": [
            "National holiday"
        ],
        "primary_type": "Public Holiday",
        "canonical_url": "https://calendarific.com/holiday/saint-barthelemy/national-day",
        "urlid": "saint-barthelemy/national-day",
        "locations": "All",
        "states": "All"
    },
    {
        "name": "Assumption of Mary",
        "description": "The Christian feast of the Assumption of Mary is on or around Aug 15 in most countries. A few celebrate Assumption Day at other times of the year.",
        "country": {
            "id": "bl",
            "name": "St. Barts"
        },
        "date": {
            "iso": "2024-08-15",
            "datetime": {
                "year": 2024,
                "month": 8,
                "day": 15
            }
        },
        "type": [
            "National holiday"
        ],
        "primary_type": "Public Holiday",
        "canonical_url": "https://calendarific.com/holiday/saint-barthelemy/assumption-of-mary",
        "urlid": "saint-barthelemy/assumption-of-mary",
        "locations": "All",
        "states": "All"
    },
    {
        "name": "September Equinox",
        "description": "September Equinox in Saint Barth\u00e9lemy (Gustavia)",
        "country": {
            "id": "bl",
            "name": "St. Barts"
        },
        "date": {
            "iso": "2024-09-22T08:43:33-04:00",
            "datetime": {
                "year": 2024,
                "month": 9,
                "day": 22,
                "hour": 8,
                "minute": 43,
                "second": 33
            },
            "timezone": {
                "offset": "-04:00",
                "zoneabb": "AST",
                "zoneoffset": -14400,
                "zonedst": 0,
                "zonetotaloffset": -14400
            }
        },
        "type": [
            "Season"
        ],
        "primary_type": "Season",
        "canonical_url": "https://calendarific.com/holiday/seasons/autumnal-equniox",
        "urlid": "seasons/autumnal-equniox",
        "locations": "All",
        "states": "All"
    },
    {
        "name": "Abolition Day",
        "description": "Abolition Day is a public holiday in Saint Barth\u00e9lemy",
        "country": {
            "id": "bl",
            "name": "St. Barts"
        },
        "date": {
            "iso": "2024-10-09",
            "datetime": {
                "year": 2024,
                "month": 10,
                "day": 9
            }
        },
        "type": [
            "National holiday"
        ],
        "primary_type": "Public Holiday",
        "canonical_url": "https://calendarific.com/holiday/saint-barthelemy/abolition-day",
        "urlid": "saint-barthelemy/abolition-day",
        "locations": "All",
        "states": "All"
    },
    {
        "name": "All Saints' Day",
        "description": "Many churches honor all their saints on All Saints' Day, also known as All Hallows' Day.",
        "country": {
            "id": "bl",
            "name": "St. Barts"
        },
        "date": {
            "iso": "2024-11-01",
            "datetime": {
                "year": 2024,
                "month": 11,
                "day": 1
            }
        },
        "type": [
            "National holiday"
        ],
        "primary_type": "Public Holiday",
        "canonical_url": "https://calendarific.com/holiday/saint-barthelemy/all-saints-day",
        "urlid": "saint-barthelemy/all-saints-day",
        "locations": "All",
        "states": "All"
    },
    {
        "name": "Armistice Day",
        "description": "Armistice Day is a public holiday in Saint Barth\u00e9lemy",
        "country": {
            "id": "bl",
            "name": "St. Barts"
        },
        "date": {
            "iso": "2024-11-11",
            "datetime": {
                "year": 2024,
                "month": 11,
                "day": 11
            }
        },
        "type": [
            "National holiday"
        ],
        "primary_type": "Public Holiday",
        "canonical_url": "https://calendarific.com/holiday/saint-barthelemy/armistice-day",
        "urlid": "saint-barthelemy/armistice-day",
        "locations": "All",
        "states": "All"
    },
    {
        "name": "December Solstice",
        "description": "December Solstice in Saint Barth\u00e9lemy (Gustavia)",
        "country": {
            "id": "bl",
            "name": "St. Barts"
        },
        "date": {
            "iso": "2024-12-21T05:20:34-04:00",
            "datetime": {
                "year": 2024,
                "month": 12,
                "day": 21,
                "hour": 5,
                "minute": 20,
                "second": 34
            },
            "timezone": {
                "offset": "-04:00",
                "zoneabb": "AST",
                "zoneoffset": -14400,
                "zonedst": 0,
                "zonetotaloffset": -14400
            }
        },
        "type": [
            "Season"
        ],
        "primary_type": "Season",
        "canonical_url": "https://calendarific.com/holiday/seasons/december-solstice",
        "urlid": "seasons/december-solstice",
        "locations": "All",
        "states": "All"
    },
    {
        "name": "Christmas Day",
        "description": "Christmas Day is one of the biggest Christian celebrations and falls on December 25 in the Gregorian calendar.",
        "country": {
            "id": "bl",
            "name": "St. Barts"
        },
        "date": {
            "iso": "2024-12-25",
            "datetime": {
                "year": 2024,
                "month": 12,
                "day": 25
            }
        },
        "type": [
            "National holiday"
        ],
        "primary_type": "Public Holiday",
        "canonical_url": "https://calendarific.com/holiday/saint-barthelemy/christmas-day",
        "urlid": "saint-barthelemy/christmas-day",
        "locations": "All",
        "states": "All"
    },
    {
        "name": "Boxing Day",
        "description": "Boxing Day is a observance in Saint Barth\u00e9lemy",
        "country": {
            "id": "bl",
            "name": "St. Barts"
        },
        "date": {
            "iso": "2024-12-26",
            "datetime": {
                "year": 2024,
                "month": 12,
                "day": 26
            }
        },
        "type": [
            "Observance"
        ],
        "primary_type": "Observance",
        "canonical_url": "https://calendarific.com/holiday/saint-barthelemy/second-day-of-christmas",
        "urlid": "saint-barthelemy/second-day-of-christmas",
        "locations": "All",
        "states": "All"
    }
]