[
    {
        "name": "New Year's Day",
        "description": "New Year\u2019s Day is the first day of the year, or January 1, in the Gregorian calendar.",
        "country": {
            "id": "bw",
            "name": "Botswana"
        },
        "date": {
            "iso": "2024-01-01",
            "datetime": {
                "year": 2024,
                "month": 1,
                "day": 1
            }
        },
        "type": [
            "National holiday"
        ],
        "primary_type": "Public Holiday",
        "canonical_url": "https://calendarific.com/holiday/botswana/new-year",
        "urlid": "botswana/new-year",
        "locations": "All",
        "states": "All"
    },
    {
        "name": "Public Holiday (January)",
        "description": "Public Holiday (January) is a public holiday in Botswana",
        "country": {
            "id": "bw",
            "name": "Botswana"
        },
        "date": {
            "iso": "2024-01-02",
            "datetime": {
                "year": 2024,
                "month": 1,
                "day": 2
            }
        },
        "type": [
            "National holiday"
        ],
        "primary_type": "Public Holiday",
        "canonical_url": "https://calendarific.com/holiday/botswana/public-holiday-january",
        "urlid": "botswana/public-holiday-january",
        "locations": "All",
        "states": "All"
    },
    {
        "name": "March Equinox",
        "description": "March Equinox in Botswana (Gaborone)",
        "country": {
            "id": "bw",
            "name": "Botswana"
        },
        "date": {
            "iso": "2024-03-20T05:06:28+02:00",
            "datetime": {
                "year": 2024,
                "month": 3,
                "day": 20,
                "hour": 5,
                "minute": 6,
                "second": 28
            },
            "timezone": {
                "offset": "+02:00",
                "zoneabb": "CAT",
                "zoneoffset": 7200,
                "zonedst": 0,
                "zonetotaloffset": 7200
            }
        },
        "type": [
            "Season"
        ],
        "primary_type": "Season",
        "canonical_url": "https://calendarific.com/holiday/seasons/vernal-equinox",
        "urlid": "seasons/vernal-equinox",
        "locations": "All",
        "states": "All"
    },
    {
        "name": "Good Friday",
        "description": "Good Friday is a global Christian observance two days before Easter Sunday.",
        "country": {
            "id": "bw",
            "name": "Botswana"
        },
        "date": {
            "iso": "2024-03-29",
            "datetime": {
                "year": 2024,
                "month": 3,
                "day": 29
            }
        },
        "type": [
            "National holiday"
        ],
        "primary_type": "Public Holiday",
        "canonical_url": "https://calendarific.com/holiday/botswana/good-friday",
        "urlid": "botswana/good-friday",
        "locations": "All",
        "states": "All"
    },
    {
        "name": "Holy Saturday",
        "description": "Holy Saturday is the day before Easter Sunday.",
        "country": {
            "id": "bw",
            "name": "Botswana"
        },
        "date": {
            "iso": "2024-03-30",
            "datetime": {
                "year": 2024,
                "month": 3,
                "day": 30
            }
        },
        "type": [
            "National holiday"
        ],
        "primary_type": "Public Holiday",
        "canonical_url": "https://calendarific.com/holiday/botswana/easter-saturday",
        "urlid": "botswana/easter-saturday",
        "locations": "All",
        "states": "All"
    },
    {
        "name": "Easter Monday",
        "description": "Easter Monday is the day after Easter Sunday.",
        "country": {
            "id": "bw",
            "name": "Botswana"
        },
        "date": {
            "iso": "2024-04-01",
            "datetime": {
                "year": 2024,
                "month": 4,
                "day": 1
            }
        },
        "type": [
            "National holiday"
        ],
        "primary_type": "Public Holiday",
        "canonical_url": "https://calendarific.com/holiday/botswana/easter-monday",
        "urlid": "botswana/easter-monday",
        "locations": "All",
        "states": "All"
    },
    {
        "name": "Labour Day",
        "description": "Labor Day, International Workers' Day, and May Day, is a day off for workers in many countries around the world.",
        "country": {
            "id": "bw",
            "name": "Botswana"
        },
        "date": {
            "iso": "2024-05-01",
            "datetime": {
                "year": 2024,
                "month": 5,
                "day": 1
            }
        },
        "type": [
            "National holiday"
        ],
        "primary_type": "Public Holiday",
        "canonical_url": "https://calendarific.com/holiday/botswana/may-day",
        "urlid": "botswana/may-day",
        "locations": "All",
        "states": "All"
    },
    {
        "name": "Ascension Day",
        "description": "Ascension Day is the 40th day of Easter. It is a religious holiday that commemorates the ascension of Jesus Christ into heaven.",
        "country": {
            "id": "bw",
            "name": "Botswana"
        },
        "date": {
            "iso": "2024-05-09",
            "datetime": {
                "year": 2024,
                "month": 5,
                "day": 9
            }
        },
        "type": [
            "National holiday"
        ],
        "primary_type": "Public Holiday",
        "canonical_url": "https://calendarific.com/holiday/botswana/ascension",
        "urlid": "botswana/ascension",
        "locations": "All",
        "states": "All"
    },
    {
        "name": "Mother's Day",
        "description": "Mother\u2019s Day celebrates the achievements and efforts of mothers and mother figures.",
        "country": {
            "id": "bw",
            "name": "Botswana"
        },
        "date": {
            "iso": "2024-05-12",
            "datetime": {
                "year": 2024,
                "month": 5,
                "day": 12
            }
        },
        "type": [
            "Observance"
        ],
        "primary_type": "Observance",
        "canonical_url": "https://calendarific.com/holiday/botswana/mothers-day",
        "urlid": "botswana/mothers-day",
        "locations": "All",
        "states": "All"
    },
    {
        "name": "Father's Day",
        "description": "Father\u2019s Day celebrates fatherhood and male parenting on different dates worldwide.",
        "country": {
            "id": "bw",
            "name": "Botswana"
        },
        "date": {
            "iso": "2024-06-16",
            "datetime": {
                "year": 2024,
                "month": 6,
                "day": 16
            }
        },
        "type": [
            "Observance"
        ],
        "primary_type": "Observance",
        "canonical_url": "https://calendarific.com/holiday/botswana/fathers-day",
        "urlid": "botswana/fathers-day",
        "locations": "All",
        "states": "All"
    },
    {
        "name": "June Solstice",
        "description": "June Solstice in Botswana (Gaborone)",
        "country": {
            "id": "bw",
            "name": "Botswana"
        },
        "date": {
            "iso": "2024-06-20T22:50:59+02:00",
            "datetime": {
                "year": 2024,
                "month": 6,
                "day": 20,
                "hour": 22,
                "minute": 50,
                "second": 59
            },
            "timezone": {
                "offset": "+02:00",
                "zoneabb": "CAT",
                "zoneoffset": 7200,
                "zonedst": 0,
                "zonetotaloffset": 7200
            }
        },
        "type": [
            "Season"
        ],
        "primary_type": "Season",
        "canonical_url": "https://calendarific.com/holiday/seasons/june-solstice",
        "urlid": "seasons/june-solstice",
        "locations": "All",
        "states": "All"
    },
    {
        "name": "Sir Seretse Khama Day",
        "description": "Sir Seretse Khama Day is a public holiday in Botswana",
        "country": {
            "id": "bw",
            "name": "Botswana"
        },
        "date": {
            "iso": "2024-07-01",
            "datetime": {
                "year": 2024,
                "month": 7,
                "day": 1
            }
        },
        "type": [
            "National holiday"
        ],
        "primary_type": "Public Holiday",
        "canonical_url": "https://calendarific.com/holiday/botswana/sir-seretse-khama-day",
        "urlid": "botswana/sir-seretse-khama-day",
        "locations": "All",
        "states": "All"
    },
    {
        "name": "President's Day",
        "description": "President's Day is a public holiday in Botswana",
        "country": {
            "id": "bw",
            "name": "Botswana"
        },
        "date": {
            "iso": "2024-07-15",
            "datetime": {
                "year": 2024,
                "month": 7,
                "day": 15
            }
        },
        "type": [
            "National holiday"
        ],
        "primary_type": "Public Holiday",
        "canonical_url": "https://calendarific.com/holiday/botswana/presidents-day",
        "urlid": "botswana/presidents-day",
        "locations": "All",
        "states": "All"
    },
    {
        "name": "Public Holiday (July)",
        "description": "Public Holiday (July) is a public holiday in Botswana",
        "country": {
            "id": "bw",
            "name": "Botswana"
        },
        "date": {
            "iso": "2024-07-16",
            "datetime": {
                "year": 2024,
                "month": 7,
                "day": 16
            }
        },
        "type": [
            "National holiday"
        ],
        "primary_type": "Public Holiday",
        "canonical_url": "https://calendarific.com/holiday/botswana/public-holiday-july",
        "urlid": "botswana/public-holiday-july",
        "locations": "All",
        "states": "All"
    },
    {
        "name": "September Equinox",
        "description": "September Equinox in Botswana (Gaborone)",
        "country": {
            "id": "bw",
            "name": "Botswana"
        },
        "date": {
            "iso": "2024-09-22T14:43:33+02:00",
            "datetime": {
                "year": 2024,
                "month": 9,
                "day": 22,
                "hour": 14,
                "minute": 43,
                "second": 33
            },
            "timezone": {
                "offset": "+02:00",
                "zoneabb": "CAT",
                "zoneoffset": 7200,
                "zonedst": 0,
                "zonetotaloffset": 7200
            }
        },
        "type": [
            "Season"
        ],
        "primary_type": "Season",
        "canonical_url": "https://calendarific.com/holiday/seasons/autumnal-equniox",
        "urlid": "seasons/autumnal-equniox",
        "locations": "All",
        "states": "All"
    },
    {
        "name": "Botswana Day",
        "description": "Botswana Day is a public holiday in Botswana",
        "country": {
            "id": "bw",
            "name": "Botswana"
        },
        "date": {
            "iso": "2024-09-30",
            "datetime": {
                "year": 2024,
                "month": 9,
                "day": 30
            }
        },
        "type": [
            "National holiday"
        ],
        "primary_type": "Public Holiday",
        "canonical_url": "https://calendarific.com/holiday/botswana/botswana-day",
        "urlid": "botswana/botswana-day",
        "locations": "All",
        "states": "All"
    },
    {
        "name": "Public Holiday (October)",
        "description": "Public Holiday (October) is a public holiday in Botswana",
        "country": {
            "id": "bw",
            "name": "Botswana"
        },
        "date": {
            "iso": "2024-10-01",
            "datetime": {
                "year": 2024,
                "month": 10,
                "day": 1
            }
        },
        "type": [
            "National holiday"
        ],
        "primary_type": "Public Holiday",
        "canonical_url": "https://calendarific.com/holiday/botswana/public-holiday-october",
        "urlid": "botswana/public-holiday-october",
        "locations": "All",
        "states": "All"
    },
    {
        "name": "December Solstice",
        "description": "December Solstice in Botswana (Gaborone)",
        "country": {
            "id": "bw",
            "name": "Botswana"
        },
        "date": {
            "iso": "2024-12-21T11:20:34+02:00",
            "datetime": {
                "year": 2024,
                "month": 12,
                "day": 21,
                "hour": 11,
                "minute": 20,
                "second": 34
            },
            "timezone": {
                "offset": "+02:00",
                "zoneabb": "CAT",
                "zoneoffset": 7200,
                "zonedst": 0,
                "zonetotaloffset": 7200
            }
        },
        "type": [
            "Season"
        ],
        "primary_type": "Season",
        "canonical_url": "https://calendarific.com/holiday/seasons/december-solstice",
        "urlid": "seasons/december-solstice",
        "locations": "All",
        "states": "All"
    },
    {
        "name": "Christmas Day",
        "description": "Christmas Day is one of the biggest Christian celebrations and falls on December 25 in the Gregorian calendar.",
        "country": {
            "id": "bw",
            "name": "Botswana"
        },
        "date": {
            "iso": "2024-12-25",
            "datetime": {
                "year": 2024,
                "month": 12,
                "day": 25
            }
        },
        "type": [
            "National holiday"
        ],
        "primary_type": "Public Holiday",
        "canonical_url": "https://calendarific.com/holiday/botswana/christmas-day",
        "urlid": "botswana/christmas-day",
        "locations": "All",
        "states": "All"
    },
    {
        "name": "Boxing Day",
        "description": "Boxing Day is a public holiday in Botswana",
        "country": {
            "id": "bw",
            "name": "Botswana"
        },
        "date": {
            "iso": "2024-12-26",
            "datetime": {
                "year": 2024,
                "month": 12,
                "day": 26
            }
        },
        "type": [
            "National holiday"
        ],
        "primary_type": "Public Holiday",
        "canonical_url": "https://calendarific.com/holiday/botswana/boxing-day",
        "urlid": "botswana/boxing-day",
        "locations": "All",
        "states": "All"
    }
]