[
    {
        "name": "New Year's Day",
        "description": "New Year\u2019s Day is the first day of the year, or January 1, in the Gregorian calendar.",
        "country": {
            "id": "dk",
            "name": "Denmark"
        },
        "date": {
            "iso": "2024-01-01",
            "datetime": {
                "year": 2024,
                "month": 1,
                "day": 1
            }
        },
        "type": [
            "National holiday"
        ],
        "primary_type": "National holiday",
        "canonical_url": "https://calendarific.com/holiday/denmark/new-year-day",
        "urlid": "denmark/new-year-day",
        "locations": "All",
        "states": "All"
    },
    {
        "name": "Carnival",
        "description": "Carnival is a observance in Denmark",
        "country": {
            "id": "dk",
            "name": "Denmark"
        },
        "date": {
            "iso": "2024-02-11",
            "datetime": {
                "year": 2024,
                "month": 2,
                "day": 11
            }
        },
        "type": [
            "Observance"
        ],
        "primary_type": "Observance",
        "canonical_url": "https://calendarific.com/holiday/denmark/carnival",
        "urlid": "denmark/carnival",
        "locations": "All",
        "states": "All"
    },
    {
        "name": "Valentine's Day",
        "description": "February 14 is Valentine's Day or Saint Valentine's Feast. The day of love owes its origins to ancient Roman and European Christian traditions.",
        "country": {
            "id": "dk",
            "name": "Denmark"
        },
        "date": {
            "iso": "2024-02-14",
            "datetime": {
                "year": 2024,
                "month": 2,
                "day": 14
            }
        },
        "type": [
            "Observance"
        ],
        "primary_type": "Observance",
        "canonical_url": "https://calendarific.com/holiday/denmark/valentine-day",
        "urlid": "denmark/valentine-day",
        "locations": "All",
        "states": "All"
    },
    {
        "name": "March Equinox",
        "description": "March Equinox in Denmark (Copenhagen)",
        "country": {
            "id": "dk",
            "name": "Denmark"
        },
        "date": {
            "iso": "2024-03-20T04:06:28+01:00",
            "datetime": {
                "year": 2024,
                "month": 3,
                "day": 20,
                "hour": 4,
                "minute": 6,
                "second": 28
            },
            "timezone": {
                "offset": "+01:00",
                "zoneabb": "CET",
                "zoneoffset": 3600,
                "zonedst": 0,
                "zonetotaloffset": 3600
            }
        },
        "type": [
            "Season"
        ],
        "primary_type": "Season",
        "canonical_url": "https://calendarific.com/holiday/seasons/vernal-equinox",
        "urlid": "seasons/vernal-equinox",
        "locations": "All",
        "states": "All"
    },
    {
        "name": "Palm Sunday",
        "description": "Palm Sunday is a Christian feast that commemorates Jesus Christ\u2019s entry into Jerusalem. It is also the start of Holy Week.",
        "country": {
            "id": "dk",
            "name": "Denmark"
        },
        "date": {
            "iso": "2024-03-24",
            "datetime": {
                "year": 2024,
                "month": 3,
                "day": 24
            }
        },
        "type": [
            "Observance"
        ],
        "primary_type": "Observance",
        "canonical_url": "https://calendarific.com/holiday/denmark/palm-sunday",
        "urlid": "denmark/palm-sunday",
        "locations": "All",
        "states": "All"
    },
    {
        "name": "Maundy Thursday",
        "description": "Maundy Thursday is a Christian observance on the Thursday during Holy Week. It is the day before Good Friday.",
        "country": {
            "id": "dk",
            "name": "Denmark"
        },
        "date": {
            "iso": "2024-03-28",
            "datetime": {
                "year": 2024,
                "month": 3,
                "day": 28
            }
        },
        "type": [
            "National holiday"
        ],
        "primary_type": "National holiday",
        "canonical_url": "https://calendarific.com/holiday/denmark/maundy-thursday",
        "urlid": "denmark/maundy-thursday",
        "locations": "All",
        "states": "All"
    },
    {
        "name": "Good Friday",
        "description": "Good Friday is a global Christian observance two days before Easter Sunday.",
        "country": {
            "id": "dk",
            "name": "Denmark"
        },
        "date": {
            "iso": "2024-03-29",
            "datetime": {
                "year": 2024,
                "month": 3,
                "day": 29
            }
        },
        "type": [
            "National holiday"
        ],
        "primary_type": "National holiday",
        "canonical_url": "https://calendarific.com/holiday/denmark/good-friday",
        "urlid": "denmark/good-friday",
        "locations": "All",
        "states": "All"
    },
    {
        "name": "Easter Sunday",
        "description": "Easter Sunday commemorates Jesus Christ\u2019s resurrection, according to Christian belief.",
        "country": {
            "id": "dk",
            "name": "Denmark"
        },
        "date": {
            "iso": "2024-03-31",
            "datetime": {
                "year": 2024,
                "month": 3,
                "day": 31
            }
        },
        "type": [
            "National holiday"
        ],
        "primary_type": "National holiday",
        "canonical_url": "https://calendarific.com/holiday/denmark/easter-day",
        "urlid": "denmark/easter-day",
        "locations": "All",
        "states": "All"
    },
    {
        "name": "Daylight Saving Time starts",
        "description": "Daylight Saving Time starts in Denmark",
        "country": {
            "id": "dk",
            "name": "Denmark"
        },
        "date": {
            "iso": "2024-03-31T02:00:00+01:00",
            "datetime": {
                "year": 2024,
                "month": 3,
                "day": 31,
                "hour": 2,
                "minute": 0,
                "second": 0
            },
            "timezone": {
                "offset": "+01:00",
                "zoneabb": "CET",
                "zoneoffset": 3600,
                "zonedst": 0,
                "zonetotaloffset": 3600
            }
        },
        "type": [
            "Clock change/Daylight Saving Time"
        ],
        "primary_type": "Clock change/Daylight Saving Time",
        "canonical_url": "https://calendarific.com/holiday/",
        "urlid": null,
        "locations": "All",
        "states": "All"
    },
    {
        "name": "Easter Monday",
        "description": "Easter Monday is the day after Easter Sunday.",
        "country": {
            "id": "dk",
            "name": "Denmark"
        },
        "date": {
            "iso": "2024-04-01",
            "datetime": {
                "year": 2024,
                "month": 4,
                "day": 1
            }
        },
        "type": [
            "National holiday"
        ],
        "primary_type": "National holiday",
        "canonical_url": "https://calendarific.com/holiday/denmark/easter-monday",
        "urlid": "denmark/easter-monday",
        "locations": "All",
        "states": "All"
    },
    {
        "name": "Great Prayer Day",
        "description": "Great Prayer Day is a observance in Denmark",
        "country": {
            "id": "dk",
            "name": "Denmark"
        },
        "date": {
            "iso": "2024-04-26",
            "datetime": {
                "year": 2024,
                "month": 4,
                "day": 26
            }
        },
        "type": [
            "Observance"
        ],
        "primary_type": "Observance",
        "canonical_url": "https://calendarific.com/holiday/denmark/prayer-day",
        "urlid": "denmark/prayer-day",
        "locations": "All",
        "states": "All"
    },
    {
        "name": "Labor Day / May Day",
        "description": "Labor Day, International Workers' Day, and May Day, is a day off for workers in many countries around the world.",
        "country": {
            "id": "dk",
            "name": "Denmark"
        },
        "date": {
            "iso": "2024-05-01",
            "datetime": {
                "year": 2024,
                "month": 5,
                "day": 1
            }
        },
        "type": [
            "Optional holiday"
        ],
        "primary_type": "Private Sector Holiday",
        "canonical_url": "https://calendarific.com/holiday/denmark/labor-day",
        "urlid": "denmark/labor-day",
        "locations": "All",
        "states": "All"
    },
    {
        "name": "Liberation Day",
        "description": "Liberation Day is a observance in Denmark",
        "country": {
            "id": "dk",
            "name": "Denmark"
        },
        "date": {
            "iso": "2024-05-05",
            "datetime": {
                "year": 2024,
                "month": 5,
                "day": 5
            }
        },
        "type": [
            "Observance"
        ],
        "primary_type": "Observance",
        "canonical_url": "https://calendarific.com/holiday/denmark/liberation-day",
        "urlid": "denmark/liberation-day",
        "locations": "All",
        "states": "All"
    },
    {
        "name": "Ascension Day",
        "description": "Ascension Day is the 40th day of Easter. It is a religious holiday that commemorates the ascension of Jesus Christ into heaven.",
        "country": {
            "id": "dk",
            "name": "Denmark"
        },
        "date": {
            "iso": "2024-05-09",
            "datetime": {
                "year": 2024,
                "month": 5,
                "day": 9
            }
        },
        "type": [
            "National holiday"
        ],
        "primary_type": "National holiday",
        "canonical_url": "https://calendarific.com/holiday/denmark/ascension-day",
        "urlid": "denmark/ascension-day",
        "locations": "All",
        "states": "All"
    },
    {
        "name": "Mother\u2019s Day",
        "description": "Mother\u2019s Day celebrates the achievements and efforts of mothers and mother figures.",
        "country": {
            "id": "dk",
            "name": "Denmark"
        },
        "date": {
            "iso": "2024-05-12",
            "datetime": {
                "year": 2024,
                "month": 5,
                "day": 12
            }
        },
        "type": [
            "Observance"
        ],
        "primary_type": "Observance",
        "canonical_url": "https://calendarific.com/holiday/denmark/mothers-day",
        "urlid": "denmark/mothers-day",
        "locations": "All",
        "states": "All"
    },
    {
        "name": "Whit Sunday",
        "description": "Many Christians all over the world annually observe Pentecost, also known as Whitsunday or Whit Sunday.",
        "country": {
            "id": "dk",
            "name": "Denmark"
        },
        "date": {
            "iso": "2024-05-19",
            "datetime": {
                "year": 2024,
                "month": 5,
                "day": 19
            }
        },
        "type": [
            "National holiday"
        ],
        "primary_type": "National holiday",
        "canonical_url": "https://calendarific.com/holiday/denmark/whit-sunday",
        "urlid": "denmark/whit-sunday",
        "locations": "All",
        "states": "All"
    },
    {
        "name": "Whit Monday",
        "description": "Whit Monday, or Pentecost Monday, is a Christian holiday that falls on the day after Pentecost, which is also known as Whit Sunday or Whitsunday.",
        "country": {
            "id": "dk",
            "name": "Denmark"
        },
        "date": {
            "iso": "2024-05-20",
            "datetime": {
                "year": 2024,
                "month": 5,
                "day": 20
            }
        },
        "type": [
            "National holiday"
        ],
        "primary_type": "National holiday",
        "canonical_url": "https://calendarific.com/holiday/denmark/whit-monday",
        "urlid": "denmark/whit-monday",
        "locations": "All",
        "states": "All"
    },
    {
        "name": "Father\u2019s Day",
        "description": "Father\u2019s Day celebrates fatherhood and male parenting on different dates worldwide.",
        "country": {
            "id": "dk",
            "name": "Denmark"
        },
        "date": {
            "iso": "2024-06-05",
            "datetime": {
                "year": 2024,
                "month": 6,
                "day": 5
            }
        },
        "type": [
            "Observance"
        ],
        "primary_type": "Observance",
        "canonical_url": "https://calendarific.com/holiday/denmark/fathers-day",
        "urlid": "denmark/fathers-day",
        "locations": "All",
        "states": "All"
    },
    {
        "name": "Constitution Day",
        "description": "Constitution Day is a private sector holiday in Denmark",
        "country": {
            "id": "dk",
            "name": "Denmark"
        },
        "date": {
            "iso": "2024-06-05",
            "datetime": {
                "year": 2024,
                "month": 6,
                "day": 5
            }
        },
        "type": [
            "Optional holiday"
        ],
        "primary_type": "Private Sector Holiday",
        "canonical_url": "https://calendarific.com/holiday/denmark/constitution-day",
        "urlid": "denmark/constitution-day",
        "locations": "All",
        "states": "All"
    },
    {
        "name": "June Solstice",
        "description": "June Solstice in Denmark (Copenhagen)",
        "country": {
            "id": "dk",
            "name": "Denmark"
        },
        "date": {
            "iso": "2024-06-20T22:50:59+02:00",
            "datetime": {
                "year": 2024,
                "month": 6,
                "day": 20,
                "hour": 22,
                "minute": 50,
                "second": 59
            },
            "timezone": {
                "offset": "+02:00",
                "zoneabb": "CEST",
                "zoneoffset": 3600,
                "zonedst": 3600,
                "zonetotaloffset": 7200
            }
        },
        "type": [
            "Season"
        ],
        "primary_type": "Season",
        "canonical_url": "https://calendarific.com/holiday/seasons/june-solstice",
        "urlid": "seasons/june-solstice",
        "locations": "All",
        "states": "All"
    },
    {
        "name": "September Equinox",
        "description": "September Equinox in Denmark (Copenhagen)",
        "country": {
            "id": "dk",
            "name": "Denmark"
        },
        "date": {
            "iso": "2024-09-22T14:43:33+02:00",
            "datetime": {
                "year": 2024,
                "month": 9,
                "day": 22,
                "hour": 14,
                "minute": 43,
                "second": 33
            },
            "timezone": {
                "offset": "+02:00",
                "zoneabb": "CEST",
                "zoneoffset": 3600,
                "zonedst": 3600,
                "zonetotaloffset": 7200
            }
        },
        "type": [
            "Season"
        ],
        "primary_type": "Season",
        "canonical_url": "https://calendarific.com/holiday/seasons/autumnal-equniox",
        "urlid": "seasons/autumnal-equniox",
        "locations": "All",
        "states": "All"
    },
    {
        "name": "Daylight Saving Time ends",
        "description": "Daylight Saving Time ends in Denmark",
        "country": {
            "id": "dk",
            "name": "Denmark"
        },
        "date": {
            "iso": "2024-10-27T03:00:00+02:00",
            "datetime": {
                "year": 2024,
                "month": 10,
                "day": 27,
                "hour": 3,
                "minute": 0,
                "second": 0
            },
            "timezone": {
                "offset": "+02:00",
                "zoneabb": "CEST",
                "zoneoffset": 3600,
                "zonedst": 3600,
                "zonetotaloffset": 7200
            }
        },
        "type": [
            "Clock change/Daylight Saving Time"
        ],
        "primary_type": "Clock change/Daylight Saving Time",
        "canonical_url": "https://calendarific.com/holiday/",
        "urlid": null,
        "locations": "All",
        "states": "All"
    },
    {
        "name": "Halloween",
        "description": "Halloween is a festive occasion that is celebrated in many countries on October 31 each year.",
        "country": {
            "id": "dk",
            "name": "Denmark"
        },
        "date": {
            "iso": "2024-10-31",
            "datetime": {
                "year": 2024,
                "month": 10,
                "day": 31
            }
        },
        "type": [
            "Observance"
        ],
        "primary_type": "Observance",
        "canonical_url": "https://calendarific.com/holiday/denmark/halloween",
        "urlid": "denmark/halloween",
        "locations": "All",
        "states": "All"
    },
    {
        "name": "December Solstice",
        "description": "December Solstice in Denmark (Copenhagen)",
        "country": {
            "id": "dk",
            "name": "Denmark"
        },
        "date": {
            "iso": "2024-12-21T10:20:34+01:00",
            "datetime": {
                "year": 2024,
                "month": 12,
                "day": 21,
                "hour": 10,
                "minute": 20,
                "second": 34
            },
            "timezone": {
                "offset": "+01:00",
                "zoneabb": "CET",
                "zoneoffset": 3600,
                "zonedst": 0,
                "zonetotaloffset": 3600
            }
        },
        "type": [
            "Season"
        ],
        "primary_type": "Season",
        "canonical_url": "https://calendarific.com/holiday/seasons/december-solstice",
        "urlid": "seasons/december-solstice",
        "locations": "All",
        "states": "All"
    },
    {
        "name": "Christmas Eve",
        "description": "Christmas Eve is the day before Christmas Day and falls on December 24 in the Gregorian calendar.",
        "country": {
            "id": "dk",
            "name": "Denmark"
        },
        "date": {
            "iso": "2024-12-24",
            "datetime": {
                "year": 2024,
                "month": 12,
                "day": 24
            }
        },
        "type": [
            "Observance"
        ],
        "primary_type": "Restricted Trading Day",
        "canonical_url": "https://calendarific.com/holiday/denmark/christmas-eve",
        "urlid": "denmark/christmas-eve",
        "locations": "All",
        "states": "All"
    },
    {
        "name": "Christmas Eve",
        "description": "Christmas Eve is the day before Christmas Day and falls on December 24 in the Gregorian calendar.",
        "country": {
            "id": "dk",
            "name": "Denmark"
        },
        "date": {
            "iso": "2024-12-24",
            "datetime": {
                "year": 2024,
                "month": 12,
                "day": 24
            }
        },
        "type": [
            "Observance"
        ],
        "primary_type": "Observance",
        "canonical_url": "https://calendarific.com/holiday/denmark/christmas-eve",
        "urlid": "denmark/christmas-eve",
        "locations": "All",
        "states": "All"
    },
    {
        "name": "Christmas Day",
        "description": "Christmas Day is one of the biggest Christian celebrations and falls on December 25 in the Gregorian calendar.",
        "country": {
            "id": "dk",
            "name": "Denmark"
        },
        "date": {
            "iso": "2024-12-25",
            "datetime": {
                "year": 2024,
                "month": 12,
                "day": 25
            }
        },
        "type": [
            "National holiday"
        ],
        "primary_type": "National holiday",
        "canonical_url": "https://calendarific.com/holiday/denmark/christmas-day",
        "urlid": "denmark/christmas-day",
        "locations": "All",
        "states": "All"
    },
    {
        "name": "2nd Christmas Day",
        "description": "2nd Christmas Day is a national holiday in Denmark",
        "country": {
            "id": "dk",
            "name": "Denmark"
        },
        "date": {
            "iso": "2024-12-26",
            "datetime": {
                "year": 2024,
                "month": 12,
                "day": 26
            }
        },
        "type": [
            "National holiday"
        ],
        "primary_type": "National holiday",
        "canonical_url": "https://calendarific.com/holiday/denmark/2nd-christmas-day",
        "urlid": "denmark/2nd-christmas-day",
        "locations": "All",
        "states": "All"
    },
    {
        "name": "New Year's Eve",
        "description": "New Year\u2019s Eve is the last day of the year, December 31, in the Gregorian calendar.",
        "country": {
            "id": "dk",
            "name": "Denmark"
        },
        "date": {
            "iso": "2024-12-31",
            "datetime": {
                "year": 2024,
                "month": 12,
                "day": 31
            }
        },
        "type": [
            "Observance"
        ],
        "primary_type": "Restricted Trading Day",
        "canonical_url": "https://calendarific.com/holiday/denmark/new-year-eve",
        "urlid": "denmark/new-year-eve",
        "locations": "All",
        "states": "All"
    },
    {
        "name": "New Year's Eve",
        "description": "New Year\u2019s Eve is the last day of the year, December 31, in the Gregorian calendar.",
        "country": {
            "id": "dk",
            "name": "Denmark"
        },
        "date": {
            "iso": "2024-12-31",
            "datetime": {
                "year": 2024,
                "month": 12,
                "day": 31
            }
        },
        "type": [
            "Observance"
        ],
        "primary_type": "Observance",
        "canonical_url": "https://calendarific.com/holiday/denmark/new-year-eve",
        "urlid": "denmark/new-year-eve",
        "locations": "All",
        "states": "All"
    }
]