[
    {
        "name": "New Year",
        "description": "New Year\u2019s Day is the first day of the year, or January 1, in the Gregorian calendar.",
        "country": {
            "id": "gw",
            "name": "Guinea-Bissau"
        },
        "date": {
            "iso": "2024-01-01",
            "datetime": {
                "year": 2024,
                "month": 1,
                "day": 1
            }
        },
        "type": [
            "National holiday"
        ],
        "primary_type": "Public Holiday",
        "canonical_url": "https://calendarific.com/holiday/guinea-bissau/new-year",
        "urlid": "guinea-bissau/new-year",
        "locations": "All",
        "states": "All"
    },
    {
        "name": "Heroes Day",
        "description": "Heroes Day is a public holiday in Guinea-Bissau",
        "country": {
            "id": "gw",
            "name": "Guinea-Bissau"
        },
        "date": {
            "iso": "2024-01-20",
            "datetime": {
                "year": 2024,
                "month": 1,
                "day": 20
            }
        },
        "type": [
            "National holiday"
        ],
        "primary_type": "Public Holiday",
        "canonical_url": "https://calendarific.com/holiday/guinea-bissau/heroes-day",
        "urlid": "guinea-bissau/heroes-day",
        "locations": "All",
        "states": "All"
    },
    {
        "name": "International Women's Day",
        "description": "International Women's Day is a observance in Guinea-Bissau",
        "country": {
            "id": "gw",
            "name": "Guinea-Bissau"
        },
        "date": {
            "iso": "2024-03-08",
            "datetime": {
                "year": 2024,
                "month": 3,
                "day": 8
            }
        },
        "type": [
            "Observance"
        ],
        "primary_type": "Observance",
        "canonical_url": "https://calendarific.com/holiday/guinea-bissau/international-womens-day",
        "urlid": "guinea-bissau/international-womens-day",
        "locations": "All",
        "states": "All"
    },
    {
        "name": "March Equinox",
        "description": "March Equinox in Guinea-Bissau (Bissau)",
        "country": {
            "id": "gw",
            "name": "Guinea-Bissau"
        },
        "date": {
            "iso": "2024-03-20T03:06:28+00:00",
            "datetime": {
                "year": 2024,
                "month": 3,
                "day": 20,
                "hour": 3,
                "minute": 6,
                "second": 28
            },
            "timezone": {
                "offset": "+00:00",
                "zoneabb": "GMT",
                "zoneoffset": 0,
                "zonedst": 0,
                "zonetotaloffset": 0
            }
        },
        "type": [
            "Season"
        ],
        "primary_type": "Season",
        "canonical_url": "https://calendarific.com/holiday/seasons/vernal-equinox",
        "urlid": "seasons/vernal-equinox",
        "locations": "All",
        "states": "All"
    },
    {
        "name": "Easter Sunday",
        "description": "Easter Sunday commemorates Jesus Christ\u2019s resurrection, according to Christian belief.",
        "country": {
            "id": "gw",
            "name": "Guinea-Bissau"
        },
        "date": {
            "iso": "2024-03-31",
            "datetime": {
                "year": 2024,
                "month": 3,
                "day": 31
            }
        },
        "type": [
            "National holiday"
        ],
        "primary_type": "Public Holiday",
        "canonical_url": "https://calendarific.com/holiday/guinea-bissau/easter-sunday",
        "urlid": "guinea-bissau/easter-sunday",
        "locations": "All",
        "states": "All"
    },
    {
        "name": "Eid al-Fitr",
        "description": "Eid al-Fitr is a holiday to mark the end of the Islamic month of Ramadan, during which Muslims fast during the hours of daylight.",
        "country": {
            "id": "gw",
            "name": "Guinea-Bissau"
        },
        "date": {
            "iso": "2024-04-10",
            "datetime": {
                "year": 2024,
                "month": 4,
                "day": 10
            }
        },
        "type": [
            "National holiday"
        ],
        "primary_type": "Public Holiday",
        "canonical_url": "https://calendarific.com/holiday/guinea-bissau/eid-al-fitr",
        "urlid": "guinea-bissau/eid-al-fitr",
        "locations": "All",
        "states": "All"
    },
    {
        "name": "Labour Day",
        "description": "Labor Day, International Workers' Day, and May Day, is a day off for workers in many countries around the world.",
        "country": {
            "id": "gw",
            "name": "Guinea-Bissau"
        },
        "date": {
            "iso": "2024-05-01",
            "datetime": {
                "year": 2024,
                "month": 5,
                "day": 1
            }
        },
        "type": [
            "National holiday"
        ],
        "primary_type": "Public Holiday",
        "canonical_url": "https://calendarific.com/holiday/guinea-bissau/may-day",
        "urlid": "guinea-bissau/may-day",
        "locations": "All",
        "states": "All"
    },
    {
        "name": "Eid al-Adha",
        "description": "Eid al-Adha (Id ul-Adha) is an Islamic festival falling on the 10th day of the month of Dhul Hijja (Thou al-Hijja) to commemorate the willingness of Ibrahim (Abraham) to sacrifice his son.",
        "country": {
            "id": "gw",
            "name": "Guinea-Bissau"
        },
        "date": {
            "iso": "2024-06-17",
            "datetime": {
                "year": 2024,
                "month": 6,
                "day": 17
            }
        },
        "type": [
            "National holiday"
        ],
        "primary_type": "Public Holiday",
        "canonical_url": "https://calendarific.com/holiday/guinea-bissau/eid-al-adha",
        "urlid": "guinea-bissau/eid-al-adha",
        "locations": "All",
        "states": "All"
    },
    {
        "name": "June Solstice",
        "description": "June Solstice in Guinea-Bissau (Bissau)",
        "country": {
            "id": "gw",
            "name": "Guinea-Bissau"
        },
        "date": {
            "iso": "2024-06-20T20:50:59+00:00",
            "datetime": {
                "year": 2024,
                "month": 6,
                "day": 20,
                "hour": 20,
                "minute": 50,
                "second": 59
            },
            "timezone": {
                "offset": "+00:00",
                "zoneabb": "GMT",
                "zoneoffset": 0,
                "zonedst": 0,
                "zonetotaloffset": 0
            }
        },
        "type": [
            "Season"
        ],
        "primary_type": "Season",
        "canonical_url": "https://calendarific.com/holiday/seasons/june-solstice",
        "urlid": "seasons/june-solstice",
        "locations": "All",
        "states": "All"
    },
    {
        "name": "September Equinox",
        "description": "September Equinox in Guinea-Bissau (Bissau)",
        "country": {
            "id": "gw",
            "name": "Guinea-Bissau"
        },
        "date": {
            "iso": "2024-09-22T12:43:33+00:00",
            "datetime": {
                "year": 2024,
                "month": 9,
                "day": 22,
                "hour": 12,
                "minute": 43,
                "second": 33
            },
            "timezone": {
                "offset": "+00:00",
                "zoneabb": "GMT",
                "zoneoffset": 0,
                "zonedst": 0,
                "zonetotaloffset": 0
            }
        },
        "type": [
            "Season"
        ],
        "primary_type": "Season",
        "canonical_url": "https://calendarific.com/holiday/seasons/autumnal-equniox",
        "urlid": "seasons/autumnal-equniox",
        "locations": "All",
        "states": "All"
    },
    {
        "name": "Independence Day (National Day)",
        "description": "Independence Day (National Day) is a public holiday in Guinea-Bissau",
        "country": {
            "id": "gw",
            "name": "Guinea-Bissau"
        },
        "date": {
            "iso": "2024-09-24",
            "datetime": {
                "year": 2024,
                "month": 9,
                "day": 24
            }
        },
        "type": [
            "National holiday"
        ],
        "primary_type": "Public Holiday",
        "canonical_url": "https://calendarific.com/holiday/guinea-bissau/independence-day",
        "urlid": "guinea-bissau/independence-day",
        "locations": "All",
        "states": "All"
    },
    {
        "name": "December Solstice",
        "description": "December Solstice in Guinea-Bissau (Bissau)",
        "country": {
            "id": "gw",
            "name": "Guinea-Bissau"
        },
        "date": {
            "iso": "2024-12-21T09:20:34+00:00",
            "datetime": {
                "year": 2024,
                "month": 12,
                "day": 21,
                "hour": 9,
                "minute": 20,
                "second": 34
            },
            "timezone": {
                "offset": "+00:00",
                "zoneabb": "GMT",
                "zoneoffset": 0,
                "zonedst": 0,
                "zonetotaloffset": 0
            }
        },
        "type": [
            "Season"
        ],
        "primary_type": "Season",
        "canonical_url": "https://calendarific.com/holiday/seasons/december-solstice",
        "urlid": "seasons/december-solstice",
        "locations": "All",
        "states": "All"
    },
    {
        "name": "Christmas Day",
        "description": "Christmas Day is one of the biggest Christian celebrations and falls on December 25 in the Gregorian calendar.",
        "country": {
            "id": "gw",
            "name": "Guinea-Bissau"
        },
        "date": {
            "iso": "2024-12-25",
            "datetime": {
                "year": 2024,
                "month": 12,
                "day": 25
            }
        },
        "type": [
            "National holiday"
        ],
        "primary_type": "Public Holiday",
        "canonical_url": "https://calendarific.com/holiday/guinea-bissau/christmas-day",
        "urlid": "guinea-bissau/christmas-day",
        "locations": "All",
        "states": "All"
    }
]