[
    {
        "name": "New Year's Day",
        "description": "New Year\u2019s Day is celebrated in Italy on January 1 each year.",
        "country": {
            "id": "it",
            "name": "Italy"
        },
        "date": {
            "iso": "2024-01-01",
            "datetime": {
                "year": 2024,
                "month": 1,
                "day": 1
            }
        },
        "type": [
            "National holiday"
        ],
        "primary_type": "National holiday",
        "canonical_url": "https://calendarific.com/holiday/italy/new-year-day",
        "urlid": "italy/new-year-day",
        "locations": "All",
        "states": "All"
    },
    {
        "name": "Epiphany",
        "description": "Epiphany is a national holiday in Italy celebrated annually on January 6.",
        "country": {
            "id": "it",
            "name": "Italy"
        },
        "date": {
            "iso": "2024-01-06",
            "datetime": {
                "year": 2024,
                "month": 1,
                "day": 6
            }
        },
        "type": [
            "National holiday"
        ],
        "primary_type": "National holiday",
        "canonical_url": "https://calendarific.com/holiday/italy/epiphany",
        "urlid": "italy/epiphany",
        "locations": "All",
        "states": "All"
    },
    {
        "name": "Ash Wednesday",
        "description": "Ash Wednesday marks the first day of Lent in western Christian churches.",
        "country": {
            "id": "it",
            "name": "Italy"
        },
        "date": {
            "iso": "2024-02-14",
            "datetime": {
                "year": 2024,
                "month": 2,
                "day": 14
            }
        },
        "type": [
            "Observance"
        ],
        "primary_type": "Observance",
        "canonical_url": "https://calendarific.com/holiday/it/ash-wednesday",
        "urlid": "it/ash-wednesday",
        "locations": "All",
        "states": "All"
    },
    {
        "name": "Father's Day",
        "description": "Father\u2019s Day celebrates fatherhood and male parenting on different dates worldwide.",
        "country": {
            "id": "it",
            "name": "Italy"
        },
        "date": {
            "iso": "2024-03-19",
            "datetime": {
                "year": 2024,
                "month": 3,
                "day": 19
            }
        },
        "type": [
            "Observance"
        ],
        "primary_type": "Observance",
        "canonical_url": "https://calendarific.com/holiday/italy/fathers-day",
        "urlid": "italy/fathers-day",
        "locations": "All",
        "states": "All"
    },
    {
        "name": "March Equinox",
        "description": "March Equinox in Italy (Rome)",
        "country": {
            "id": "it",
            "name": "Italy"
        },
        "date": {
            "iso": "2024-03-20T04:06:28+01:00",
            "datetime": {
                "year": 2024,
                "month": 3,
                "day": 20,
                "hour": 4,
                "minute": 6,
                "second": 28
            },
            "timezone": {
                "offset": "+01:00",
                "zoneabb": "CET",
                "zoneoffset": 3600,
                "zonedst": 0,
                "zonetotaloffset": 3600
            }
        },
        "type": [
            "Season"
        ],
        "primary_type": "Season",
        "canonical_url": "https://calendarific.com/holiday/seasons/vernal-equinox",
        "urlid": "seasons/vernal-equinox",
        "locations": "All",
        "states": "All"
    },
    {
        "name": "Good Friday",
        "description": "Good Friday is part of the Holy Week of Easter. The Pope leads a large procession, the Way of the Cross, in Rome.",
        "country": {
            "id": "it",
            "name": "Italy"
        },
        "date": {
            "iso": "2024-03-29",
            "datetime": {
                "year": 2024,
                "month": 3,
                "day": 29
            }
        },
        "type": [
            "Observance"
        ],
        "primary_type": "Observance",
        "canonical_url": "https://calendarific.com/holiday/italy/good-friday",
        "urlid": "italy/good-friday",
        "locations": "All",
        "states": "All"
    },
    {
        "name": "Easter Sunday",
        "description": "Easter Day is a public holiday that is celebrated widely throughout Italy each year.",
        "country": {
            "id": "it",
            "name": "Italy"
        },
        "date": {
            "iso": "2024-03-31",
            "datetime": {
                "year": 2024,
                "month": 3,
                "day": 31
            }
        },
        "type": [
            "National holiday"
        ],
        "primary_type": "National holiday",
        "canonical_url": "https://calendarific.com/holiday/italy/easter-sunday",
        "urlid": "italy/easter-sunday",
        "locations": "All",
        "states": "All"
    },
    {
        "name": "Easter Monday",
        "description": "Easter Monday is a public holiday in Italy that is celebrated annually on the day after Easter Day.",
        "country": {
            "id": "it",
            "name": "Italy"
        },
        "date": {
            "iso": "2024-04-01",
            "datetime": {
                "year": 2024,
                "month": 4,
                "day": 1
            }
        },
        "type": [
            "National holiday"
        ],
        "primary_type": "National holiday",
        "canonical_url": "https://calendarific.com/holiday/italy/easter-monday",
        "urlid": "italy/easter-monday",
        "locations": "All",
        "states": "All"
    },
    {
        "name": "Liberation Day",
        "description": "Celebrated on April 25 each year, Italy\u2019s Liberation Day commemorates when the Allied troops liberated the country from the Nazi occupation during World War II.",
        "country": {
            "id": "it",
            "name": "Italy"
        },
        "date": {
            "iso": "2024-04-25",
            "datetime": {
                "year": 2024,
                "month": 4,
                "day": 25
            }
        },
        "type": [
            "National holiday"
        ],
        "primary_type": "National holiday",
        "canonical_url": "https://calendarific.com/holiday/italy/liberation-day",
        "urlid": "italy/liberation-day",
        "locations": "All",
        "states": "All"
    },
    {
        "name": "The Feast of St Mark (Venice)",
        "description": "The Italian city of Venice has its own local public holiday, St Mark\u2019s Day (Festa di San Marco) on April 25 each year.",
        "country": {
            "id": "it",
            "name": "Italy"
        },
        "date": {
            "iso": "2024-04-25",
            "datetime": {
                "year": 2024,
                "month": 4,
                "day": 25
            }
        },
        "type": [
            "Local holiday"
        ],
        "primary_type": "Local holiday",
        "canonical_url": "https://calendarific.com/holiday/italy/feast-of-st-mark",
        "urlid": "italy/feast-of-st-mark",
        "locations": "All",
        "states": "All"
    },
    {
        "name": "Labor Day / May Day",
        "description": "Labor Day is a national holiday annually held in Italy on May 1.",
        "country": {
            "id": "it",
            "name": "Italy"
        },
        "date": {
            "iso": "2024-05-01",
            "datetime": {
                "year": 2024,
                "month": 5,
                "day": 1
            }
        },
        "type": [
            "National holiday"
        ],
        "primary_type": "National holiday",
        "canonical_url": "https://calendarific.com/holiday/italy/labor-day",
        "urlid": "italy/labor-day",
        "locations": "All",
        "states": "All"
    },
    {
        "name": "Mother's Day",
        "description": "Mother\u2019s Day celebrates the achievements and efforts of mothers and mother figures.",
        "country": {
            "id": "it",
            "name": "Italy"
        },
        "date": {
            "iso": "2024-05-12",
            "datetime": {
                "year": 2024,
                "month": 5,
                "day": 12
            }
        },
        "type": [
            "Observance"
        ],
        "primary_type": "Observance",
        "canonical_url": "https://calendarific.com/holiday/italy/mothers-day",
        "urlid": "italy/mothers-day",
        "locations": "All",
        "states": "All"
    },
    {
        "name": "Republic Day",
        "description": "Italy\u2019s Republic Day is an annual public holiday on June 2 to commemorates the date Italians voted for their country end the monarchy and become a republic.",
        "country": {
            "id": "it",
            "name": "Italy"
        },
        "date": {
            "iso": "2024-06-02",
            "datetime": {
                "year": 2024,
                "month": 6,
                "day": 2
            }
        },
        "type": [
            "National holiday"
        ],
        "primary_type": "National holiday",
        "canonical_url": "https://calendarific.com/holiday/italy/republic-day",
        "urlid": "italy/republic-day",
        "locations": "All",
        "states": "All"
    },
    {
        "name": "June Solstice",
        "description": "June Solstice in Italy (Rome)",
        "country": {
            "id": "it",
            "name": "Italy"
        },
        "date": {
            "iso": "2024-06-20T22:50:59+02:00",
            "datetime": {
                "year": 2024,
                "month": 6,
                "day": 20,
                "hour": 22,
                "minute": 50,
                "second": 59
            },
            "timezone": {
                "offset": "+02:00",
                "zoneabb": "CEST",
                "zoneoffset": 3600,
                "zonedst": 3600,
                "zonetotaloffset": 7200
            }
        },
        "type": [
            "Season"
        ],
        "primary_type": "Season",
        "canonical_url": "https://calendarific.com/holiday/seasons/june-solstice",
        "urlid": "seasons/june-solstice",
        "locations": "All",
        "states": "All"
    },
    {
        "name": "The Feast of St. John (Florence, Genoa, Turin)",
        "description": "Florence, Turin and Genoa, in Italy, celebrate their own local holiday, the Feast of St John (Festa di San Giovanni) on June 24 each year.",
        "country": {
            "id": "it",
            "name": "Italy"
        },
        "date": {
            "iso": "2024-06-24",
            "datetime": {
                "year": 2024,
                "month": 6,
                "day": 24
            }
        },
        "type": [
            "Local holiday"
        ],
        "primary_type": "Local holiday",
        "canonical_url": "https://calendarific.com/holiday/italy/feast-of-st-john",
        "urlid": "italy/feast-of-st-john",
        "locations": "All",
        "states": "All"
    },
    {
        "name": "The Feast of St. Peter and St. Paul (Rome)",
        "description": "Rome, in Italy, celebrates its own local holiday, the Feast of Saints Peter and Paul on June 29 each year.",
        "country": {
            "id": "it",
            "name": "Italy"
        },
        "date": {
            "iso": "2024-06-29",
            "datetime": {
                "year": 2024,
                "month": 6,
                "day": 29
            }
        },
        "type": [
            "Local holiday"
        ],
        "primary_type": "Local holiday",
        "canonical_url": "https://calendarific.com/holiday/italy/feast-of-st-peter-and-st-paul",
        "urlid": "italy/feast-of-st-peter-and-st-paul",
        "locations": "All",
        "states": "All"
    },
    {
        "name": "Assumption of Mary",
        "description": "Assumption Day, also known as the Feast of the Assumption, is an annual public holiday in Italy on August 15.",
        "country": {
            "id": "it",
            "name": "Italy"
        },
        "date": {
            "iso": "2024-08-15",
            "datetime": {
                "year": 2024,
                "month": 8,
                "day": 15
            }
        },
        "type": [
            "National holiday"
        ],
        "primary_type": "National holiday",
        "canonical_url": "https://calendarific.com/holiday/italy/assumption-day",
        "urlid": "italy/assumption-day",
        "locations": "All",
        "states": "All"
    },
    {
        "name": "Ferragosto",
        "description": "Ferragosto is a observance in Italy",
        "country": {
            "id": "it",
            "name": "Italy"
        },
        "date": {
            "iso": "2024-08-15",
            "datetime": {
                "year": 2024,
                "month": 8,
                "day": 15
            }
        },
        "type": [
            "Observance"
        ],
        "primary_type": "Observance",
        "canonical_url": "https://calendarific.com/holiday/italy/ferragosto",
        "urlid": "italy/ferragosto",
        "locations": "All",
        "states": "All"
    },
    {
        "name": "The Feast of Saint Januarius (Naples)",
        "description": "Naples, in Italy, celebrates its own local holiday, the Feast of Saint Januarius on September 19 each year.",
        "country": {
            "id": "it",
            "name": "Italy"
        },
        "date": {
            "iso": "2024-09-19",
            "datetime": {
                "year": 2024,
                "month": 9,
                "day": 19
            }
        },
        "type": [
            "Local holiday"
        ],
        "primary_type": "Local holiday",
        "canonical_url": "https://calendarific.com/holiday/italy/san-gennaro",
        "urlid": "italy/san-gennaro",
        "locations": "All",
        "states": "All"
    },
    {
        "name": "September Equinox",
        "description": "September Equinox in Italy (Rome)",
        "country": {
            "id": "it",
            "name": "Italy"
        },
        "date": {
            "iso": "2024-09-22T14:43:33+02:00",
            "datetime": {
                "year": 2024,
                "month": 9,
                "day": 22,
                "hour": 14,
                "minute": 43,
                "second": 33
            },
            "timezone": {
                "offset": "+02:00",
                "zoneabb": "CEST",
                "zoneoffset": 3600,
                "zonedst": 3600,
                "zonetotaloffset": 7200
            }
        },
        "type": [
            "Season"
        ],
        "primary_type": "Season",
        "canonical_url": "https://calendarific.com/holiday/seasons/autumnal-equniox",
        "urlid": "seasons/autumnal-equniox",
        "locations": "All",
        "states": "All"
    },
    {
        "name": "All Saints' Day",
        "description": "In Italy All Saints\u2019 Day is a national public holiday celebrated on November 1 to commemorate the Catholic saints.",
        "country": {
            "id": "it",
            "name": "Italy"
        },
        "date": {
            "iso": "2024-11-01",
            "datetime": {
                "year": 2024,
                "month": 11,
                "day": 1
            }
        },
        "type": [
            "National holiday"
        ],
        "primary_type": "National holiday",
        "canonical_url": "https://calendarific.com/holiday/italy/all-saints-day",
        "urlid": "italy/all-saints-day",
        "locations": "All",
        "states": "All"
    },
    {
        "name": "The Feast of St. Ambrose (Milan)",
        "description": "The Feast of Saint Ambrose is a day off for most people in Milan, one of Italy\u2019s largest cities, on December 7 every year.",
        "country": {
            "id": "it",
            "name": "Italy"
        },
        "date": {
            "iso": "2024-12-07",
            "datetime": {
                "year": 2024,
                "month": 12,
                "day": 7
            }
        },
        "type": [
            "Local holiday"
        ],
        "primary_type": "Local holiday",
        "canonical_url": "https://calendarific.com/holiday/italy/feast-of-st-ambrose",
        "urlid": "italy/feast-of-st-ambrose",
        "locations": "All",
        "states": "All"
    },
    {
        "name": "Feast of the Immaculate Conception",
        "description": "Immaculate Conception Day is a nationwide holiday in Italy on December 8 that celebrates the belief that Jesus\u2019 mother Mary is \u201cfree of sin\u201d.",
        "country": {
            "id": "it",
            "name": "Italy"
        },
        "date": {
            "iso": "2024-12-08",
            "datetime": {
                "year": 2024,
                "month": 12,
                "day": 8
            }
        },
        "type": [
            "National holiday"
        ],
        "primary_type": "National holiday",
        "canonical_url": "https://calendarific.com/holiday/italy/immaculate-conception-day",
        "urlid": "italy/immaculate-conception-day",
        "locations": "All",
        "states": "All"
    },
    {
        "name": "December Solstice",
        "description": "December Solstice in Italy (Rome)",
        "country": {
            "id": "it",
            "name": "Italy"
        },
        "date": {
            "iso": "2024-12-21T10:20:34+01:00",
            "datetime": {
                "year": 2024,
                "month": 12,
                "day": 21,
                "hour": 10,
                "minute": 20,
                "second": 34
            },
            "timezone": {
                "offset": "+01:00",
                "zoneabb": "CET",
                "zoneoffset": 3600,
                "zonedst": 0,
                "zonetotaloffset": 3600
            }
        },
        "type": [
            "Season"
        ],
        "primary_type": "Season",
        "canonical_url": "https://calendarific.com/holiday/seasons/december-solstice",
        "urlid": "seasons/december-solstice",
        "locations": "All",
        "states": "All"
    },
    {
        "name": "Christmas Day",
        "description": "Christmas Day is a public holiday in Italy on December 25 to celebrate the birth of Jesus Christ.",
        "country": {
            "id": "it",
            "name": "Italy"
        },
        "date": {
            "iso": "2024-12-25",
            "datetime": {
                "year": 2024,
                "month": 12,
                "day": 25
            }
        },
        "type": [
            "National holiday"
        ],
        "primary_type": "National holiday",
        "canonical_url": "https://calendarific.com/holiday/italy/christmas-day",
        "urlid": "italy/christmas-day",
        "locations": "All",
        "states": "All"
    },
    {
        "name": "St. Stephen's Day",
        "description": "St Stephen\u2019s Day is a public holiday in Italy on December 26.",
        "country": {
            "id": "it",
            "name": "Italy"
        },
        "date": {
            "iso": "2024-12-26",
            "datetime": {
                "year": 2024,
                "month": 12,
                "day": 26
            }
        },
        "type": [
            "National holiday"
        ],
        "primary_type": "National holiday",
        "canonical_url": "https://calendarific.com/holiday/italy/st-stephen-day",
        "urlid": "italy/st-stephen-day",
        "locations": "All",
        "states": "All"
    },
    {
        "name": "New Year's Eve",
        "description": "Many Italians celebrate New Year\u2019s Eve on December 31 to farewell the old year and prepare for the New Year.",
        "country": {
            "id": "it",
            "name": "Italy"
        },
        "date": {
            "iso": "2024-12-31",
            "datetime": {
                "year": 2024,
                "month": 12,
                "day": 31
            }
        },
        "type": [
            "Observance"
        ],
        "primary_type": "Observance",
        "canonical_url": "https://calendarific.com/holiday/italy/new-year-eve",
        "urlid": "italy/new-year-eve",
        "locations": "All",
        "states": "All"
    }
]