[
    {
        "name": "New Year's Day",
        "description": "New Year\u2019s Day is the first day of the year, or January 1, in the Gregorian calendar.",
        "country": {
            "id": "ng",
            "name": "Nigeria"
        },
        "date": {
            "iso": "2024-01-01",
            "datetime": {
                "year": 2024,
                "month": 1,
                "day": 1
            }
        },
        "type": [
            "National holiday"
        ],
        "primary_type": "Public Holiday",
        "canonical_url": "https://calendarific.com/holiday/nigeria/new-year-day",
        "urlid": "nigeria/new-year-day",
        "locations": "All",
        "states": "All"
    },
    {
        "name": "Valentine's Day",
        "description": "February 14 is Valentine's Day or Saint Valentine's Feast. The day of love owes its origins to ancient Roman and European Christian traditions.",
        "country": {
            "id": "ng",
            "name": "Nigeria"
        },
        "date": {
            "iso": "2024-02-14",
            "datetime": {
                "year": 2024,
                "month": 2,
                "day": 14
            }
        },
        "type": [
            "Observance"
        ],
        "primary_type": "Observance",
        "canonical_url": "https://calendarific.com/holiday/nigeria/valentine-day",
        "urlid": "nigeria/valentine-day",
        "locations": "All",
        "states": "All"
    },
    {
        "name": "Ash Wednesday",
        "description": "Ash Wednesday marks the first day of Lent in western Christian churches.",
        "country": {
            "id": "ng",
            "name": "Nigeria"
        },
        "date": {
            "iso": "2024-02-14",
            "datetime": {
                "year": 2024,
                "month": 2,
                "day": 14
            }
        },
        "type": [
            "Observance",
            "Christian"
        ],
        "primary_type": "Christian",
        "canonical_url": "https://calendarific.com/holiday/nigeria/ash-wednesday",
        "urlid": "nigeria/ash-wednesday",
        "locations": "All",
        "states": "All"
    },
    {
        "name": "Women's Day",
        "description": "Women's Day is a observance in Nigeria",
        "country": {
            "id": "ng",
            "name": "Nigeria"
        },
        "date": {
            "iso": "2024-03-08",
            "datetime": {
                "year": 2024,
                "month": 3,
                "day": 8
            }
        },
        "type": [
            "Observance"
        ],
        "primary_type": "Observance",
        "canonical_url": "https://calendarific.com/holiday/nigeria/womens-day",
        "urlid": "nigeria/womens-day",
        "locations": "All",
        "states": "All"
    },
    {
        "name": "Mothering Sunday",
        "description": "Mother\u2019s Day celebrates the achievements and efforts of mothers and mother figures.",
        "country": {
            "id": "ng",
            "name": "Nigeria"
        },
        "date": {
            "iso": "2024-03-10",
            "datetime": {
                "year": 2024,
                "month": 3,
                "day": 10
            }
        },
        "type": [
            "Observance"
        ],
        "primary_type": "Observance",
        "canonical_url": "https://calendarific.com/holiday/nigeria/mothering-sunday",
        "urlid": "nigeria/mothering-sunday",
        "locations": "All",
        "states": "All"
    },
    {
        "name": "Ramadan Start",
        "description": "Ramadan is a period of prayer, reflection and fasting for many Muslims worldwide. It is the ninth month in the Islamic calendar.",
        "country": {
            "id": "ng",
            "name": "Nigeria"
        },
        "date": {
            "iso": "2024-03-11",
            "datetime": {
                "year": 2024,
                "month": 3,
                "day": 11
            }
        },
        "type": [
            "Observance"
        ],
        "primary_type": "Observance",
        "canonical_url": "https://calendarific.com/holiday/nigeria/ramadan-begins",
        "urlid": "nigeria/ramadan-begins",
        "locations": "All",
        "states": "All"
    },
    {
        "name": "March Equinox",
        "description": "March Equinox in Nigeria (Abuja)",
        "country": {
            "id": "ng",
            "name": "Nigeria"
        },
        "date": {
            "iso": "2024-03-20T04:06:28+01:00",
            "datetime": {
                "year": 2024,
                "month": 3,
                "day": 20,
                "hour": 4,
                "minute": 6,
                "second": 28
            },
            "timezone": {
                "offset": "+01:00",
                "zoneabb": "WAT",
                "zoneoffset": 3600,
                "zonedst": 0,
                "zonetotaloffset": 3600
            }
        },
        "type": [
            "Season"
        ],
        "primary_type": "Season",
        "canonical_url": "https://calendarific.com/holiday/seasons/vernal-equinox",
        "urlid": "seasons/vernal-equinox",
        "locations": "All",
        "states": "All"
    },
    {
        "name": "Good Friday",
        "description": "Good Friday is a global Christian observance two days before Easter Sunday.",
        "country": {
            "id": "ng",
            "name": "Nigeria"
        },
        "date": {
            "iso": "2024-03-29",
            "datetime": {
                "year": 2024,
                "month": 3,
                "day": 29
            }
        },
        "type": [
            "National holiday"
        ],
        "primary_type": "Public Holiday",
        "canonical_url": "https://calendarific.com/holiday/nigeria/good-friday",
        "urlid": "nigeria/good-friday",
        "locations": "All",
        "states": "All"
    },
    {
        "name": "Holy Saturday",
        "description": "Holy Saturday is the day before Easter Sunday.",
        "country": {
            "id": "ng",
            "name": "Nigeria"
        },
        "date": {
            "iso": "2024-03-30",
            "datetime": {
                "year": 2024,
                "month": 3,
                "day": 30
            }
        },
        "type": [
            "Observance",
            "Christian"
        ],
        "primary_type": "Christian",
        "canonical_url": "https://calendarific.com/holiday/nigeria/easter-saturday",
        "urlid": "nigeria/easter-saturday",
        "locations": "All",
        "states": "All"
    },
    {
        "name": "Easter Sunday",
        "description": "Easter Sunday commemorates Jesus Christ\u2019s resurrection, according to Christian belief.",
        "country": {
            "id": "ng",
            "name": "Nigeria"
        },
        "date": {
            "iso": "2024-03-31",
            "datetime": {
                "year": 2024,
                "month": 3,
                "day": 31
            }
        },
        "type": [
            "Observance",
            "Christian"
        ],
        "primary_type": "Christian",
        "canonical_url": "https://calendarific.com/holiday/nigeria/easter-sunday",
        "urlid": "nigeria/easter-sunday",
        "locations": "All",
        "states": "All"
    },
    {
        "name": "Easter Monday",
        "description": "Easter Monday is the day after Easter Sunday.",
        "country": {
            "id": "ng",
            "name": "Nigeria"
        },
        "date": {
            "iso": "2024-04-01",
            "datetime": {
                "year": 2024,
                "month": 4,
                "day": 1
            }
        },
        "type": [
            "National holiday"
        ],
        "primary_type": "Public Holiday",
        "canonical_url": "https://calendarific.com/holiday/nigeria/easter-monday",
        "urlid": "nigeria/easter-monday",
        "locations": "All",
        "states": "All"
    },
    {
        "name": "Id el Fitr",
        "description": "Eid al-Fitr is a holiday to mark the end of the Islamic month of Ramadan, during which Muslims fast during the hours of daylight.",
        "country": {
            "id": "ng",
            "name": "Nigeria"
        },
        "date": {
            "iso": "2024-04-10",
            "datetime": {
                "year": 2024,
                "month": 4,
                "day": 10
            }
        },
        "type": [
            "National holiday"
        ],
        "primary_type": "Public Holiday",
        "canonical_url": "https://calendarific.com/holiday/nigeria/id-el-fitr",
        "urlid": "nigeria/id-el-fitr",
        "locations": "All",
        "states": "All"
    },
    {
        "name": "Id el Fitr holiday",
        "description": "Id el Fitr holiday is a public holiday in Nigeria",
        "country": {
            "id": "ng",
            "name": "Nigeria"
        },
        "date": {
            "iso": "2024-04-11",
            "datetime": {
                "year": 2024,
                "month": 4,
                "day": 11
            }
        },
        "type": [
            "National holiday"
        ],
        "primary_type": "Public Holiday",
        "canonical_url": "https://calendarific.com/holiday/nigeria/id-el-fitr-extra-holiday",
        "urlid": "nigeria/id-el-fitr-extra-holiday",
        "locations": "All",
        "states": "All"
    },
    {
        "name": "Workers' Day",
        "description": "Labor Day, International Workers' Day, and May Day, is a day off for workers in many countries around the world.",
        "country": {
            "id": "ng",
            "name": "Nigeria"
        },
        "date": {
            "iso": "2024-05-01",
            "datetime": {
                "year": 2024,
                "month": 5,
                "day": 1
            }
        },
        "type": [
            "National holiday"
        ],
        "primary_type": "Public Holiday",
        "canonical_url": "https://calendarific.com/holiday/nigeria/workers-day",
        "urlid": "nigeria/workers-day",
        "locations": "All",
        "states": "All"
    },
    {
        "name": "Children's Day",
        "description": "Children's Day is a observance in Nigeria",
        "country": {
            "id": "ng",
            "name": "Nigeria"
        },
        "date": {
            "iso": "2024-05-27",
            "datetime": {
                "year": 2024,
                "month": 5,
                "day": 27
            }
        },
        "type": [
            "Observance"
        ],
        "primary_type": "Observance",
        "canonical_url": "https://calendarific.com/holiday/nigeria/childrens-day",
        "urlid": "nigeria/childrens-day",
        "locations": "All",
        "states": "All"
    },
    {
        "name": "Democracy Day",
        "description": "Democracy Day is a public holiday in Nigeria",
        "country": {
            "id": "ng",
            "name": "Nigeria"
        },
        "date": {
            "iso": "2024-06-12",
            "datetime": {
                "year": 2024,
                "month": 6,
                "day": 12
            }
        },
        "type": [
            "National holiday"
        ],
        "primary_type": "Public Holiday",
        "canonical_url": "https://calendarific.com/holiday/nigeria/democracy-day",
        "urlid": "nigeria/democracy-day",
        "locations": "All",
        "states": "All"
    },
    {
        "name": "Father's Day",
        "description": "Father\u2019s Day celebrates fatherhood and male parenting on different dates worldwide.",
        "country": {
            "id": "ng",
            "name": "Nigeria"
        },
        "date": {
            "iso": "2024-06-16",
            "datetime": {
                "year": 2024,
                "month": 6,
                "day": 16
            }
        },
        "type": [
            "Observance"
        ],
        "primary_type": "Observance",
        "canonical_url": "https://calendarific.com/holiday/nigeria/father-day",
        "urlid": "nigeria/father-day",
        "locations": "All",
        "states": "All"
    },
    {
        "name": "Id el Kabir",
        "description": "Eid al-Adha (Id ul-Adha) is an Islamic festival falling on the 10th day of the month of Dhul Hijja (Thou al-Hijja) to commemorate the willingness of Ibrahim (Abraham) to sacrifice his son.",
        "country": {
            "id": "ng",
            "name": "Nigeria"
        },
        "date": {
            "iso": "2024-06-17",
            "datetime": {
                "year": 2024,
                "month": 6,
                "day": 17
            }
        },
        "type": [
            "National holiday"
        ],
        "primary_type": "Public Holiday",
        "canonical_url": "https://calendarific.com/holiday/nigeria/id-el-kabir",
        "urlid": "nigeria/id-el-kabir",
        "locations": "All",
        "states": "All"
    },
    {
        "name": "Id el Kabir additional holiday",
        "description": "Id el Kabir additional holiday is a public holiday in Nigeria",
        "country": {
            "id": "ng",
            "name": "Nigeria"
        },
        "date": {
            "iso": "2024-06-18",
            "datetime": {
                "year": 2024,
                "month": 6,
                "day": 18
            }
        },
        "type": [
            "National holiday"
        ],
        "primary_type": "Public Holiday",
        "canonical_url": "https://calendarific.com/holiday/nigeria/id-el-kabir-extra-holiday",
        "urlid": "nigeria/id-el-kabir-extra-holiday",
        "locations": "All",
        "states": "All"
    },
    {
        "name": "June Solstice",
        "description": "June Solstice in Nigeria (Abuja)",
        "country": {
            "id": "ng",
            "name": "Nigeria"
        },
        "date": {
            "iso": "2024-06-20T21:50:59+01:00",
            "datetime": {
                "year": 2024,
                "month": 6,
                "day": 20,
                "hour": 21,
                "minute": 50,
                "second": 59
            },
            "timezone": {
                "offset": "+01:00",
                "zoneabb": "WAT",
                "zoneoffset": 3600,
                "zonedst": 0,
                "zonetotaloffset": 3600
            }
        },
        "type": [
            "Season"
        ],
        "primary_type": "Season",
        "canonical_url": "https://calendarific.com/holiday/seasons/june-solstice",
        "urlid": "seasons/june-solstice",
        "locations": "All",
        "states": "All"
    },
    {
        "name": "Al-Hijra",
        "description": "Muharram is the first month of the Islamic calendar and a time of remembrance or mourning.",
        "country": {
            "id": "ng",
            "name": "Nigeria"
        },
        "date": {
            "iso": "2024-07-08",
            "datetime": {
                "year": 2024,
                "month": 7,
                "day": 8
            }
        },
        "type": [
            "Local holiday"
        ],
        "primary_type": "Local holiday",
        "canonical_url": "https://calendarific.com/holiday/nigeria/islamic-new-year",
        "urlid": "nigeria/islamic-new-year",
        "locations": "All",
        "states": "All"
    },
    {
        "name": "Isese Day",
        "description": "Isese Day is a local holiday in Nigeria",
        "country": {
            "id": "ng",
            "name": "Nigeria"
        },
        "date": {
            "iso": "2024-08-20",
            "datetime": {
                "year": 2024,
                "month": 8,
                "day": 20
            }
        },
        "type": [
            "Local holiday"
        ],
        "primary_type": "Local holiday",
        "canonical_url": "https://calendarific.com/holiday/nigeria/isese-day",
        "urlid": "nigeria/isese-day",
        "locations": "Osun",
        "states": [
            {
                "id": 819,
                "abbrev": null,
                "name": "Osun",
                "exception": null,
                "iso": "ng-os"
            }
        ]
    },
    {
        "name": "Id el Maulud",
        "description": "Mawlid, or Milad, marks the birth of the Islamic prophet Muhammed, or Mohamed, in the year 570 of the Gregorian calendar.",
        "country": {
            "id": "ng",
            "name": "Nigeria"
        },
        "date": {
            "iso": "2024-09-16",
            "datetime": {
                "year": 2024,
                "month": 9,
                "day": 16
            }
        },
        "type": [
            "National holiday"
        ],
        "primary_type": "Public Holiday",
        "canonical_url": "https://calendarific.com/holiday/nigeria/id-el-maulud",
        "urlid": "nigeria/id-el-maulud",
        "locations": "All",
        "states": "All"
    },
    {
        "name": "September Equinox",
        "description": "September Equinox in Nigeria (Abuja)",
        "country": {
            "id": "ng",
            "name": "Nigeria"
        },
        "date": {
            "iso": "2024-09-22T13:43:33+01:00",
            "datetime": {
                "year": 2024,
                "month": 9,
                "day": 22,
                "hour": 13,
                "minute": 43,
                "second": 33
            },
            "timezone": {
                "offset": "+01:00",
                "zoneabb": "WAT",
                "zoneoffset": 3600,
                "zonedst": 0,
                "zonetotaloffset": 3600
            }
        },
        "type": [
            "Season"
        ],
        "primary_type": "Season",
        "canonical_url": "https://calendarific.com/holiday/seasons/autumnal-equniox",
        "urlid": "seasons/autumnal-equniox",
        "locations": "All",
        "states": "All"
    },
    {
        "name": "National Day",
        "description": "National Day is a public holiday in Nigeria",
        "country": {
            "id": "ng",
            "name": "Nigeria"
        },
        "date": {
            "iso": "2024-10-01",
            "datetime": {
                "year": 2024,
                "month": 10,
                "day": 1
            }
        },
        "type": [
            "National holiday"
        ],
        "primary_type": "Public Holiday",
        "canonical_url": "https://calendarific.com/holiday/nigeria/national-day",
        "urlid": "nigeria/national-day",
        "locations": "All",
        "states": "All"
    },
    {
        "name": "December Solstice",
        "description": "December Solstice in Nigeria (Abuja)",
        "country": {
            "id": "ng",
            "name": "Nigeria"
        },
        "date": {
            "iso": "2024-12-21T10:20:34+01:00",
            "datetime": {
                "year": 2024,
                "month": 12,
                "day": 21,
                "hour": 10,
                "minute": 20,
                "second": 34
            },
            "timezone": {
                "offset": "+01:00",
                "zoneabb": "WAT",
                "zoneoffset": 3600,
                "zonedst": 0,
                "zonetotaloffset": 3600
            }
        },
        "type": [
            "Season"
        ],
        "primary_type": "Season",
        "canonical_url": "https://calendarific.com/holiday/seasons/december-solstice",
        "urlid": "seasons/december-solstice",
        "locations": "All",
        "states": "All"
    },
    {
        "name": "Sambisa Memorial Day",
        "description": "Sambisa Memorial Day is a local holiday in Nigeria",
        "country": {
            "id": "ng",
            "name": "Nigeria"
        },
        "date": {
            "iso": "2024-12-22",
            "datetime": {
                "year": 2024,
                "month": 12,
                "day": 22
            }
        },
        "type": [
            "Local holiday"
        ],
        "primary_type": "Local holiday",
        "canonical_url": "https://calendarific.com/holiday/nigeria/sambisa-memorial-day",
        "urlid": "nigeria/sambisa-memorial-day",
        "locations": "Borno",
        "states": [
            {
                "id": 790,
                "abbrev": null,
                "name": "Borno",
                "exception": null,
                "iso": "ng-bo"
            }
        ]
    },
    {
        "name": "Christmas Eve",
        "description": "Christmas Eve is the day before Christmas Day and falls on December 24 in the Gregorian calendar.",
        "country": {
            "id": "ng",
            "name": "Nigeria"
        },
        "date": {
            "iso": "2024-12-24",
            "datetime": {
                "year": 2024,
                "month": 12,
                "day": 24
            }
        },
        "type": [
            "Observance",
            "Christian"
        ],
        "primary_type": "Christian",
        "canonical_url": "https://calendarific.com/holiday/nigeria/christmas-eve",
        "urlid": "nigeria/christmas-eve",
        "locations": "All",
        "states": "All"
    },
    {
        "name": "Christmas Day",
        "description": "Christmas Day is one of the biggest Christian celebrations and falls on December 25 in the Gregorian calendar.",
        "country": {
            "id": "ng",
            "name": "Nigeria"
        },
        "date": {
            "iso": "2024-12-25",
            "datetime": {
                "year": 2024,
                "month": 12,
                "day": 25
            }
        },
        "type": [
            "National holiday"
        ],
        "primary_type": "Public Holiday",
        "canonical_url": "https://calendarific.com/holiday/nigeria/christmas-day",
        "urlid": "nigeria/christmas-day",
        "locations": "All",
        "states": "All"
    },
    {
        "name": "Boxing Day",
        "description": "Boxing Day is a public holiday in Nigeria",
        "country": {
            "id": "ng",
            "name": "Nigeria"
        },
        "date": {
            "iso": "2024-12-26",
            "datetime": {
                "year": 2024,
                "month": 12,
                "day": 26
            }
        },
        "type": [
            "National holiday"
        ],
        "primary_type": "Public Holiday",
        "canonical_url": "https://calendarific.com/holiday/nigeria/boxing-day",
        "urlid": "nigeria/boxing-day",
        "locations": "All",
        "states": "All"
    },
    {
        "name": "New Year's Eve",
        "description": "New Year\u2019s Eve is the last day of the year, December 31, in the Gregorian calendar.",
        "country": {
            "id": "ng",
            "name": "Nigeria"
        },
        "date": {
            "iso": "2024-12-31",
            "datetime": {
                "year": 2024,
                "month": 12,
                "day": 31
            }
        },
        "type": [
            "Observance"
        ],
        "primary_type": "Observance",
        "canonical_url": "https://calendarific.com/holiday/nigeria/new-year-eve",
        "urlid": "nigeria/new-year-eve",
        "locations": "All",
        "states": "All"
    }
]