[
    {
        "name": "New Year's Day",
        "description": "New Year\u2019s Day is the first day of the year, or January 1, in the Gregorian calendar.",
        "country": {
            "id": "uy",
            "name": "Uruguay"
        },
        "date": {
            "iso": "2024-01-01",
            "datetime": {
                "year": 2024,
                "month": 1,
                "day": 1
            }
        },
        "type": [
            "National holiday"
        ],
        "primary_type": "National holiday",
        "canonical_url": "https://calendarific.com/holiday/uruguay/new-year-day",
        "urlid": "uruguay/new-year-day",
        "locations": "All",
        "states": "All"
    },
    {
        "name": "The Three Wise Men Day",
        "description": "Epiphany is a Christian holiday celebrated globally on January 6 each year. It commemorates two events recorded in the Bible: the three wise men\u2019s visit to baby Jesus; and Jesus\u2019 baptism.",
        "country": {
            "id": "uy",
            "name": "Uruguay"
        },
        "date": {
            "iso": "2024-01-06",
            "datetime": {
                "year": 2024,
                "month": 1,
                "day": 6
            }
        },
        "type": [
            "Common local holiday"
        ],
        "primary_type": "Bank / working holiday",
        "canonical_url": "https://calendarific.com/holiday/uruguay/the-three-wise-men-day",
        "urlid": "uruguay/the-three-wise-men-day",
        "locations": "All",
        "states": "All"
    },
    {
        "name": "Carnival / Shrove Monday",
        "description": "Carnival / Shrove Monday is a bank / working holiday in Uruguay",
        "country": {
            "id": "uy",
            "name": "Uruguay"
        },
        "date": {
            "iso": "2024-02-12",
            "datetime": {
                "year": 2024,
                "month": 2,
                "day": 12
            }
        },
        "type": [
            "Common local holiday"
        ],
        "primary_type": "Bank / working holiday",
        "canonical_url": "https://calendarific.com/holiday/uruguay/carnival-monday",
        "urlid": "uruguay/carnival-monday",
        "locations": "All",
        "states": "All"
    },
    {
        "name": "Carnival / Shrove Tuesday / Pancake Day",
        "description": "Shrove Tuesday is a religious holiday before the fasting period of Lent. It is celebrated by eating pancakes and holding Carnival parades.",
        "country": {
            "id": "uy",
            "name": "Uruguay"
        },
        "date": {
            "iso": "2024-02-13",
            "datetime": {
                "year": 2024,
                "month": 2,
                "day": 13
            }
        },
        "type": [
            "Common local holiday"
        ],
        "primary_type": "Bank / working holiday",
        "canonical_url": "https://calendarific.com/holiday/uruguay/carnival-tuesday",
        "urlid": "uruguay/carnival-tuesday",
        "locations": "All",
        "states": "All"
    },
    {
        "name": "March Equinox",
        "description": "March Equinox in Uruguay (Montevideo)",
        "country": {
            "id": "uy",
            "name": "Uruguay"
        },
        "date": {
            "iso": "2024-03-20T00:06:28-03:00",
            "datetime": {
                "year": 2024,
                "month": 3,
                "day": 20,
                "hour": 0,
                "minute": 6,
                "second": 28
            },
            "timezone": {
                "offset": "-03:00",
                "zoneabb": "UYT",
                "zoneoffset": -10800,
                "zonedst": 0,
                "zonetotaloffset": -10800
            }
        },
        "type": [
            "Season"
        ],
        "primary_type": "Season",
        "canonical_url": "https://calendarific.com/holiday/seasons/vernal-equinox",
        "urlid": "seasons/vernal-equinox",
        "locations": "All",
        "states": "All"
    },
    {
        "name": "Maundy Thursday",
        "description": "Maundy Thursday is a Christian observance on the Thursday during Holy Week. It is the day before Good Friday.",
        "country": {
            "id": "uy",
            "name": "Uruguay"
        },
        "date": {
            "iso": "2024-03-28",
            "datetime": {
                "year": 2024,
                "month": 3,
                "day": 28
            }
        },
        "type": [
            "Common local holiday"
        ],
        "primary_type": "Bank / working holiday",
        "canonical_url": "https://calendarific.com/holiday/uruguay/maundy-thursday",
        "urlid": "uruguay/maundy-thursday",
        "locations": "All",
        "states": "All"
    },
    {
        "name": "Good Friday",
        "description": "Good Friday is a global Christian observance two days before Easter Sunday.",
        "country": {
            "id": "uy",
            "name": "Uruguay"
        },
        "date": {
            "iso": "2024-03-29",
            "datetime": {
                "year": 2024,
                "month": 3,
                "day": 29
            }
        },
        "type": [
            "Common local holiday"
        ],
        "primary_type": "Bank / working holiday",
        "canonical_url": "https://calendarific.com/holiday/uruguay/good-friday",
        "urlid": "uruguay/good-friday",
        "locations": "All",
        "states": "All"
    },
    {
        "name": "Easter Sunday",
        "description": "Easter Sunday commemorates Jesus Christ\u2019s resurrection, according to Christian belief.",
        "country": {
            "id": "uy",
            "name": "Uruguay"
        },
        "date": {
            "iso": "2024-03-31",
            "datetime": {
                "year": 2024,
                "month": 3,
                "day": 31
            }
        },
        "type": [
            "Observance",
            "Christian"
        ],
        "primary_type": "Christian",
        "canonical_url": "https://calendarific.com/holiday/uruguay/easter-sunday",
        "urlid": "uruguay/easter-sunday",
        "locations": "All",
        "states": "All"
    },
    {
        "name": "Landing of the 33 orientals",
        "description": "Landing of the 33 orientals is a bank / working holiday in Uruguay",
        "country": {
            "id": "uy",
            "name": "Uruguay"
        },
        "date": {
            "iso": "2024-04-19",
            "datetime": {
                "year": 2024,
                "month": 4,
                "day": 19
            }
        },
        "type": [
            "Common local holiday"
        ],
        "primary_type": "Bank / working holiday",
        "canonical_url": "https://calendarific.com/holiday/uruguay/landing-of-the-33-orientals",
        "urlid": "uruguay/landing-of-the-33-orientals",
        "locations": "All",
        "states": "All"
    },
    {
        "name": "Landing of the 33 orientals observed",
        "description": "Landing of the 33 orientals is a bank / working holiday in Uruguay",
        "country": {
            "id": "uy",
            "name": "Uruguay"
        },
        "date": {
            "iso": "2024-04-22",
            "datetime": {
                "year": 2024,
                "month": 4,
                "day": 22
            }
        },
        "type": [
            "Common local holiday"
        ],
        "primary_type": "Bank / working holiday",
        "canonical_url": "https://calendarific.com/holiday/uruguay/landing-of-the-33-orientals",
        "urlid": "uruguay/landing-of-the-33-orientals",
        "locations": "All",
        "states": "All"
    },
    {
        "name": "Labor Day / May Day",
        "description": "Labor Day, International Workers' Day, and May Day, is a day off for workers in many countries around the world.",
        "country": {
            "id": "uy",
            "name": "Uruguay"
        },
        "date": {
            "iso": "2024-05-01",
            "datetime": {
                "year": 2024,
                "month": 5,
                "day": 1
            }
        },
        "type": [
            "National holiday"
        ],
        "primary_type": "National holiday",
        "canonical_url": "https://calendarific.com/holiday/uruguay/labor-day",
        "urlid": "uruguay/labor-day",
        "locations": "All",
        "states": "All"
    },
    {
        "name": "Battle of Las Piedras",
        "description": "Battle of Las Piedras is a bank / working holiday in Uruguay",
        "country": {
            "id": "uy",
            "name": "Uruguay"
        },
        "date": {
            "iso": "2024-05-18",
            "datetime": {
                "year": 2024,
                "month": 5,
                "day": 18
            }
        },
        "type": [
            "Common local holiday"
        ],
        "primary_type": "Bank / working holiday",
        "canonical_url": "https://calendarific.com/holiday/uruguay/battle-of-las-piedras",
        "urlid": "uruguay/battle-of-las-piedras",
        "locations": "All",
        "states": "All"
    },
    {
        "name": "Jos\u00e9 Artigas' Birthday Memorial",
        "description": "Jos\u00e9 Artigas' Birthday Memorial is a bank / working holiday in Uruguay",
        "country": {
            "id": "uy",
            "name": "Uruguay"
        },
        "date": {
            "iso": "2024-06-19",
            "datetime": {
                "year": 2024,
                "month": 6,
                "day": 19
            }
        },
        "type": [
            "Common local holiday"
        ],
        "primary_type": "Bank / working holiday",
        "canonical_url": "https://calendarific.com/holiday/uruguay/jose-artigas-birthday-memorial",
        "urlid": "uruguay/jose-artigas-birthday-memorial",
        "locations": "All",
        "states": "All"
    },
    {
        "name": "June Solstice",
        "description": "June Solstice in Uruguay (Montevideo)",
        "country": {
            "id": "uy",
            "name": "Uruguay"
        },
        "date": {
            "iso": "2024-06-20T17:50:59-03:00",
            "datetime": {
                "year": 2024,
                "month": 6,
                "day": 20,
                "hour": 17,
                "minute": 50,
                "second": 59
            },
            "timezone": {
                "offset": "-03:00",
                "zoneabb": "UYT",
                "zoneoffset": -10800,
                "zonedst": 0,
                "zonetotaloffset": -10800
            }
        },
        "type": [
            "Season"
        ],
        "primary_type": "Season",
        "canonical_url": "https://calendarific.com/holiday/seasons/june-solstice",
        "urlid": "seasons/june-solstice",
        "locations": "All",
        "states": "All"
    },
    {
        "name": "Constitution Day",
        "description": "Constitution Day is a national holiday in Uruguay",
        "country": {
            "id": "uy",
            "name": "Uruguay"
        },
        "date": {
            "iso": "2024-07-18",
            "datetime": {
                "year": 2024,
                "month": 7,
                "day": 18
            }
        },
        "type": [
            "National holiday"
        ],
        "primary_type": "National holiday",
        "canonical_url": "https://calendarific.com/holiday/uruguay/constitution-day",
        "urlid": "uruguay/constitution-day",
        "locations": "All",
        "states": "All"
    },
    {
        "name": "Independence Day",
        "description": "Independence Day is a national holiday in Uruguay",
        "country": {
            "id": "uy",
            "name": "Uruguay"
        },
        "date": {
            "iso": "2024-08-25",
            "datetime": {
                "year": 2024,
                "month": 8,
                "day": 25
            }
        },
        "type": [
            "National holiday"
        ],
        "primary_type": "National holiday",
        "canonical_url": "https://calendarific.com/holiday/uruguay/independence-day",
        "urlid": "uruguay/independence-day",
        "locations": "All",
        "states": "All"
    },
    {
        "name": "September Equinox",
        "description": "September Equinox in Uruguay (Montevideo)",
        "country": {
            "id": "uy",
            "name": "Uruguay"
        },
        "date": {
            "iso": "2024-09-22T09:43:33-03:00",
            "datetime": {
                "year": 2024,
                "month": 9,
                "day": 22,
                "hour": 9,
                "minute": 43,
                "second": 33
            },
            "timezone": {
                "offset": "-03:00",
                "zoneabb": "UYT",
                "zoneoffset": -10800,
                "zonedst": 0,
                "zonetotaloffset": -10800
            }
        },
        "type": [
            "Season"
        ],
        "primary_type": "Season",
        "canonical_url": "https://calendarific.com/holiday/seasons/autumnal-equniox",
        "urlid": "seasons/autumnal-equniox",
        "locations": "All",
        "states": "All"
    },
    {
        "name": "Day of cultural diversity",
        "description": "Day of cultural diversity is a bank / working holiday in Uruguay",
        "country": {
            "id": "uy",
            "name": "Uruguay"
        },
        "date": {
            "iso": "2024-10-12",
            "datetime": {
                "year": 2024,
                "month": 10,
                "day": 12
            }
        },
        "type": [
            "Common local holiday"
        ],
        "primary_type": "Bank / working holiday",
        "canonical_url": "https://calendarific.com/holiday/uruguay/columbus-day",
        "urlid": "uruguay/columbus-day",
        "locations": "All",
        "states": "All"
    },
    {
        "name": "All Souls' Day",
        "description": "All Souls\u2019 Day falls on November 2 each year. It is a day of alms giving and prayers for the dead.",
        "country": {
            "id": "uy",
            "name": "Uruguay"
        },
        "date": {
            "iso": "2024-11-02",
            "datetime": {
                "year": 2024,
                "month": 11,
                "day": 2
            }
        },
        "type": [
            "Common local holiday"
        ],
        "primary_type": "Bank / working holiday",
        "canonical_url": "https://calendarific.com/holiday/uruguay/all-saints-day",
        "urlid": "uruguay/all-saints-day",
        "locations": "All",
        "states": "All"
    },
    {
        "name": "December Solstice",
        "description": "December Solstice in Uruguay (Montevideo)",
        "country": {
            "id": "uy",
            "name": "Uruguay"
        },
        "date": {
            "iso": "2024-12-21T06:20:34-03:00",
            "datetime": {
                "year": 2024,
                "month": 12,
                "day": 21,
                "hour": 6,
                "minute": 20,
                "second": 34
            },
            "timezone": {
                "offset": "-03:00",
                "zoneabb": "UYT",
                "zoneoffset": -10800,
                "zonedst": 0,
                "zonetotaloffset": -10800
            }
        },
        "type": [
            "Season"
        ],
        "primary_type": "Season",
        "canonical_url": "https://calendarific.com/holiday/seasons/december-solstice",
        "urlid": "seasons/december-solstice",
        "locations": "All",
        "states": "All"
    },
    {
        "name": "Christmas Eve",
        "description": "Christmas Eve is the day before Christmas Day and falls on December 24 in the Gregorian calendar.",
        "country": {
            "id": "uy",
            "name": "Uruguay"
        },
        "date": {
            "iso": "2024-12-24",
            "datetime": {
                "year": 2024,
                "month": 12,
                "day": 24
            }
        },
        "type": [
            "Observance",
            "Christian"
        ],
        "primary_type": "Christian",
        "canonical_url": "https://calendarific.com/holiday/uruguay/christmas-eve",
        "urlid": "uruguay/christmas-eve",
        "locations": "All",
        "states": "All"
    },
    {
        "name": "Christmas Day",
        "description": "Christmas Day is one of the biggest Christian celebrations and falls on December 25 in the Gregorian calendar.",
        "country": {
            "id": "uy",
            "name": "Uruguay"
        },
        "date": {
            "iso": "2024-12-25",
            "datetime": {
                "year": 2024,
                "month": 12,
                "day": 25
            }
        },
        "type": [
            "National holiday",
            "Christian"
        ],
        "primary_type": "Christian",
        "canonical_url": "https://calendarific.com/holiday/uruguay/christmas-day",
        "urlid": "uruguay/christmas-day",
        "locations": "All",
        "states": "All"
    },
    {
        "name": "New Year's Eve",
        "description": "New Year\u2019s Eve is the last day of the year, December 31, in the Gregorian calendar.",
        "country": {
            "id": "uy",
            "name": "Uruguay"
        },
        "date": {
            "iso": "2024-12-31",
            "datetime": {
                "year": 2024,
                "month": 12,
                "day": 31
            }
        },
        "type": [
            "Observance"
        ],
        "primary_type": "Observance",
        "canonical_url": "https://calendarific.com/holiday/uruguay/new-year-eve",
        "urlid": "uruguay/new-year-eve",
        "locations": "All",
        "states": "All"
    }
]