[
    {
        "country": "Azerbaijan",
        "iso": "AZ",
        "year": 2024,
        "date": "2024-01-01",
        "day": "Monday",
        "name": "Day off for World Azerbaijanis Solidarity Day",
        "type": "PUBLIC_HOLIDAY"
    },
    {
        "country": "Azerbaijan",
        "iso": "AZ",
        "year": 2024,
        "date": "2024-01-02",
        "day": "Tuesday",
        "name": "New Year's Day (day 2)",
        "type": "PUBLIC_HOLIDAY"
    },
    {
        "country": "Azerbaijan",
        "iso": "AZ",
        "year": 2024,
        "date": "2024-01-20",
        "day": "Saturday",
        "name": "Martyrs\u2019 Day",
        "type": "PUBLIC_HOLIDAY"
    },
    {
        "country": "Azerbaijan",
        "iso": "AZ",
        "year": 2024,
        "date": "2024-01-22",
        "day": "Monday",
        "name": "Day off for Martyrs\u2019 Day",
        "type": "PUBLIC_HOLIDAY"
    },
    {
        "country": "Azerbaijan",
        "iso": "AZ",
        "year": 2024,
        "date": "2024-03-08",
        "day": "Friday",
        "name": "Women's Day",
        "type": "PUBLIC_HOLIDAY"
    },
    {
        "country": "Azerbaijan",
        "iso": "AZ",
        "year": 2024,
        "date": "2024-03-20",
        "day": "Wednesday",
        "name": "March Equinox",
        "type": "SEASON"
    },
    {
        "country": "Azerbaijan",
        "iso": "AZ",
        "year": 2024,
        "date": "2024-03-21",
        "day": "Thursday",
        "name": "Nowruz/Spring Holiday",
        "type": "PUBLIC_HOLIDAY"
    },
    {
        "country": "Azerbaijan",
        "iso": "AZ",
        "year": 2024,
        "date": "2024-03-22",
        "day": "Friday",
        "name": "Nowruz/Spring Holiday",
        "type": "PUBLIC_HOLIDAY"
    },
    {
        "country": "Azerbaijan",
        "iso": "AZ",
        "year": 2024,
        "date": "2024-03-23",
        "day": "Saturday",
        "name": "Nowruz/Spring Holiday",
        "type": "PUBLIC_HOLIDAY"
    },
    {
        "country": "Azerbaijan",
        "iso": "AZ",
        "year": 2024,
        "date": "2024-03-24",
        "day": "Sunday",
        "name": "Nowruz/Spring Holiday",
        "type": "PUBLIC_HOLIDAY"
    },
    {
        "country": "Azerbaijan",
        "iso": "AZ",
        "year": 2024,
        "date": "2024-04-10",
        "day": "Wednesday",
        "name": "Ramadan holiday (Tentative Date)",
        "type": "PUBLIC_HOLIDAY"
    },
    {
        "country": "Azerbaijan",
        "iso": "AZ",
        "year": 2024,
        "date": "2024-04-11",
        "day": "Thursday",
        "name": "Ramadan holiday (Tentative Date)",
        "type": "PUBLIC_HOLIDAY"
    },
    {
        "country": "Azerbaijan",
        "iso": "AZ",
        "year": 2024,
        "date": "2024-05-09",
        "day": "Thursday",
        "name": "Victory Day over Fascism",
        "type": "PUBLIC_HOLIDAY"
    },
    {
        "country": "Azerbaijan",
        "iso": "AZ",
        "year": 2024,
        "date": "2024-05-28",
        "day": "Tuesday",
        "name": "Republic Day",
        "type": "PUBLIC_HOLIDAY"
    },
    {
        "country": "Azerbaijan",
        "iso": "AZ",
        "year": 2024,
        "date": "2024-06-15",
        "day": "Saturday",
        "name": "Day of National Salvation of the Azerbaijani People",
        "type": "PUBLIC_HOLIDAY"
    },
    {
        "country": "Azerbaijan",
        "iso": "AZ",
        "year": 2024,
        "date": "2024-06-17",
        "day": "Monday",
        "name": "Feast of the Sacrifice (Tentative Date)",
        "type": "PUBLIC_HOLIDAY"
    },
    {
        "country": "Azerbaijan",
        "iso": "AZ",
        "year": 2024,
        "date": "2024-06-18",
        "day": "Tuesday",
        "name": "Feast of the Sacrifice Holiday (Tentative Date)",
        "type": "PUBLIC_HOLIDAY"
    },
    {
        "country": "Azerbaijan",
        "iso": "AZ",
        "year": 2024,
        "date": "2024-06-21",
        "day": "Friday",
        "name": "June Solstice",
        "type": "SEASON"
    },
    {
        "country": "Azerbaijan",
        "iso": "AZ",
        "year": 2024,
        "date": "2024-06-26",
        "day": "Wednesday",
        "name": "Azerbaijan Armed Forces Day",
        "type": "PUBLIC_HOLIDAY"
    },
    {
        "country": "Azerbaijan",
        "iso": "AZ",
        "year": 2024,
        "date": "2024-09-22",
        "day": "Sunday",
        "name": "September Equinox",
        "type": "SEASON"
    },
    {
        "country": "Azerbaijan",
        "iso": "AZ",
        "year": 2024,
        "date": "2024-10-18",
        "day": "Friday",
        "name": "National Independence Day",
        "type": "OBSERVANCE"
    },
    {
        "country": "Azerbaijan",
        "iso": "AZ",
        "year": 2024,
        "date": "2024-11-08",
        "day": "Friday",
        "name": "Victory Day of the Republic of Azerbaijan",
        "type": "PUBLIC_HOLIDAY"
    },
    {
        "country": "Azerbaijan",
        "iso": "AZ",
        "year": 2024,
        "date": "2024-11-09",
        "day": "Saturday",
        "name": "State Flag Day of Azerbaijan",
        "type": "PUBLIC_HOLIDAY"
    },
    {
        "country": "Azerbaijan",
        "iso": "AZ",
        "year": 2024,
        "date": "2024-11-11",
        "day": "Monday",
        "name": "Day off for State Flag Day of Azerbaijan",
        "type": "PUBLIC_HOLIDAY"
    },
    {
        "country": "Azerbaijan",
        "iso": "AZ",
        "year": 2024,
        "date": "2024-11-12",
        "day": "Tuesday",
        "name": "Constitution Day",
        "type": "OBSERVANCE"
    },
    {
        "country": "Azerbaijan",
        "iso": "AZ",
        "year": 2024,
        "date": "2024-11-17",
        "day": "Sunday",
        "name": "National Revival Day",
        "type": "OBSERVANCE"
    },
    {
        "country": "Azerbaijan",
        "iso": "AZ",
        "year": 2024,
        "date": "2024-12-21",
        "day": "Saturday",
        "name": "December Solstice",
        "type": "SEASON"
    },
    {
        "country": "Azerbaijan",
        "iso": "AZ",
        "year": 2024,
        "date": "2024-12-31",
        "day": "Tuesday",
        "name": "New Year's Eve",
        "type": "OBSERVANCE"
    }
]