[
    {
        "country": "Burkina Faso",
        "iso": "BF",
        "year": 2024,
        "date": "2024-01-01",
        "day": "Monday",
        "name": "New Year",
        "type": "PUBLIC_HOLIDAY"
    },
    {
        "country": "Burkina Faso",
        "iso": "BF",
        "year": 2024,
        "date": "2024-01-03",
        "day": "Wednesday",
        "name": "Burkina Faso Popular Uprising Day",
        "type": "PUBLIC_HOLIDAY"
    },
    {
        "country": "Burkina Faso",
        "iso": "BF",
        "year": 2024,
        "date": "2024-03-08",
        "day": "Friday",
        "name": "International Women's Day",
        "type": "PUBLIC_HOLIDAY"
    },
    {
        "country": "Burkina Faso",
        "iso": "BF",
        "year": 2024,
        "date": "2024-03-20",
        "day": "Wednesday",
        "name": "March Equinox",
        "type": "SEASON"
    },
    {
        "country": "Burkina Faso",
        "iso": "BF",
        "year": 2024,
        "date": "2024-04-01",
        "day": "Monday",
        "name": "Easter Monday",
        "type": "PUBLIC_HOLIDAY"
    },
    {
        "country": "Burkina Faso",
        "iso": "BF",
        "year": 2024,
        "date": "2024-04-10",
        "day": "Wednesday",
        "name": "Eid al-Fitr",
        "type": "PUBLIC_HOLIDAY"
    },
    {
        "country": "Burkina Faso",
        "iso": "BF",
        "year": 2024,
        "date": "2024-05-01",
        "day": "Wednesday",
        "name": "Labour Day",
        "type": "PUBLIC_HOLIDAY"
    },
    {
        "country": "Burkina Faso",
        "iso": "BF",
        "year": 2024,
        "date": "2024-05-09",
        "day": "Thursday",
        "name": "Ascension Day",
        "type": "PUBLIC_HOLIDAY"
    },
    {
        "country": "Burkina Faso",
        "iso": "BF",
        "year": 2024,
        "date": "2024-06-17",
        "day": "Monday",
        "name": "Eid al-Adha",
        "type": "PUBLIC_HOLIDAY"
    },
    {
        "country": "Burkina Faso",
        "iso": "BF",
        "year": 2024,
        "date": "2024-06-20",
        "day": "Thursday",
        "name": "June Solstice",
        "type": "SEASON"
    },
    {
        "country": "Burkina Faso",
        "iso": "BF",
        "year": 2024,
        "date": "2024-08-05",
        "day": "Monday",
        "name": "National Day",
        "type": "PUBLIC_HOLIDAY"
    },
    {
        "country": "Burkina Faso",
        "iso": "BF",
        "year": 2024,
        "date": "2024-08-15",
        "day": "Thursday",
        "name": "Assumption of Mary",
        "type": "PUBLIC_HOLIDAY"
    },
    {
        "country": "Burkina Faso",
        "iso": "BF",
        "year": 2024,
        "date": "2024-09-16",
        "day": "Monday",
        "name": "The Prophet's Birthday (Tentative Date)",
        "type": "PUBLIC_HOLIDAY"
    },
    {
        "country": "Burkina Faso",
        "iso": "BF",
        "year": 2024,
        "date": "2024-09-22",
        "day": "Sunday",
        "name": "September Equinox",
        "type": "SEASON"
    },
    {
        "country": "Burkina Faso",
        "iso": "BF",
        "year": 2024,
        "date": "2024-11-01",
        "day": "Friday",
        "name": "All Saints",
        "type": "PUBLIC_HOLIDAY"
    },
    {
        "country": "Burkina Faso",
        "iso": "BF",
        "year": 2024,
        "date": "2024-12-11",
        "day": "Wednesday",
        "name": "Proclamation of Independence Day",
        "type": "PUBLIC_HOLIDAY"
    },
    {
        "country": "Burkina Faso",
        "iso": "BF",
        "year": 2024,
        "date": "2024-12-21",
        "day": "Saturday",
        "name": "December Solstice",
        "type": "SEASON"
    },
    {
        "country": "Burkina Faso",
        "iso": "BF",
        "year": 2024,
        "date": "2024-12-25",
        "day": "Wednesday",
        "name": "Christmas Day",
        "type": "PUBLIC_HOLIDAY"
    }
]