[
    {
        "country": "Brunei",
        "iso": "BN",
        "year": 2024,
        "date": "2024-01-01",
        "day": "Monday",
        "name": "New Year's Day",
        "type": "PUBLIC_HOLIDAY"
    },
    {
        "country": "Brunei",
        "iso": "BN",
        "year": 2024,
        "date": "2024-02-07",
        "day": "Wednesday",
        "name": "Isra and Mi'raj",
        "type": "PUBLIC_HOLIDAY"
    },
    {
        "country": "Brunei",
        "iso": "BN",
        "year": 2024,
        "date": "2024-02-10",
        "day": "Saturday",
        "name": "Chinese New Year",
        "type": "PUBLIC_HOLIDAY"
    },
    {
        "country": "Brunei",
        "iso": "BN",
        "year": 2024,
        "date": "2024-02-23",
        "day": "Friday",
        "name": "National Day",
        "type": "PUBLIC_HOLIDAY"
    },
    {
        "country": "Brunei",
        "iso": "BN",
        "year": 2024,
        "date": "2024-02-24",
        "day": "Saturday",
        "name": "National Day observed",
        "type": "PUBLIC_HOLIDAY"
    },
    {
        "country": "Brunei",
        "iso": "BN",
        "year": 2024,
        "date": "2024-03-11",
        "day": "Monday",
        "name": "Ramadan Start",
        "type": "PUBLIC_HOLIDAY"
    },
    {
        "country": "Brunei",
        "iso": "BN",
        "year": 2024,
        "date": "2024-03-20",
        "day": "Wednesday",
        "name": "March Equinox",
        "type": "SEASON"
    },
    {
        "country": "Brunei",
        "iso": "BN",
        "year": 2024,
        "date": "2024-03-27",
        "day": "Wednesday",
        "name": "Nuzul Al-Qur'an (Tentative Date)",
        "type": "PUBLIC_HOLIDAY"
    },
    {
        "country": "Brunei",
        "iso": "BN",
        "year": 2024,
        "date": "2024-04-10",
        "day": "Wednesday",
        "name": "Eid ul Fitr (Tentative Date)",
        "type": "PUBLIC_HOLIDAY"
    },
    {
        "country": "Brunei",
        "iso": "BN",
        "year": 2024,
        "date": "2024-04-11",
        "day": "Thursday",
        "name": "Eid Al Fitr Holiday (Tentative Date)",
        "type": "PUBLIC_HOLIDAY"
    },
    {
        "country": "Brunei",
        "iso": "BN",
        "year": 2024,
        "date": "2024-04-12",
        "day": "Friday",
        "name": "Eid Al Fitr Holiday (Tentative Date)",
        "type": "PUBLIC_HOLIDAY"
    },
    {
        "country": "Brunei",
        "iso": "BN",
        "year": 2024,
        "date": "2024-04-13",
        "day": "Saturday",
        "name": "Eid Al Fitr Holiday observed (Tentative Date)",
        "type": "PUBLIC_HOLIDAY"
    },
    {
        "country": "Brunei",
        "iso": "BN",
        "year": 2024,
        "date": "2024-05-31",
        "day": "Friday",
        "name": "Royal Brunei Armed Forces Day",
        "type": "PUBLIC_HOLIDAY"
    },
    {
        "country": "Brunei",
        "iso": "BN",
        "year": 2024,
        "date": "2024-06-01",
        "day": "Saturday",
        "name": "Royal Brunei Armed Forces Day observed",
        "type": "PUBLIC_HOLIDAY"
    },
    {
        "country": "Brunei",
        "iso": "BN",
        "year": 2024,
        "date": "2024-06-17",
        "day": "Monday",
        "name": "Eid ul Adha (Tentative Date)",
        "type": "PUBLIC_HOLIDAY"
    },
    {
        "country": "Brunei",
        "iso": "BN",
        "year": 2024,
        "date": "2024-06-21",
        "day": "Friday",
        "name": "June Solstice",
        "type": "SEASON"
    },
    {
        "country": "Brunei",
        "iso": "BN",
        "year": 2024,
        "date": "2024-07-08",
        "day": "Monday",
        "name": "Muharram/Islamic New Year",
        "type": "PUBLIC_HOLIDAY"
    },
    {
        "country": "Brunei",
        "iso": "BN",
        "year": 2024,
        "date": "2024-07-15",
        "day": "Monday",
        "name": "Sultan's Birthday",
        "type": "PUBLIC_HOLIDAY"
    },
    {
        "country": "Brunei",
        "iso": "BN",
        "year": 2024,
        "date": "2024-09-16",
        "day": "Monday",
        "name": "Milad un Nabi (Mawlid) (Tentative Date)",
        "type": "PUBLIC_HOLIDAY"
    },
    {
        "country": "Brunei",
        "iso": "BN",
        "year": 2024,
        "date": "2024-09-22",
        "day": "Sunday",
        "name": "September Equinox",
        "type": "SEASON"
    },
    {
        "country": "Brunei",
        "iso": "BN",
        "year": 2024,
        "date": "2024-12-21",
        "day": "Saturday",
        "name": "December Solstice",
        "type": "SEASON"
    },
    {
        "country": "Brunei",
        "iso": "BN",
        "year": 2024,
        "date": "2024-12-25",
        "day": "Wednesday",
        "name": "Christmas Day",
        "type": "PUBLIC_HOLIDAY"
    }
]