[
    {
        "country": "Belarus",
        "iso": "BY",
        "year": 2024,
        "date": "2024-01-01",
        "day": "Monday",
        "name": "New Year's Day",
        "type": "NATIONAL_HOLIDAY"
    },
    {
        "country": "Belarus",
        "iso": "BY",
        "year": 2024,
        "date": "2024-01-02",
        "day": "Tuesday",
        "name": "New Year Holiday",
        "type": "NATIONAL_HOLIDAY"
    },
    {
        "country": "Belarus",
        "iso": "BY",
        "year": 2024,
        "date": "2024-01-07",
        "day": "Sunday",
        "name": "Orthodox Christmas Day",
        "type": "NATIONAL_HOLIDAY"
    },
    {
        "country": "Belarus",
        "iso": "BY",
        "year": 2024,
        "date": "2024-02-14",
        "day": "Wednesday",
        "name": "Valentine's Day",
        "type": "OBSERVANCE"
    },
    {
        "country": "Belarus",
        "iso": "BY",
        "year": 2024,
        "date": "2024-02-23",
        "day": "Friday",
        "name": "Defender of the Fatherland Day",
        "type": "OBSERVANCE"
    },
    {
        "country": "Belarus",
        "iso": "BY",
        "year": 2024,
        "date": "2024-03-08",
        "day": "Friday",
        "name": "Women's Day",
        "type": "NATIONAL_HOLIDAY"
    },
    {
        "country": "Belarus",
        "iso": "BY",
        "year": 2024,
        "date": "2024-03-15",
        "day": "Friday",
        "name": "Constitution Day",
        "type": "OBSERVANCE"
    },
    {
        "country": "Belarus",
        "iso": "BY",
        "year": 2024,
        "date": "2024-03-20",
        "day": "Wednesday",
        "name": "March Equinox",
        "type": "SEASON"
    },
    {
        "country": "Belarus",
        "iso": "BY",
        "year": 2024,
        "date": "2024-03-31",
        "day": "Sunday",
        "name": "Catholic Easter Sunday",
        "type": "OBSERVANCE"
    },
    {
        "country": "Belarus",
        "iso": "BY",
        "year": 2024,
        "date": "2024-04-02",
        "day": "Tuesday",
        "name": "Union Day of Belarus and Russia",
        "type": "OBSERVANCE"
    },
    {
        "country": "Belarus",
        "iso": "BY",
        "year": 2024,
        "date": "2024-04-26",
        "day": "Friday",
        "name": "Day of Remembrance of the Chernobyl Tragedy",
        "type": "OBSERVANCE"
    },
    {
        "country": "Belarus",
        "iso": "BY",
        "year": 2024,
        "date": "2024-05-01",
        "day": "Wednesday",
        "name": "Labour Day",
        "type": "NATIONAL_HOLIDAY"
    },
    {
        "country": "Belarus",
        "iso": "BY",
        "year": 2024,
        "date": "2024-05-05",
        "day": "Sunday",
        "name": "Orthodox Easter Sunday",
        "type": "OBSERVANCE_ORTHODOX"
    },
    {
        "country": "Belarus",
        "iso": "BY",
        "year": 2024,
        "date": "2024-05-09",
        "day": "Thursday",
        "name": "Victory Day",
        "type": "NATIONAL_HOLIDAY"
    },
    {
        "country": "Belarus",
        "iso": "BY",
        "year": 2024,
        "date": "2024-05-12",
        "day": "Sunday",
        "name": "Day of the National Emblem and Flag of Belarus",
        "type": "OBSERVANCE"
    },
    {
        "country": "Belarus",
        "iso": "BY",
        "year": 2024,
        "date": "2024-05-14",
        "day": "Tuesday",
        "name": "Radonitsa",
        "type": "NATIONAL_HOLIDAY"
    },
    {
        "country": "Belarus",
        "iso": "BY",
        "year": 2024,
        "date": "2024-06-20",
        "day": "Thursday",
        "name": "June Solstice",
        "type": "SEASON"
    },
    {
        "country": "Belarus",
        "iso": "BY",
        "year": 2024,
        "date": "2024-06-22",
        "day": "Saturday",
        "name": "Remembrance Day of Victims of the Great Patriotic War",
        "type": "OBSERVANCE"
    },
    {
        "country": "Belarus",
        "iso": "BY",
        "year": 2024,
        "date": "2024-07-03",
        "day": "Wednesday",
        "name": "Independence Day of the Republic of Belarus",
        "type": "NATIONAL_HOLIDAY"
    },
    {
        "country": "Belarus",
        "iso": "BY",
        "year": 2024,
        "date": "2024-07-06",
        "day": "Saturday",
        "name": "Kupalle (Day 1)",
        "type": "OBSERVANCE"
    },
    {
        "country": "Belarus",
        "iso": "BY",
        "year": 2024,
        "date": "2024-07-07",
        "day": "Sunday",
        "name": "Kupalle (Day 2)",
        "type": "OBSERVANCE"
    },
    {
        "country": "Belarus",
        "iso": "BY",
        "year": 2024,
        "date": "2024-09-17",
        "day": "Tuesday",
        "name": "National Unity Day",
        "type": "OBSERVANCE"
    },
    {
        "country": "Belarus",
        "iso": "BY",
        "year": 2024,
        "date": "2024-09-22",
        "day": "Sunday",
        "name": "September Equinox",
        "type": "SEASON"
    },
    {
        "country": "Belarus",
        "iso": "BY",
        "year": 2024,
        "date": "2024-11-02",
        "day": "Saturday",
        "name": "Remembrance Day",
        "type": "OBSERVANCE"
    },
    {
        "country": "Belarus",
        "iso": "BY",
        "year": 2024,
        "date": "2024-11-07",
        "day": "Thursday",
        "name": "October Revolution Day",
        "type": "NATIONAL_HOLIDAY"
    },
    {
        "country": "Belarus",
        "iso": "BY",
        "year": 2024,
        "date": "2024-12-21",
        "day": "Saturday",
        "name": "December Solstice",
        "type": "SEASON"
    },
    {
        "country": "Belarus",
        "iso": "BY",
        "year": 2024,
        "date": "2024-12-25",
        "day": "Wednesday",
        "name": "Catholic Christmas Day",
        "type": "NATIONAL_HOLIDAY"
    },
    {
        "country": "Belarus",
        "iso": "BY",
        "year": 2024,
        "date": "2024-12-31",
        "day": "Tuesday",
        "name": "New Year's Eve",
        "type": "OBSERVANCE"
    }
]