[
    {
        "country": "Congo",
        "iso": "CG",
        "year": 2024,
        "date": "2024-01-01",
        "day": "Monday",
        "name": "New Year",
        "type": "PUBLIC_HOLIDAY"
    },
    {
        "country": "Congo",
        "iso": "CG",
        "year": 2024,
        "date": "2024-03-20",
        "day": "Wednesday",
        "name": "March Equinox",
        "type": "SEASON"
    },
    {
        "country": "Congo",
        "iso": "CG",
        "year": 2024,
        "date": "2024-03-31",
        "day": "Sunday",
        "name": "Easter Sunday",
        "type": "OBSERVANCE"
    },
    {
        "country": "Congo",
        "iso": "CG",
        "year": 2024,
        "date": "2024-04-01",
        "day": "Monday",
        "name": "Easter Monday",
        "type": "PUBLIC_HOLIDAY"
    },
    {
        "country": "Congo",
        "iso": "CG",
        "year": 2024,
        "date": "2024-05-01",
        "day": "Wednesday",
        "name": "Labour Day",
        "type": "PUBLIC_HOLIDAY"
    },
    {
        "country": "Congo",
        "iso": "CG",
        "year": 2024,
        "date": "2024-05-09",
        "day": "Thursday",
        "name": "Ascension Day",
        "type": "PUBLIC_HOLIDAY"
    },
    {
        "country": "Congo",
        "iso": "CG",
        "year": 2024,
        "date": "2024-05-12",
        "day": "Sunday",
        "name": "Mother's Day",
        "type": "OBSERVANCE"
    },
    {
        "country": "Congo",
        "iso": "CG",
        "year": 2024,
        "date": "2024-05-20",
        "day": "Monday",
        "name": "Whit Monday",
        "type": "PUBLIC_HOLIDAY"
    },
    {
        "country": "Congo",
        "iso": "CG",
        "year": 2024,
        "date": "2024-06-10",
        "day": "Monday",
        "name": "Reconciliation Day",
        "type": "PUBLIC_HOLIDAY"
    },
    {
        "country": "Congo",
        "iso": "CG",
        "year": 2024,
        "date": "2024-06-16",
        "day": "Sunday",
        "name": "Father's Day",
        "type": "OBSERVANCE"
    },
    {
        "country": "Congo",
        "iso": "CG",
        "year": 2024,
        "date": "2024-06-20",
        "day": "Thursday",
        "name": "June Solstice",
        "type": "SEASON"
    },
    {
        "country": "Congo",
        "iso": "CG",
        "year": 2024,
        "date": "2024-08-15",
        "day": "Thursday",
        "name": "Independence Day",
        "type": "PUBLIC_HOLIDAY"
    },
    {
        "country": "Congo",
        "iso": "CG",
        "year": 2024,
        "date": "2024-09-22",
        "day": "Sunday",
        "name": "September Equinox",
        "type": "SEASON"
    },
    {
        "country": "Congo",
        "iso": "CG",
        "year": 2024,
        "date": "2024-11-01",
        "day": "Friday",
        "name": "All Saints' Eve",
        "type": "PUBLIC_HOLIDAY"
    },
    {
        "country": "Congo",
        "iso": "CG",
        "year": 2024,
        "date": "2024-11-28",
        "day": "Thursday",
        "name": "Republic Day",
        "type": "PUBLIC_HOLIDAY"
    },
    {
        "country": "Congo",
        "iso": "CG",
        "year": 2024,
        "date": "2024-12-21",
        "day": "Saturday",
        "name": "December Solstice",
        "type": "SEASON"
    },
    {
        "country": "Congo",
        "iso": "CG",
        "year": 2024,
        "date": "2024-12-25",
        "day": "Wednesday",
        "name": "Christmas Day",
        "type": "PUBLIC_HOLIDAY"
    }
]