[
    {
        "country": "Cameroon",
        "iso": "CM",
        "year": 2024,
        "date": "2024-01-01",
        "day": "Monday",
        "name": "New Year's Day",
        "type": "PUBLIC_HOLIDAY"
    },
    {
        "country": "Cameroon",
        "iso": "CM",
        "year": 2024,
        "date": "2024-02-11",
        "day": "Sunday",
        "name": "Youth Day",
        "type": "PUBLIC_HOLIDAY"
    },
    {
        "country": "Cameroon",
        "iso": "CM",
        "year": 2024,
        "date": "2024-02-12",
        "day": "Monday",
        "name": "Youth Day observed",
        "type": "PUBLIC_HOLIDAY"
    },
    {
        "country": "Cameroon",
        "iso": "CM",
        "year": 2024,
        "date": "2024-03-20",
        "day": "Wednesday",
        "name": "March Equinox",
        "type": "SEASON"
    },
    {
        "country": "Cameroon",
        "iso": "CM",
        "year": 2024,
        "date": "2024-03-29",
        "day": "Friday",
        "name": "Good Friday",
        "type": "PUBLIC_HOLIDAY"
    },
    {
        "country": "Cameroon",
        "iso": "CM",
        "year": 2024,
        "date": "2024-03-31",
        "day": "Sunday",
        "name": "Easter Sunday",
        "type": "OBSERVANCE"
    },
    {
        "country": "Cameroon",
        "iso": "CM",
        "year": 2024,
        "date": "2024-04-10",
        "day": "Wednesday",
        "name": "Eid al-Fitr",
        "type": "PUBLIC_HOLIDAY"
    },
    {
        "country": "Cameroon",
        "iso": "CM",
        "year": 2024,
        "date": "2024-05-01",
        "day": "Wednesday",
        "name": "Labour Day",
        "type": "PUBLIC_HOLIDAY"
    },
    {
        "country": "Cameroon",
        "iso": "CM",
        "year": 2024,
        "date": "2024-05-09",
        "day": "Thursday",
        "name": "Ascension Day",
        "type": "PUBLIC_HOLIDAY"
    },
    {
        "country": "Cameroon",
        "iso": "CM",
        "year": 2024,
        "date": "2024-05-20",
        "day": "Monday",
        "name": "National Day",
        "type": "PUBLIC_HOLIDAY"
    },
    {
        "country": "Cameroon",
        "iso": "CM",
        "year": 2024,
        "date": "2024-06-17",
        "day": "Monday",
        "name": "Eid al-Adha (Tentative Date)",
        "type": "PUBLIC_HOLIDAY"
    },
    {
        "country": "Cameroon",
        "iso": "CM",
        "year": 2024,
        "date": "2024-06-20",
        "day": "Thursday",
        "name": "June Solstice",
        "type": "SEASON"
    },
    {
        "country": "Cameroon",
        "iso": "CM",
        "year": 2024,
        "date": "2024-08-15",
        "day": "Thursday",
        "name": "Assumption of Mary",
        "type": "PUBLIC_HOLIDAY"
    },
    {
        "country": "Cameroon",
        "iso": "CM",
        "year": 2024,
        "date": "2024-09-16",
        "day": "Monday",
        "name": "The Prophet's Birthday",
        "type": "OBSERVANCE"
    },
    {
        "country": "Cameroon",
        "iso": "CM",
        "year": 2024,
        "date": "2024-09-22",
        "day": "Sunday",
        "name": "September Equinox",
        "type": "SEASON"
    },
    {
        "country": "Cameroon",
        "iso": "CM",
        "year": 2024,
        "date": "2024-12-21",
        "day": "Saturday",
        "name": "December Solstice",
        "type": "SEASON"
    },
    {
        "country": "Cameroon",
        "iso": "CM",
        "year": 2024,
        "date": "2024-12-25",
        "day": "Wednesday",
        "name": "Christmas Day",
        "type": "PUBLIC_HOLIDAY"
    }
]