[
    {
        "country": "Cabo Verde",
        "iso": "CV",
        "year": 2024,
        "date": "2024-01-01",
        "day": "Monday",
        "name": "New Year",
        "type": "PUBLIC_HOLIDAY"
    },
    {
        "country": "Cabo Verde",
        "iso": "CV",
        "year": 2024,
        "date": "2024-01-13",
        "day": "Saturday",
        "name": "Freedom and Democracy Day",
        "type": "PUBLIC_HOLIDAY"
    },
    {
        "country": "Cabo Verde",
        "iso": "CV",
        "year": 2024,
        "date": "2024-01-20",
        "day": "Saturday",
        "name": "National Heroes' Day",
        "type": "PUBLIC_HOLIDAY"
    },
    {
        "country": "Cabo Verde",
        "iso": "CV",
        "year": 2024,
        "date": "2024-03-20",
        "day": "Wednesday",
        "name": "March Equinox",
        "type": "SEASON"
    },
    {
        "country": "Cabo Verde",
        "iso": "CV",
        "year": 2024,
        "date": "2024-05-01",
        "day": "Wednesday",
        "name": "Labour Day",
        "type": "PUBLIC_HOLIDAY"
    },
    {
        "country": "Cabo Verde",
        "iso": "CV",
        "year": 2024,
        "date": "2024-05-12",
        "day": "Sunday",
        "name": "Mother's Day",
        "type": "OBSERVANCE"
    },
    {
        "country": "Cabo Verde",
        "iso": "CV",
        "year": 2024,
        "date": "2024-06-01",
        "day": "Saturday",
        "name": "Children's Day",
        "type": "PUBLIC_HOLIDAY"
    },
    {
        "country": "Cabo Verde",
        "iso": "CV",
        "year": 2024,
        "date": "2024-06-16",
        "day": "Sunday",
        "name": "Father's Day",
        "type": "OBSERVANCE"
    },
    {
        "country": "Cabo Verde",
        "iso": "CV",
        "year": 2024,
        "date": "2024-06-20",
        "day": "Thursday",
        "name": "June Solstice",
        "type": "SEASON"
    },
    {
        "country": "Cabo Verde",
        "iso": "CV",
        "year": 2024,
        "date": "2024-07-05",
        "day": "Friday",
        "name": "Independence Day",
        "type": "PUBLIC_HOLIDAY"
    },
    {
        "country": "Cabo Verde",
        "iso": "CV",
        "year": 2024,
        "date": "2024-08-15",
        "day": "Thursday",
        "name": "Assumption of Mary",
        "type": "PUBLIC_HOLIDAY"
    },
    {
        "country": "Cabo Verde",
        "iso": "CV",
        "year": 2024,
        "date": "2024-09-22",
        "day": "Sunday",
        "name": "September Equinox",
        "type": "SEASON"
    },
    {
        "country": "Cabo Verde",
        "iso": "CV",
        "year": 2024,
        "date": "2024-11-01",
        "day": "Friday",
        "name": "All Saints' Day",
        "type": "PUBLIC_HOLIDAY"
    },
    {
        "country": "Cabo Verde",
        "iso": "CV",
        "year": 2024,
        "date": "2024-12-21",
        "day": "Saturday",
        "name": "December Solstice",
        "type": "SEASON"
    },
    {
        "country": "Cabo Verde",
        "iso": "CV",
        "year": 2024,
        "date": "2024-12-25",
        "day": "Wednesday",
        "name": "Christmas Day",
        "type": "PUBLIC_HOLIDAY"
    }
]