[
    {
        "country": "Ethiopia",
        "iso": "ET",
        "year": 2024,
        "date": "2024-01-07",
        "day": "Sunday",
        "name": "Ethiopian Christmas Day",
        "type": "PUBLIC_HOLIDAY"
    },
    {
        "country": "Ethiopia",
        "iso": "ET",
        "year": 2024,
        "date": "2024-01-20",
        "day": "Saturday",
        "name": "Epiphany / Timkat",
        "type": "PUBLIC_HOLIDAY"
    },
    {
        "country": "Ethiopia",
        "iso": "ET",
        "year": 2024,
        "date": "2024-03-02",
        "day": "Saturday",
        "name": "Adwa Victory Day",
        "type": "PUBLIC_HOLIDAY"
    },
    {
        "country": "Ethiopia",
        "iso": "ET",
        "year": 2024,
        "date": "2024-03-20",
        "day": "Wednesday",
        "name": "March Equinox",
        "type": "SEASON"
    },
    {
        "country": "Ethiopia",
        "iso": "ET",
        "year": 2024,
        "date": "2024-04-10",
        "day": "Wednesday",
        "name": "Eid ul Fitr",
        "type": "PUBLIC_HOLIDAY"
    },
    {
        "country": "Ethiopia",
        "iso": "ET",
        "year": 2024,
        "date": "2024-05-01",
        "day": "Wednesday",
        "name": "International Labor Day",
        "type": "PUBLIC_HOLIDAY"
    },
    {
        "country": "Ethiopia",
        "iso": "ET",
        "year": 2024,
        "date": "2024-05-03",
        "day": "Friday",
        "name": "Ethiopian Good Friday",
        "type": "PUBLIC_HOLIDAY"
    },
    {
        "country": "Ethiopia",
        "iso": "ET",
        "year": 2024,
        "date": "2024-05-05",
        "day": "Sunday",
        "name": "Patriots' Day",
        "type": "PUBLIC_HOLIDAY"
    },
    {
        "country": "Ethiopia",
        "iso": "ET",
        "year": 2024,
        "date": "2024-05-28",
        "day": "Tuesday",
        "name": "Derg Downfall Day",
        "type": "PUBLIC_HOLIDAY"
    },
    {
        "country": "Ethiopia",
        "iso": "ET",
        "year": 2024,
        "date": "2024-06-17",
        "day": "Monday",
        "name": "Eid al-Adha",
        "type": "PUBLIC_HOLIDAY"
    },
    {
        "country": "Ethiopia",
        "iso": "ET",
        "year": 2024,
        "date": "2024-06-20",
        "day": "Thursday",
        "name": "June Solstice",
        "type": "SEASON"
    },
    {
        "country": "Ethiopia",
        "iso": "ET",
        "year": 2024,
        "date": "2024-09-11",
        "day": "Wednesday",
        "name": "Ethiopian New Year",
        "type": "PUBLIC_HOLIDAY"
    },
    {
        "country": "Ethiopia",
        "iso": "ET",
        "year": 2024,
        "date": "2024-09-16",
        "day": "Monday",
        "name": "The Prophet's Birthday (Tentative Date)",
        "type": "PUBLIC_HOLIDAY"
    },
    {
        "country": "Ethiopia",
        "iso": "ET",
        "year": 2024,
        "date": "2024-09-22",
        "day": "Sunday",
        "name": "September Equinox",
        "type": "SEASON"
    },
    {
        "country": "Ethiopia",
        "iso": "ET",
        "year": 2024,
        "date": "2024-09-27",
        "day": "Friday",
        "name": "Meskel",
        "type": "PUBLIC_HOLIDAY"
    },
    {
        "country": "Ethiopia",
        "iso": "ET",
        "year": 2024,
        "date": "2024-12-21",
        "day": "Saturday",
        "name": "December Solstice",
        "type": "SEASON"
    }
]