[
    {
        "country": "United Kingdom",
        "iso": "GB",
        "year": 2024,
        "date": "2024-01-01",
        "day": "Monday",
        "name": "New Year's Day",
        "type": "BANK_HOLIDAY"
    },
    {
        "country": "United Kingdom",
        "iso": "GB",
        "year": 2024,
        "date": "2024-01-02",
        "day": "Tuesday",
        "name": "2nd January",
        "type": "LOCAL_BANK_HOLIDAY"
    },
    {
        "country": "United Kingdom",
        "iso": "GB",
        "year": 2024,
        "date": "2024-01-05",
        "day": "Friday",
        "name": "Twelfth Night",
        "type": "OBSERVANCE"
    },
    {
        "country": "United Kingdom",
        "iso": "GB",
        "year": 2024,
        "date": "2024-01-06",
        "day": "Saturday",
        "name": "Epiphany",
        "type": "CHRISTIAN"
    },
    {
        "country": "United Kingdom",
        "iso": "GB",
        "year": 2024,
        "date": "2024-01-07",
        "day": "Sunday",
        "name": "Orthodox Christmas Day",
        "type": "ORTHODOX"
    },
    {
        "country": "United Kingdom",
        "iso": "GB",
        "year": 2024,
        "date": "2024-01-14",
        "day": "Sunday",
        "name": "Orthodox New Year",
        "type": "ORTHODOX"
    },
    {
        "country": "United Kingdom",
        "iso": "GB",
        "year": 2024,
        "date": "2024-01-25",
        "day": "Thursday",
        "name": "Burns Night",
        "type": "LOCAL_OBSERVANCE"
    },
    {
        "country": "United Kingdom",
        "iso": "GB",
        "year": 2024,
        "date": "2024-02-07",
        "day": "Wednesday",
        "name": "Isra and Mi'raj",
        "type": "MUSLIM"
    },
    {
        "country": "United Kingdom",
        "iso": "GB",
        "year": 2024,
        "date": "2024-02-10",
        "day": "Saturday",
        "name": "Chinese New Year",
        "type": "OBSERVANCE"
    },
    {
        "country": "United Kingdom",
        "iso": "GB",
        "year": 2024,
        "date": "2024-02-13",
        "day": "Tuesday",
        "name": "Carnival / Shrove Tuesday",
        "type": "CHRISTIAN"
    },
    {
        "country": "United Kingdom",
        "iso": "GB",
        "year": 2024,
        "date": "2024-02-14",
        "day": "Wednesday",
        "name": "Valentine's Day",
        "type": "OBSERVANCE"
    },
    {
        "country": "United Kingdom",
        "iso": "GB",
        "year": 2024,
        "date": "2024-03-01",
        "day": "Friday",
        "name": "St. David's Day",
        "type": "LOCAL_OBSERVANCE"
    },
    {
        "country": "United Kingdom",
        "iso": "GB",
        "year": 2024,
        "date": "2024-03-08",
        "day": "Friday",
        "name": "Maha Shivaratri",
        "type": "HINDU_HOLIDAY"
    },
    {
        "country": "United Kingdom",
        "iso": "GB",
        "year": 2024,
        "date": "2024-03-10",
        "day": "Sunday",
        "name": "Mothering Sunday",
        "type": "OBSERVANCE"
    },
    {
        "country": "United Kingdom",
        "iso": "GB",
        "year": 2024,
        "date": "2024-03-11",
        "day": "Monday",
        "name": "Ramadan Start (Tentative Date)",
        "type": "MUSLIM"
    },
    {
        "country": "United Kingdom",
        "iso": "GB",
        "year": 2024,
        "date": "2024-03-17",
        "day": "Sunday",
        "name": "St Patrick's Day",
        "type": "LOCAL_BANK_HOLIDAY"
    },
    {
        "country": "United Kingdom",
        "iso": "GB",
        "year": 2024,
        "date": "2024-03-18",
        "day": "Monday",
        "name": "Day off for St Patrick's Day",
        "type": "LOCAL_BANK_HOLIDAY"
    },
    {
        "country": "United Kingdom",
        "iso": "GB",
        "year": 2024,
        "date": "2024-03-20",
        "day": "Wednesday",
        "name": "March Equinox",
        "type": "SEASON"
    },
    {
        "country": "United Kingdom",
        "iso": "GB",
        "year": 2024,
        "date": "2024-03-24",
        "day": "Sunday",
        "name": "Purim",
        "type": "JEWISH_HOLIDAY"
    },
    {
        "country": "United Kingdom",
        "iso": "GB",
        "year": 2024,
        "date": "2024-03-28",
        "day": "Thursday",
        "name": "Maundy Thursday",
        "type": "CHRISTIAN"
    },
    {
        "country": "United Kingdom",
        "iso": "GB",
        "year": 2024,
        "date": "2024-03-29",
        "day": "Friday",
        "name": "Good Friday",
        "type": "BANK_HOLIDAY"
    },
    {
        "country": "United Kingdom",
        "iso": "GB",
        "year": 2024,
        "date": "2024-03-30",
        "day": "Saturday",
        "name": "Holy Saturday",
        "type": "CHRISTIAN"
    },
    {
        "country": "United Kingdom",
        "iso": "GB",
        "year": 2024,
        "date": "2024-03-31",
        "day": "Sunday",
        "name": "Daylight Saving Time starts",
        "type": "CLOCK_CHANGE_DAYLIGHT_SAVING_TIME"
    },
    {
        "country": "United Kingdom",
        "iso": "GB",
        "year": 2024,
        "date": "2024-04-01",
        "day": "Monday",
        "name": "Easter Monday",
        "type": "COMMON_LOCAL_HOLIDAY"
    },
    {
        "country": "United Kingdom",
        "iso": "GB",
        "year": 2024,
        "date": "2024-04-05",
        "day": "Friday",
        "name": "Laylatul Qadr (Night of Power)",
        "type": "MUSLIM"
    },
    {
        "country": "United Kingdom",
        "iso": "GB",
        "year": 2024,
        "date": "2024-04-10",
        "day": "Wednesday",
        "name": "Eid ul Fitr (Tentative Date)",
        "type": "MUSLIM"
    },
    {
        "country": "United Kingdom",
        "iso": "GB",
        "year": 2024,
        "date": "2024-04-22",
        "day": "Monday",
        "name": "Stephen Lawrence Day",
        "type": "OBSERVANCE"
    },
    {
        "country": "United Kingdom",
        "iso": "GB",
        "year": 2024,
        "date": "2024-04-23",
        "day": "Tuesday",
        "name": "Shakespeare Day",
        "type": "OBSERVANCE"
    },
    {
        "country": "United Kingdom",
        "iso": "GB",
        "year": 2024,
        "date": "2024-04-30",
        "day": "Tuesday",
        "name": "Last day of Passover",
        "type": "JEWISH_HOLIDAY"
    },
    {
        "country": "United Kingdom",
        "iso": "GB",
        "year": 2024,
        "date": "2024-05-03",
        "day": "Friday",
        "name": "Orthodox Good Friday",
        "type": "ORTHODOX"
    },
    {
        "country": "United Kingdom",
        "iso": "GB",
        "year": 2024,
        "date": "2024-05-04",
        "day": "Saturday",
        "name": "Orthodox Holy Saturday",
        "type": "ORTHODOX"
    },
    {
        "country": "United Kingdom",
        "iso": "GB",
        "year": 2024,
        "date": "2024-05-05",
        "day": "Sunday",
        "name": "Orthodox Easter",
        "type": "ORTHODOX"
    },
    {
        "country": "United Kingdom",
        "iso": "GB",
        "year": 2024,
        "date": "2024-05-06",
        "day": "Monday",
        "name": "Early May Bank Holiday",
        "type": "BANK_HOLIDAY"
    },
    {
        "country": "United Kingdom",
        "iso": "GB",
        "year": 2024,
        "date": "2024-05-09",
        "day": "Thursday",
        "name": "Ascension Day",
        "type": "CHRISTIAN"
    },
    {
        "country": "United Kingdom",
        "iso": "GB",
        "year": 2024,
        "date": "2024-05-14",
        "day": "Tuesday",
        "name": "Yom HaAtzmaut",
        "type": "JEWISH_HOLIDAY"
    },
    {
        "country": "United Kingdom",
        "iso": "GB",
        "year": 2024,
        "date": "2024-05-19",
        "day": "Sunday",
        "name": "Pentecost",
        "type": "CHRISTIAN"
    },
    {
        "country": "United Kingdom",
        "iso": "GB",
        "year": 2024,
        "date": "2024-05-20",
        "day": "Monday",
        "name": "Whit Monday",
        "type": "CHRISTIAN"
    },
    {
        "country": "United Kingdom",
        "iso": "GB",
        "year": 2024,
        "date": "2024-05-26",
        "day": "Sunday",
        "name": "Lag B'Omer",
        "type": "JEWISH_HOLIDAY"
    },
    {
        "country": "United Kingdom",
        "iso": "GB",
        "year": 2024,
        "date": "2024-05-27",
        "day": "Monday",
        "name": "Spring Bank Holiday",
        "type": "BANK_HOLIDAY"
    },
    {
        "country": "United Kingdom",
        "iso": "GB",
        "year": 2024,
        "date": "2024-05-30",
        "day": "Thursday",
        "name": "Corpus Christi",
        "type": "CHRISTIAN"
    },
    {
        "country": "United Kingdom",
        "iso": "GB",
        "year": 2024,
        "date": "2024-06-08",
        "day": "Saturday",
        "name": "Queen's Birthday",
        "type": "OBSERVANCE"
    },
    {
        "country": "United Kingdom",
        "iso": "GB",
        "year": 2024,
        "date": "2024-06-12",
        "day": "Wednesday",
        "name": "Shavuot",
        "type": "JEWISH_HOLIDAY"
    },
    {
        "country": "United Kingdom",
        "iso": "GB",
        "year": 2024,
        "date": "2024-06-16",
        "day": "Sunday",
        "name": "Father's Day",
        "type": "OBSERVANCE"
    },
    {
        "country": "United Kingdom",
        "iso": "GB",
        "year": 2024,
        "date": "2024-06-17",
        "day": "Monday",
        "name": "Eid ul Adha (Tentative Date)",
        "type": "MUSLIM"
    },
    {
        "country": "United Kingdom",
        "iso": "GB",
        "year": 2024,
        "date": "2024-06-20",
        "day": "Thursday",
        "name": "June Solstice",
        "type": "SEASON"
    },
    {
        "country": "United Kingdom",
        "iso": "GB",
        "year": 2024,
        "date": "2024-06-22",
        "day": "Saturday",
        "name": "Windrush Day",
        "type": "OBSERVANCE"
    },
    {
        "country": "United Kingdom",
        "iso": "GB",
        "year": 2024,
        "date": "2024-07-08",
        "day": "Monday",
        "name": "Muharram/Islamic New Year",
        "type": "MUSLIM"
    },
    {
        "country": "United Kingdom",
        "iso": "GB",
        "year": 2024,
        "date": "2024-07-12",
        "day": "Friday",
        "name": "Battle of the Boyne",
        "type": "LOCAL_BANK_HOLIDAY"
    },
    {
        "country": "United Kingdom",
        "iso": "GB",
        "year": 2024,
        "date": "2024-07-17",
        "day": "Wednesday",
        "name": "Ashura (Tentative Date)",
        "type": "MUSLIM"
    },
    {
        "country": "United Kingdom",
        "iso": "GB",
        "year": 2024,
        "date": "2024-08-05",
        "day": "Monday",
        "name": "Summer Bank Holiday",
        "type": "COMMON_LOCAL_HOLIDAY"
    },
    {
        "country": "United Kingdom",
        "iso": "GB",
        "year": 2024,
        "date": "2024-08-13",
        "day": "Tuesday",
        "name": "Tisha B'Av",
        "type": "JEWISH_HOLIDAY"
    },
    {
        "country": "United Kingdom",
        "iso": "GB",
        "year": 2024,
        "date": "2024-08-15",
        "day": "Thursday",
        "name": "Assumption of Mary",
        "type": "CHRISTIAN"
    },
    {
        "country": "United Kingdom",
        "iso": "GB",
        "year": 2024,
        "date": "2024-08-26",
        "day": "Monday",
        "name": "Summer Bank Holiday",
        "type": "COMMON_LOCAL_HOLIDAY"
    },
    {
        "country": "United Kingdom",
        "iso": "GB",
        "year": 2024,
        "date": "2024-09-16",
        "day": "Monday",
        "name": "Milad un Nabi (Mawlid) (Tentative Date)",
        "type": "MUSLIM"
    },
    {
        "country": "United Kingdom",
        "iso": "GB",
        "year": 2024,
        "date": "2024-09-22",
        "day": "Sunday",
        "name": "September Equinox",
        "type": "SEASON"
    },
    {
        "country": "United Kingdom",
        "iso": "GB",
        "year": 2024,
        "date": "2024-10-03",
        "day": "Thursday",
        "name": "Rosh Hashana",
        "type": "JEWISH_HOLIDAY"
    },
    {
        "country": "United Kingdom",
        "iso": "GB",
        "year": 2024,
        "date": "2024-10-04",
        "day": "Friday",
        "name": "Feast of St Francis of Assisi",
        "type": "CHRISTIAN"
    },
    {
        "country": "United Kingdom",
        "iso": "GB",
        "year": 2024,
        "date": "2024-10-12",
        "day": "Saturday",
        "name": "Yom Kippur",
        "type": "JEWISH_HOLIDAY"
    },
    {
        "country": "United Kingdom",
        "iso": "GB",
        "year": 2024,
        "date": "2024-10-17",
        "day": "Thursday",
        "name": "First day of Sukkot",
        "type": "JEWISH_HOLIDAY"
    },
    {
        "country": "United Kingdom",
        "iso": "GB",
        "year": 2024,
        "date": "2024-10-23",
        "day": "Wednesday",
        "name": "Hoshana Rabbah",
        "type": "JEWISH_HOLIDAY"
    },
    {
        "country": "United Kingdom",
        "iso": "GB",
        "year": 2024,
        "date": "2024-10-24",
        "day": "Thursday",
        "name": "Shemini Atzeret",
        "type": "JEWISH_HOLIDAY"
    },
    {
        "country": "United Kingdom",
        "iso": "GB",
        "year": 2024,
        "date": "2024-10-25",
        "day": "Friday",
        "name": "Simchat Torah",
        "type": "JEWISH_HOLIDAY"
    },
    {
        "country": "United Kingdom",
        "iso": "GB",
        "year": 2024,
        "date": "2024-10-27",
        "day": "Sunday",
        "name": "Daylight Saving Time ends",
        "type": "CLOCK_CHANGE_DAYLIGHT_SAVING_TIME"
    },
    {
        "country": "United Kingdom",
        "iso": "GB",
        "year": 2024,
        "date": "2024-10-31",
        "day": "Thursday",
        "name": "Halloween",
        "type": "OBSERVANCE"
    },
    {
        "country": "United Kingdom",
        "iso": "GB",
        "year": 2024,
        "date": "2024-11-01",
        "day": "Friday",
        "name": "Diwali/Deepavali",
        "type": "HINDU_HOLIDAY"
    },
    {
        "country": "United Kingdom",
        "iso": "GB",
        "year": 2024,
        "date": "2024-11-02",
        "day": "Saturday",
        "name": "All Souls' Day",
        "type": "CHRISTIAN"
    },
    {
        "country": "United Kingdom",
        "iso": "GB",
        "year": 2024,
        "date": "2024-11-05",
        "day": "Tuesday",
        "name": "Guy Fawkes Day",
        "type": "OBSERVANCE"
    },
    {
        "country": "United Kingdom",
        "iso": "GB",
        "year": 2024,
        "date": "2024-11-10",
        "day": "Sunday",
        "name": "Remembrance Sunday",
        "type": "OBSERVANCE"
    },
    {
        "country": "United Kingdom",
        "iso": "GB",
        "year": 2024,
        "date": "2024-11-30",
        "day": "Saturday",
        "name": "St Andrew's Day",
        "type": "LOCAL_BANK_HOLIDAY"
    },
    {
        "country": "United Kingdom",
        "iso": "GB",
        "year": 2024,
        "date": "2024-12-01",
        "day": "Sunday",
        "name": "First Sunday of Advent",
        "type": "OBSERVANCE"
    },
    {
        "country": "United Kingdom",
        "iso": "GB",
        "year": 2024,
        "date": "2024-12-02",
        "day": "Monday",
        "name": "St Andrew's Day observed",
        "type": "LOCAL_BANK_HOLIDAY"
    },
    {
        "country": "United Kingdom",
        "iso": "GB",
        "year": 2024,
        "date": "2024-12-08",
        "day": "Sunday",
        "name": "Feast of the Immaculate Conception",
        "type": "CHRISTIAN"
    },
    {
        "country": "United Kingdom",
        "iso": "GB",
        "year": 2024,
        "date": "2024-12-21",
        "day": "Saturday",
        "name": "December Solstice",
        "type": "SEASON"
    },
    {
        "country": "United Kingdom",
        "iso": "GB",
        "year": 2024,
        "date": "2024-12-24",
        "day": "Tuesday",
        "name": "Christmas Eve",
        "type": "OBSERVANCE"
    },
    {
        "country": "United Kingdom",
        "iso": "GB",
        "year": 2024,
        "date": "2024-12-25",
        "day": "Wednesday",
        "name": "Christmas Day",
        "type": "BANK_HOLIDAY"
    },
    {
        "country": "United Kingdom",
        "iso": "GB",
        "year": 2024,
        "date": "2024-12-26",
        "day": "Thursday",
        "name": "Boxing Day",
        "type": "BANK_HOLIDAY"
    },
    {
        "country": "United Kingdom",
        "iso": "GB",
        "year": 2024,
        "date": "2024-12-31",
        "day": "Tuesday",
        "name": "New Year's Eve",
        "type": "OBSERVANCE"
    }
]