[
    {
        "country": "Grenada",
        "iso": "GD",
        "year": 2024,
        "date": "2024-01-01",
        "day": "Monday",
        "name": "New Year",
        "type": "PUBLIC_HOLIDAY"
    },
    {
        "country": "Grenada",
        "iso": "GD",
        "year": 2024,
        "date": "2024-02-07",
        "day": "Wednesday",
        "name": "Independence Day",
        "type": "PUBLIC_HOLIDAY"
    },
    {
        "country": "Grenada",
        "iso": "GD",
        "year": 2024,
        "date": "2024-03-19",
        "day": "Tuesday",
        "name": "March Equinox",
        "type": "SEASON"
    },
    {
        "country": "Grenada",
        "iso": "GD",
        "year": 2024,
        "date": "2024-03-29",
        "day": "Friday",
        "name": "Good Friday",
        "type": "PUBLIC_HOLIDAY"
    },
    {
        "country": "Grenada",
        "iso": "GD",
        "year": 2024,
        "date": "2024-03-31",
        "day": "Sunday",
        "name": "Easter Sunday",
        "type": "OBSERVANCE"
    },
    {
        "country": "Grenada",
        "iso": "GD",
        "year": 2024,
        "date": "2024-04-01",
        "day": "Monday",
        "name": "Easter Monday",
        "type": "PUBLIC_HOLIDAY"
    },
    {
        "country": "Grenada",
        "iso": "GD",
        "year": 2024,
        "date": "2024-05-01",
        "day": "Wednesday",
        "name": "Labour Day",
        "type": "PUBLIC_HOLIDAY"
    },
    {
        "country": "Grenada",
        "iso": "GD",
        "year": 2024,
        "date": "2024-05-12",
        "day": "Sunday",
        "name": "Mother's Day",
        "type": "OBSERVANCE"
    },
    {
        "country": "Grenada",
        "iso": "GD",
        "year": 2024,
        "date": "2024-05-20",
        "day": "Monday",
        "name": "Whit Monday",
        "type": "PUBLIC_HOLIDAY"
    },
    {
        "country": "Grenada",
        "iso": "GD",
        "year": 2024,
        "date": "2024-05-30",
        "day": "Thursday",
        "name": "Corpus Christi",
        "type": "PUBLIC_HOLIDAY"
    },
    {
        "country": "Grenada",
        "iso": "GD",
        "year": 2024,
        "date": "2024-06-20",
        "day": "Thursday",
        "name": "June Solstice",
        "type": "SEASON"
    },
    {
        "country": "Grenada",
        "iso": "GD",
        "year": 2024,
        "date": "2024-08-05",
        "day": "Monday",
        "name": "Emancipation Day",
        "type": "PUBLIC_HOLIDAY"
    },
    {
        "country": "Grenada",
        "iso": "GD",
        "year": 2024,
        "date": "2024-08-12",
        "day": "Monday",
        "name": "Carnival (First Day)",
        "type": "PUBLIC_HOLIDAY"
    },
    {
        "country": "Grenada",
        "iso": "GD",
        "year": 2024,
        "date": "2024-08-13",
        "day": "Tuesday",
        "name": "Carnival (Second Day)",
        "type": "PUBLIC_HOLIDAY"
    },
    {
        "country": "Grenada",
        "iso": "GD",
        "year": 2024,
        "date": "2024-09-01",
        "day": "Sunday",
        "name": "Kirani Day",
        "type": "OBSERVANCE"
    },
    {
        "country": "Grenada",
        "iso": "GD",
        "year": 2024,
        "date": "2024-09-22",
        "day": "Sunday",
        "name": "September Equinox",
        "type": "SEASON"
    },
    {
        "country": "Grenada",
        "iso": "GD",
        "year": 2024,
        "date": "2024-10-25",
        "day": "Friday",
        "name": "Thanksgiving",
        "type": "PUBLIC_HOLIDAY"
    },
    {
        "country": "Grenada",
        "iso": "GD",
        "year": 2024,
        "date": "2024-12-21",
        "day": "Saturday",
        "name": "December Solstice",
        "type": "SEASON"
    },
    {
        "country": "Grenada",
        "iso": "GD",
        "year": 2024,
        "date": "2024-12-25",
        "day": "Wednesday",
        "name": "Christmas Day",
        "type": "PUBLIC_HOLIDAY"
    },
    {
        "country": "Grenada",
        "iso": "GD",
        "year": 2024,
        "date": "2024-12-26",
        "day": "Thursday",
        "name": "Boxing Day",
        "type": "PUBLIC_HOLIDAY"
    }
]