[
    {
        "country": "Guatemala",
        "iso": "GT",
        "year": 2024,
        "date": "2024-01-01",
        "day": "Monday",
        "name": "New Year's Day",
        "type": "NATIONAL_HOLIDAY"
    },
    {
        "country": "Guatemala",
        "iso": "GT",
        "year": 2024,
        "date": "2024-03-19",
        "day": "Tuesday",
        "name": "March Equinox",
        "type": "SEASON"
    },
    {
        "country": "Guatemala",
        "iso": "GT",
        "year": 2024,
        "date": "2024-03-28",
        "day": "Thursday",
        "name": "Maundy Thursday",
        "type": "NATIONAL_HOLIDAY_CHRISTIAN"
    },
    {
        "country": "Guatemala",
        "iso": "GT",
        "year": 2024,
        "date": "2024-03-29",
        "day": "Friday",
        "name": "Good Friday",
        "type": "NATIONAL_HOLIDAY_CHRISTIAN"
    },
    {
        "country": "Guatemala",
        "iso": "GT",
        "year": 2024,
        "date": "2024-03-30",
        "day": "Saturday",
        "name": "Easter Saturday",
        "type": "NATIONAL_HOLIDAY_CHRISTIAN"
    },
    {
        "country": "Guatemala",
        "iso": "GT",
        "year": 2024,
        "date": "2024-03-31",
        "day": "Sunday",
        "name": "Easter Sunday",
        "type": "OBSERVANCE_CHRISTIAN"
    },
    {
        "country": "Guatemala",
        "iso": "GT",
        "year": 2024,
        "date": "2024-04-01",
        "day": "Monday",
        "name": "Easter Monday",
        "type": "OBSERVANCE_CHRISTIAN"
    },
    {
        "country": "Guatemala",
        "iso": "GT",
        "year": 2024,
        "date": "2024-05-01",
        "day": "Wednesday",
        "name": "Labor Day",
        "type": "NATIONAL_HOLIDAY"
    },
    {
        "country": "Guatemala",
        "iso": "GT",
        "year": 2024,
        "date": "2024-06-20",
        "day": "Thursday",
        "name": "June Solstice",
        "type": "SEASON"
    },
    {
        "country": "Guatemala",
        "iso": "GT",
        "year": 2024,
        "date": "2024-06-30",
        "day": "Sunday",
        "name": "Army Day",
        "type": "OBSERVANCE"
    },
    {
        "country": "Guatemala",
        "iso": "GT",
        "year": 2024,
        "date": "2024-07-01",
        "day": "Monday",
        "name": "Army Day Holiday",
        "type": "NATIONAL_HOLIDAY"
    },
    {
        "country": "Guatemala",
        "iso": "GT",
        "year": 2024,
        "date": "2024-08-15",
        "day": "Thursday",
        "name": "Assumption of Mary (Guatemala City only)",
        "type": "MUNICIPAL_HOLIDAY"
    },
    {
        "country": "Guatemala",
        "iso": "GT",
        "year": 2024,
        "date": "2024-09-15",
        "day": "Sunday",
        "name": "Independence Day",
        "type": "NATIONAL_HOLIDAY"
    },
    {
        "country": "Guatemala",
        "iso": "GT",
        "year": 2024,
        "date": "2024-09-22",
        "day": "Sunday",
        "name": "September Equinox",
        "type": "SEASON"
    },
    {
        "country": "Guatemala",
        "iso": "GT",
        "year": 2024,
        "date": "2024-10-12",
        "day": "Saturday",
        "name": "Dia de la raza",
        "type": "BANK_HOLIDAY"
    },
    {
        "country": "Guatemala",
        "iso": "GT",
        "year": 2024,
        "date": "2024-10-20",
        "day": "Sunday",
        "name": "Revolution of 1944",
        "type": "NATIONAL_HOLIDAY"
    },
    {
        "country": "Guatemala",
        "iso": "GT",
        "year": 2024,
        "date": "2024-11-01",
        "day": "Friday",
        "name": "All Saints' Day",
        "type": "NATIONAL_HOLIDAY_CHRISTIAN"
    },
    {
        "country": "Guatemala",
        "iso": "GT",
        "year": 2024,
        "date": "2024-12-21",
        "day": "Saturday",
        "name": "December Solstice",
        "type": "SEASON"
    },
    {
        "country": "Guatemala",
        "iso": "GT",
        "year": 2024,
        "date": "2024-12-24",
        "day": "Tuesday",
        "name": "Christmas Eve",
        "type": "HALF_DAY_HOLIDAY"
    },
    {
        "country": "Guatemala",
        "iso": "GT",
        "year": 2024,
        "date": "2024-12-25",
        "day": "Wednesday",
        "name": "Christmas Day",
        "type": "NATIONAL_HOLIDAY_CHRISTIAN"
    },
    {
        "country": "Guatemala",
        "iso": "GT",
        "year": 2024,
        "date": "2024-12-31",
        "day": "Tuesday",
        "name": "New Year's Eve",
        "type": "HALF_DAY_HOLIDAY"
    }
]