[
    {
        "country": "Guyana",
        "iso": "GY",
        "year": 2024,
        "date": "2024-01-01",
        "day": "Monday",
        "name": "New Year's Day Holiday",
        "type": "PUBLIC_HOLIDAY"
    },
    {
        "country": "Guyana",
        "iso": "GY",
        "year": 2024,
        "date": "2024-02-23",
        "day": "Friday",
        "name": "Mashramani (Republic Day)",
        "type": "PUBLIC_HOLIDAY"
    },
    {
        "country": "Guyana",
        "iso": "GY",
        "year": 2024,
        "date": "2024-03-19",
        "day": "Tuesday",
        "name": "March Equinox",
        "type": "SEASON"
    },
    {
        "country": "Guyana",
        "iso": "GY",
        "year": 2024,
        "date": "2024-03-29",
        "day": "Friday",
        "name": "Good Friday",
        "type": "PUBLIC_HOLIDAY"
    },
    {
        "country": "Guyana",
        "iso": "GY",
        "year": 2024,
        "date": "2024-04-01",
        "day": "Monday",
        "name": "Easter Monday",
        "type": "PUBLIC_HOLIDAY"
    },
    {
        "country": "Guyana",
        "iso": "GY",
        "year": 2024,
        "date": "2024-05-01",
        "day": "Wednesday",
        "name": "Labor Day / May Day",
        "type": "PUBLIC_HOLIDAY"
    },
    {
        "country": "Guyana",
        "iso": "GY",
        "year": 2024,
        "date": "2024-05-05",
        "day": "Sunday",
        "name": "Arrival Day",
        "type": "PUBLIC_HOLIDAY"
    },
    {
        "country": "Guyana",
        "iso": "GY",
        "year": 2024,
        "date": "2024-05-06",
        "day": "Monday",
        "name": "Day off for Arrival Day",
        "type": "PUBLIC_HOLIDAY"
    },
    {
        "country": "Guyana",
        "iso": "GY",
        "year": 2024,
        "date": "2024-05-26",
        "day": "Sunday",
        "name": "Independence Day",
        "type": "PUBLIC_HOLIDAY"
    },
    {
        "country": "Guyana",
        "iso": "GY",
        "year": 2024,
        "date": "2024-05-27",
        "day": "Monday",
        "name": "Day off for Independence Day",
        "type": "PUBLIC_HOLIDAY"
    },
    {
        "country": "Guyana",
        "iso": "GY",
        "year": 2024,
        "date": "2024-06-17",
        "day": "Monday",
        "name": "Eid ul Adha (Tentative Date)",
        "type": "PUBLIC_HOLIDAY"
    },
    {
        "country": "Guyana",
        "iso": "GY",
        "year": 2024,
        "date": "2024-06-20",
        "day": "Thursday",
        "name": "June Solstice",
        "type": "SEASON"
    },
    {
        "country": "Guyana",
        "iso": "GY",
        "year": 2024,
        "date": "2024-07-01",
        "day": "Monday",
        "name": "CARICOM Day",
        "type": "PUBLIC_HOLIDAY"
    },
    {
        "country": "Guyana",
        "iso": "GY",
        "year": 2024,
        "date": "2024-08-01",
        "day": "Thursday",
        "name": "Emancipation Day",
        "type": "PUBLIC_HOLIDAY"
    },
    {
        "country": "Guyana",
        "iso": "GY",
        "year": 2024,
        "date": "2024-09-16",
        "day": "Monday",
        "name": "Youman-Nabi (Mawlid) (Tentative Date)",
        "type": "PUBLIC_HOLIDAY"
    },
    {
        "country": "Guyana",
        "iso": "GY",
        "year": 2024,
        "date": "2024-09-22",
        "day": "Sunday",
        "name": "September Equinox",
        "type": "SEASON"
    },
    {
        "country": "Guyana",
        "iso": "GY",
        "year": 2024,
        "date": "2024-12-21",
        "day": "Saturday",
        "name": "December Solstice",
        "type": "SEASON"
    },
    {
        "country": "Guyana",
        "iso": "GY",
        "year": 2024,
        "date": "2024-12-25",
        "day": "Wednesday",
        "name": "Christmas Day",
        "type": "PUBLIC_HOLIDAY"
    },
    {
        "country": "Guyana",
        "iso": "GY",
        "year": 2024,
        "date": "2024-12-26",
        "day": "Thursday",
        "name": "Boxing Day",
        "type": "PUBLIC_HOLIDAY"
    }
]