[
    {
        "country": "Jordan",
        "iso": "JO",
        "year": 2024,
        "date": "2024-01-01",
        "day": "Monday",
        "name": "New Year's Day",
        "type": "NATIONAL_HOLIDAY"
    },
    {
        "country": "Jordan",
        "iso": "JO",
        "year": 2024,
        "date": "2024-02-06",
        "day": "Tuesday",
        "name": "Al Isra' wal Miraj (Tentative Date)",
        "type": "OBSERVANCE"
    },
    {
        "country": "Jordan",
        "iso": "JO",
        "year": 2024,
        "date": "2024-03-11",
        "day": "Monday",
        "name": "Ramadan begins",
        "type": "OBSERVANCE"
    },
    {
        "country": "Jordan",
        "iso": "JO",
        "year": 2024,
        "date": "2024-03-20",
        "day": "Wednesday",
        "name": "March Equinox",
        "type": "SEASON"
    },
    {
        "country": "Jordan",
        "iso": "JO",
        "year": 2024,
        "date": "2024-03-24",
        "day": "Sunday",
        "name": "Palm Sunday",
        "type": "OPTIONAL_HOLIDAY"
    },
    {
        "country": "Jordan",
        "iso": "JO",
        "year": 2024,
        "date": "2024-03-29",
        "day": "Friday",
        "name": "Good Friday",
        "type": "OBSERVANCE"
    },
    {
        "country": "Jordan",
        "iso": "JO",
        "year": 2024,
        "date": "2024-03-31",
        "day": "Sunday",
        "name": "Easter Sunday",
        "type": "OBSERVANCE"
    },
    {
        "country": "Jordan",
        "iso": "JO",
        "year": 2024,
        "date": "2024-04-01",
        "day": "Monday",
        "name": "Easter Monday",
        "type": "OBSERVANCE"
    },
    {
        "country": "Jordan",
        "iso": "JO",
        "year": 2024,
        "date": "2024-04-10",
        "day": "Wednesday",
        "name": "Eid al-Fitr (Tentative Date)",
        "type": "NATIONAL_HOLIDAY"
    },
    {
        "country": "Jordan",
        "iso": "JO",
        "year": 2024,
        "date": "2024-04-11",
        "day": "Thursday",
        "name": "Eid al-Fitr holiday (Tentative Date)",
        "type": "NATIONAL_HOLIDAY"
    },
    {
        "country": "Jordan",
        "iso": "JO",
        "year": 2024,
        "date": "2024-04-12",
        "day": "Friday",
        "name": "Eid al-Fitr holiday (Tentative Date)",
        "type": "NATIONAL_HOLIDAY"
    },
    {
        "country": "Jordan",
        "iso": "JO",
        "year": 2024,
        "date": "2024-04-13",
        "day": "Saturday",
        "name": "Eid al-Fitr holiday (Tentative Date)",
        "type": "NATIONAL_HOLIDAY"
    },
    {
        "country": "Jordan",
        "iso": "JO",
        "year": 2024,
        "date": "2024-05-01",
        "day": "Wednesday",
        "name": "Labour Day",
        "type": "NATIONAL_HOLIDAY"
    },
    {
        "country": "Jordan",
        "iso": "JO",
        "year": 2024,
        "date": "2024-05-03",
        "day": "Friday",
        "name": "Orthodox Good Friday",
        "type": "OBSERVANCE"
    },
    {
        "country": "Jordan",
        "iso": "JO",
        "year": 2024,
        "date": "2024-05-05",
        "day": "Sunday",
        "name": "Orthodox Easter Day",
        "type": "OPTIONAL_HOLIDAY"
    },
    {
        "country": "Jordan",
        "iso": "JO",
        "year": 2024,
        "date": "2024-05-06",
        "day": "Monday",
        "name": "Orthodox Easter Monday",
        "type": "OPTIONAL_HOLIDAY"
    },
    {
        "country": "Jordan",
        "iso": "JO",
        "year": 2024,
        "date": "2024-05-25",
        "day": "Saturday",
        "name": "Independence Day",
        "type": "NATIONAL_HOLIDAY"
    },
    {
        "country": "Jordan",
        "iso": "JO",
        "year": 2024,
        "date": "2024-06-16",
        "day": "Sunday",
        "name": "Arafah (Tentative Date)",
        "type": "NATIONAL_HOLIDAY"
    },
    {
        "country": "Jordan",
        "iso": "JO",
        "year": 2024,
        "date": "2024-06-17",
        "day": "Monday",
        "name": "Eid al-Adha (Tentative Date)",
        "type": "NATIONAL_HOLIDAY"
    },
    {
        "country": "Jordan",
        "iso": "JO",
        "year": 2024,
        "date": "2024-06-18",
        "day": "Tuesday",
        "name": "Eid al-Adha holiday (Tentative Date)",
        "type": "NATIONAL_HOLIDAY"
    },
    {
        "country": "Jordan",
        "iso": "JO",
        "year": 2024,
        "date": "2024-06-19",
        "day": "Wednesday",
        "name": "Eid al-Adha holiday (Tentative Date)",
        "type": "NATIONAL_HOLIDAY"
    },
    {
        "country": "Jordan",
        "iso": "JO",
        "year": 2024,
        "date": "2024-06-20",
        "day": "Thursday",
        "name": "June Solstice",
        "type": "SEASON"
    },
    {
        "country": "Jordan",
        "iso": "JO",
        "year": 2024,
        "date": "2024-07-08",
        "day": "Monday",
        "name": "Muharram/New Year (Tentative Date)",
        "type": "NATIONAL_HOLIDAY"
    },
    {
        "country": "Jordan",
        "iso": "JO",
        "year": 2024,
        "date": "2024-09-16",
        "day": "Monday",
        "name": "Prophet's Birthday (Tentative Date)",
        "type": "NATIONAL_HOLIDAY"
    },
    {
        "country": "Jordan",
        "iso": "JO",
        "year": 2024,
        "date": "2024-09-22",
        "day": "Sunday",
        "name": "September Equinox",
        "type": "SEASON"
    },
    {
        "country": "Jordan",
        "iso": "JO",
        "year": 2024,
        "date": "2024-12-21",
        "day": "Saturday",
        "name": "December Solstice",
        "type": "SEASON"
    },
    {
        "country": "Jordan",
        "iso": "JO",
        "year": 2024,
        "date": "2024-12-25",
        "day": "Wednesday",
        "name": "Christmas Day",
        "type": "NATIONAL_HOLIDAY"
    },
    {
        "country": "Jordan",
        "iso": "JO",
        "year": 2024,
        "date": "2024-12-26",
        "day": "Thursday",
        "name": "Boxing Day",
        "type": "OPTIONAL_HOLIDAY"
    }
]