[
    {
        "country": "Kenya",
        "iso": "KE",
        "year": 2024,
        "date": "2024-01-01",
        "day": "Monday",
        "name": "New Year's Day",
        "type": "PUBLIC_HOLIDAY"
    },
    {
        "country": "Kenya",
        "iso": "KE",
        "year": 2024,
        "date": "2024-03-20",
        "day": "Wednesday",
        "name": "March Equinox",
        "type": "SEASON"
    },
    {
        "country": "Kenya",
        "iso": "KE",
        "year": 2024,
        "date": "2024-03-29",
        "day": "Friday",
        "name": "Good Friday",
        "type": "PUBLIC_HOLIDAY"
    },
    {
        "country": "Kenya",
        "iso": "KE",
        "year": 2024,
        "date": "2024-03-31",
        "day": "Sunday",
        "name": "Easter Sunday",
        "type": "OBSERVANCE"
    },
    {
        "country": "Kenya",
        "iso": "KE",
        "year": 2024,
        "date": "2024-04-01",
        "day": "Monday",
        "name": "Easter Monday",
        "type": "PUBLIC_HOLIDAY"
    },
    {
        "country": "Kenya",
        "iso": "KE",
        "year": 2024,
        "date": "2024-04-11",
        "day": "Thursday",
        "name": "Eid al-Fitr",
        "type": "PUBLIC_HOLIDAY"
    },
    {
        "country": "Kenya",
        "iso": "KE",
        "year": 2024,
        "date": "2024-05-01",
        "day": "Wednesday",
        "name": "Labour Day/May Day",
        "type": "PUBLIC_HOLIDAY"
    },
    {
        "country": "Kenya",
        "iso": "KE",
        "year": 2024,
        "date": "2024-05-12",
        "day": "Sunday",
        "name": "Mother's Day",
        "type": "OBSERVANCE"
    },
    {
        "country": "Kenya",
        "iso": "KE",
        "year": 2024,
        "date": "2024-06-01",
        "day": "Saturday",
        "name": "Madaraka Day",
        "type": "PUBLIC_HOLIDAY"
    },
    {
        "country": "Kenya",
        "iso": "KE",
        "year": 2024,
        "date": "2024-06-17",
        "day": "Monday",
        "name": "Eid al-Adha (Tentative Date)",
        "type": "OPTIONAL_HOLIDAY"
    },
    {
        "country": "Kenya",
        "iso": "KE",
        "year": 2024,
        "date": "2024-06-20",
        "day": "Thursday",
        "name": "June Solstice",
        "type": "SEASON"
    },
    {
        "country": "Kenya",
        "iso": "KE",
        "year": 2024,
        "date": "2024-09-22",
        "day": "Sunday",
        "name": "September Equinox",
        "type": "SEASON"
    },
    {
        "country": "Kenya",
        "iso": "KE",
        "year": 2024,
        "date": "2024-10-10",
        "day": "Thursday",
        "name": "Huduma Day",
        "type": "PUBLIC_HOLIDAY"
    },
    {
        "country": "Kenya",
        "iso": "KE",
        "year": 2024,
        "date": "2024-10-20",
        "day": "Sunday",
        "name": "Mashujaa Day",
        "type": "PUBLIC_HOLIDAY"
    },
    {
        "country": "Kenya",
        "iso": "KE",
        "year": 2024,
        "date": "2024-10-21",
        "day": "Monday",
        "name": "Mashujaa Day observed",
        "type": "PUBLIC_HOLIDAY"
    },
    {
        "country": "Kenya",
        "iso": "KE",
        "year": 2024,
        "date": "2024-11-01",
        "day": "Friday",
        "name": "Diwali",
        "type": "OPTIONAL_HOLIDAY"
    },
    {
        "country": "Kenya",
        "iso": "KE",
        "year": 2024,
        "date": "2024-12-12",
        "day": "Thursday",
        "name": "Jamhuri Day",
        "type": "PUBLIC_HOLIDAY"
    },
    {
        "country": "Kenya",
        "iso": "KE",
        "year": 2024,
        "date": "2024-12-21",
        "day": "Saturday",
        "name": "December Solstice",
        "type": "SEASON"
    },
    {
        "country": "Kenya",
        "iso": "KE",
        "year": 2024,
        "date": "2024-12-24",
        "day": "Tuesday",
        "name": "Christmas Eve",
        "type": "OBSERVANCE"
    },
    {
        "country": "Kenya",
        "iso": "KE",
        "year": 2024,
        "date": "2024-12-25",
        "day": "Wednesday",
        "name": "Christmas Day",
        "type": "PUBLIC_HOLIDAY"
    },
    {
        "country": "Kenya",
        "iso": "KE",
        "year": 2024,
        "date": "2024-12-26",
        "day": "Thursday",
        "name": "Boxing Day",
        "type": "PUBLIC_HOLIDAY"
    },
    {
        "country": "Kenya",
        "iso": "KE",
        "year": 2024,
        "date": "2024-12-31",
        "day": "Tuesday",
        "name": "New Year's Eve",
        "type": "OBSERVANCE"
    }
]