[
    {
        "country": "Liberia",
        "iso": "LR",
        "year": 2024,
        "date": "2024-01-01",
        "day": "Monday",
        "name": "New Year",
        "type": "PUBLIC_HOLIDAY"
    },
    {
        "country": "Liberia",
        "iso": "LR",
        "year": 2024,
        "date": "2024-01-07",
        "day": "Sunday",
        "name": "Pioneers Day",
        "type": "OBSERVANCE"
    },
    {
        "country": "Liberia",
        "iso": "LR",
        "year": 2024,
        "date": "2024-01-08",
        "day": "Monday",
        "name": "Day off for Pioneers Day",
        "type": "OBSERVANCE"
    },
    {
        "country": "Liberia",
        "iso": "LR",
        "year": 2024,
        "date": "2024-02-11",
        "day": "Sunday",
        "name": "Armed Forces Day",
        "type": "PUBLIC_HOLIDAY"
    },
    {
        "country": "Liberia",
        "iso": "LR",
        "year": 2024,
        "date": "2024-02-12",
        "day": "Monday",
        "name": "Day off for Armed Forces Day",
        "type": "PUBLIC_HOLIDAY"
    },
    {
        "country": "Liberia",
        "iso": "LR",
        "year": 2024,
        "date": "2024-03-13",
        "day": "Wednesday",
        "name": "Decoration Day",
        "type": "PUBLIC_HOLIDAY"
    },
    {
        "country": "Liberia",
        "iso": "LR",
        "year": 2024,
        "date": "2024-03-15",
        "day": "Friday",
        "name": "J. J. Roberts Birthday",
        "type": "PUBLIC_HOLIDAY"
    },
    {
        "country": "Liberia",
        "iso": "LR",
        "year": 2024,
        "date": "2024-03-20",
        "day": "Wednesday",
        "name": "March Equinox",
        "type": "SEASON"
    },
    {
        "country": "Liberia",
        "iso": "LR",
        "year": 2024,
        "date": "2024-04-12",
        "day": "Friday",
        "name": "Fast and Prayer Day",
        "type": "PUBLIC_HOLIDAY"
    },
    {
        "country": "Liberia",
        "iso": "LR",
        "year": 2024,
        "date": "2024-05-14",
        "day": "Tuesday",
        "name": "National Unification Day",
        "type": "PUBLIC_HOLIDAY"
    },
    {
        "country": "Liberia",
        "iso": "LR",
        "year": 2024,
        "date": "2024-06-20",
        "day": "Thursday",
        "name": "June Solstice",
        "type": "SEASON"
    },
    {
        "country": "Liberia",
        "iso": "LR",
        "year": 2024,
        "date": "2024-07-26",
        "day": "Friday",
        "name": "Independence Day",
        "type": "PUBLIC_HOLIDAY"
    },
    {
        "country": "Liberia",
        "iso": "LR",
        "year": 2024,
        "date": "2024-08-24",
        "day": "Saturday",
        "name": "Flag Day",
        "type": "PUBLIC_HOLIDAY"
    },
    {
        "country": "Liberia",
        "iso": "LR",
        "year": 2024,
        "date": "2024-09-22",
        "day": "Sunday",
        "name": "September Equinox",
        "type": "SEASON"
    },
    {
        "country": "Liberia",
        "iso": "LR",
        "year": 2024,
        "date": "2024-11-07",
        "day": "Thursday",
        "name": "Thanksgiving",
        "type": "PUBLIC_HOLIDAY"
    },
    {
        "country": "Liberia",
        "iso": "LR",
        "year": 2024,
        "date": "2024-11-29",
        "day": "Friday",
        "name": "William Tubmans Birthday",
        "type": "PUBLIC_HOLIDAY"
    },
    {
        "country": "Liberia",
        "iso": "LR",
        "year": 2024,
        "date": "2024-12-21",
        "day": "Saturday",
        "name": "December Solstice",
        "type": "SEASON"
    },
    {
        "country": "Liberia",
        "iso": "LR",
        "year": 2024,
        "date": "2024-12-25",
        "day": "Wednesday",
        "name": "Christmas Day",
        "type": "PUBLIC_HOLIDAY"
    }
]