[
    {
        "country": "Monaco",
        "iso": "MC",
        "year": 2024,
        "date": "2024-01-01",
        "day": "Monday",
        "name": "New Year's Day",
        "type": "NATIONAL_HOLIDAY"
    },
    {
        "country": "Monaco",
        "iso": "MC",
        "year": 2024,
        "date": "2024-01-27",
        "day": "Saturday",
        "name": "Saint D\u00e9vote's Day",
        "type": "NATIONAL_HOLIDAY"
    },
    {
        "country": "Monaco",
        "iso": "MC",
        "year": 2024,
        "date": "2024-03-20",
        "day": "Wednesday",
        "name": "March Equinox",
        "type": "SEASON"
    },
    {
        "country": "Monaco",
        "iso": "MC",
        "year": 2024,
        "date": "2024-03-29",
        "day": "Friday",
        "name": "Good Friday",
        "type": "OBSERVANCE"
    },
    {
        "country": "Monaco",
        "iso": "MC",
        "year": 2024,
        "date": "2024-03-30",
        "day": "Saturday",
        "name": "Holy Saturday",
        "type": "OBSERVANCE"
    },
    {
        "country": "Monaco",
        "iso": "MC",
        "year": 2024,
        "date": "2024-03-31",
        "day": "Sunday",
        "name": "Daylight Saving Time starts",
        "type": "CLOCK_CHANGE_DAYLIGHT_SAVING_TIME"
    },
    {
        "country": "Monaco",
        "iso": "MC",
        "year": 2024,
        "date": "2024-04-01",
        "day": "Monday",
        "name": "Easter Monday",
        "type": "NATIONAL_HOLIDAY"
    },
    {
        "country": "Monaco",
        "iso": "MC",
        "year": 2024,
        "date": "2024-05-01",
        "day": "Wednesday",
        "name": "Labour Day/May Day",
        "type": "NATIONAL_HOLIDAY"
    },
    {
        "country": "Monaco",
        "iso": "MC",
        "year": 2024,
        "date": "2024-05-09",
        "day": "Thursday",
        "name": "Ascension Day",
        "type": "NATIONAL_HOLIDAY"
    },
    {
        "country": "Monaco",
        "iso": "MC",
        "year": 2024,
        "date": "2024-05-19",
        "day": "Sunday",
        "name": "Whit Sunday",
        "type": "OBSERVANCE"
    },
    {
        "country": "Monaco",
        "iso": "MC",
        "year": 2024,
        "date": "2024-05-20",
        "day": "Monday",
        "name": "Whit Monday",
        "type": "NATIONAL_HOLIDAY"
    },
    {
        "country": "Monaco",
        "iso": "MC",
        "year": 2024,
        "date": "2024-05-30",
        "day": "Thursday",
        "name": "Corpus Christi",
        "type": "NATIONAL_HOLIDAY"
    },
    {
        "country": "Monaco",
        "iso": "MC",
        "year": 2024,
        "date": "2024-06-20",
        "day": "Thursday",
        "name": "June Solstice",
        "type": "SEASON"
    },
    {
        "country": "Monaco",
        "iso": "MC",
        "year": 2024,
        "date": "2024-08-15",
        "day": "Thursday",
        "name": "Assumption of Mary",
        "type": "NATIONAL_HOLIDAY"
    },
    {
        "country": "Monaco",
        "iso": "MC",
        "year": 2024,
        "date": "2024-09-22",
        "day": "Sunday",
        "name": "September Equinox",
        "type": "SEASON"
    },
    {
        "country": "Monaco",
        "iso": "MC",
        "year": 2024,
        "date": "2024-10-27",
        "day": "Sunday",
        "name": "Daylight Saving Time ends",
        "type": "CLOCK_CHANGE_DAYLIGHT_SAVING_TIME"
    },
    {
        "country": "Monaco",
        "iso": "MC",
        "year": 2024,
        "date": "2024-11-01",
        "day": "Friday",
        "name": "All Saints' Day",
        "type": "NATIONAL_HOLIDAY"
    },
    {
        "country": "Monaco",
        "iso": "MC",
        "year": 2024,
        "date": "2024-11-19",
        "day": "Tuesday",
        "name": "National Day",
        "type": "NATIONAL_HOLIDAY"
    },
    {
        "country": "Monaco",
        "iso": "MC",
        "year": 2024,
        "date": "2024-12-08",
        "day": "Sunday",
        "name": "Feast of the Immaculate Conception",
        "type": "NATIONAL_HOLIDAY"
    },
    {
        "country": "Monaco",
        "iso": "MC",
        "year": 2024,
        "date": "2024-12-21",
        "day": "Saturday",
        "name": "December Solstice",
        "type": "SEASON"
    },
    {
        "country": "Monaco",
        "iso": "MC",
        "year": 2024,
        "date": "2024-12-24",
        "day": "Tuesday",
        "name": "Christmas Eve",
        "type": "OBSERVANCE"
    },
    {
        "country": "Monaco",
        "iso": "MC",
        "year": 2024,
        "date": "2024-12-25",
        "day": "Wednesday",
        "name": "Christmas Day",
        "type": "NATIONAL_HOLIDAY"
    },
    {
        "country": "Monaco",
        "iso": "MC",
        "year": 2024,
        "date": "2024-12-31",
        "day": "Tuesday",
        "name": "New Year's Eve",
        "type": "OBSERVANCE"
    }
]