[
    {
        "country": "Mali",
        "iso": "ML",
        "year": 2024,
        "date": "2024-01-01",
        "day": "Monday",
        "name": "New Year",
        "type": "PUBLIC_HOLIDAY"
    },
    {
        "country": "Mali",
        "iso": "ML",
        "year": 2024,
        "date": "2024-01-20",
        "day": "Saturday",
        "name": "Army Day",
        "type": "PUBLIC_HOLIDAY"
    },
    {
        "country": "Mali",
        "iso": "ML",
        "year": 2024,
        "date": "2024-03-20",
        "day": "Wednesday",
        "name": "March Equinox",
        "type": "SEASON"
    },
    {
        "country": "Mali",
        "iso": "ML",
        "year": 2024,
        "date": "2024-03-26",
        "day": "Tuesday",
        "name": "Martyrs' Day",
        "type": "PUBLIC_HOLIDAY"
    },
    {
        "country": "Mali",
        "iso": "ML",
        "year": 2024,
        "date": "2024-04-01",
        "day": "Monday",
        "name": "Easter Monday",
        "type": "PUBLIC_HOLIDAY"
    },
    {
        "country": "Mali",
        "iso": "ML",
        "year": 2024,
        "date": "2024-04-10",
        "day": "Wednesday",
        "name": "Eid al-Fitr",
        "type": "PUBLIC_HOLIDAY"
    },
    {
        "country": "Mali",
        "iso": "ML",
        "year": 2024,
        "date": "2024-05-01",
        "day": "Wednesday",
        "name": "Workers' Day",
        "type": "PUBLIC_HOLIDAY"
    },
    {
        "country": "Mali",
        "iso": "ML",
        "year": 2024,
        "date": "2024-05-20",
        "day": "Monday",
        "name": "Whit Monday",
        "type": "OBSERVANCE"
    },
    {
        "country": "Mali",
        "iso": "ML",
        "year": 2024,
        "date": "2024-05-25",
        "day": "Saturday",
        "name": "Africa Day",
        "type": "PUBLIC_HOLIDAY"
    },
    {
        "country": "Mali",
        "iso": "ML",
        "year": 2024,
        "date": "2024-06-17",
        "day": "Monday",
        "name": "Eid al-Adha (Tentative Date)",
        "type": "PUBLIC_HOLIDAY"
    },
    {
        "country": "Mali",
        "iso": "ML",
        "year": 2024,
        "date": "2024-06-20",
        "day": "Thursday",
        "name": "June Solstice",
        "type": "SEASON"
    },
    {
        "country": "Mali",
        "iso": "ML",
        "year": 2024,
        "date": "2024-09-16",
        "day": "Monday",
        "name": "The Prophet's Birthday (Tentative Date)",
        "type": "PUBLIC_HOLIDAY"
    },
    {
        "country": "Mali",
        "iso": "ML",
        "year": 2024,
        "date": "2024-09-22",
        "day": "Sunday",
        "name": "September Equinox",
        "type": "SEASON"
    },
    {
        "country": "Mali",
        "iso": "ML",
        "year": 2024,
        "date": "2024-12-21",
        "day": "Saturday",
        "name": "December Solstice",
        "type": "SEASON"
    },
    {
        "country": "Mali",
        "iso": "ML",
        "year": 2024,
        "date": "2024-12-25",
        "day": "Wednesday",
        "name": "Christmas Day",
        "type": "PUBLIC_HOLIDAY"
    }
]