[
    {
        "country": "Northern Mariana Islands",
        "iso": "MP",
        "year": 2024,
        "date": "2024-01-01",
        "day": "Monday",
        "name": "New Year's Day",
        "type": "PUBLIC_HOLIDAY"
    },
    {
        "country": "Northern Mariana Islands",
        "iso": "MP",
        "year": 2024,
        "date": "2024-01-15",
        "day": "Monday",
        "name": "Martin Luther King Jr. Day",
        "type": "PUBLIC_HOLIDAY"
    },
    {
        "country": "Northern Mariana Islands",
        "iso": "MP",
        "year": 2024,
        "date": "2024-02-19",
        "day": "Monday",
        "name": "President's Day",
        "type": "PUBLIC_HOLIDAY"
    },
    {
        "country": "Northern Mariana Islands",
        "iso": "MP",
        "year": 2024,
        "date": "2024-03-20",
        "day": "Wednesday",
        "name": "March Equinox",
        "type": "SEASON"
    },
    {
        "country": "Northern Mariana Islands",
        "iso": "MP",
        "year": 2024,
        "date": "2024-03-24",
        "day": "Sunday",
        "name": "Commonwealth Covenant Day",
        "type": "PUBLIC_HOLIDAY"
    },
    {
        "country": "Northern Mariana Islands",
        "iso": "MP",
        "year": 2024,
        "date": "2024-03-25",
        "day": "Monday",
        "name": "Day off for Commonwealth Covenant Day",
        "type": "PUBLIC_HOLIDAY"
    },
    {
        "country": "Northern Mariana Islands",
        "iso": "MP",
        "year": 2024,
        "date": "2024-03-29",
        "day": "Friday",
        "name": "Good Friday",
        "type": "PUBLIC_HOLIDAY"
    },
    {
        "country": "Northern Mariana Islands",
        "iso": "MP",
        "year": 2024,
        "date": "2024-05-27",
        "day": "Monday",
        "name": "Memorial Day",
        "type": "PUBLIC_HOLIDAY"
    },
    {
        "country": "Northern Mariana Islands",
        "iso": "MP",
        "year": 2024,
        "date": "2024-06-21",
        "day": "Friday",
        "name": "June Solstice",
        "type": "SEASON"
    },
    {
        "country": "Northern Mariana Islands",
        "iso": "MP",
        "year": 2024,
        "date": "2024-07-04",
        "day": "Thursday",
        "name": "Independence Day",
        "type": "PUBLIC_HOLIDAY"
    },
    {
        "country": "Northern Mariana Islands",
        "iso": "MP",
        "year": 2024,
        "date": "2024-09-02",
        "day": "Monday",
        "name": "Labor Day",
        "type": "PUBLIC_HOLIDAY"
    },
    {
        "country": "Northern Mariana Islands",
        "iso": "MP",
        "year": 2024,
        "date": "2024-09-22",
        "day": "Sunday",
        "name": "September Equinox",
        "type": "SEASON"
    },
    {
        "country": "Northern Mariana Islands",
        "iso": "MP",
        "year": 2024,
        "date": "2024-10-14",
        "day": "Monday",
        "name": "Commonwealth Cultural Day",
        "type": "PUBLIC_HOLIDAY"
    },
    {
        "country": "Northern Mariana Islands",
        "iso": "MP",
        "year": 2024,
        "date": "2024-11-04",
        "day": "Monday",
        "name": "Citizenship Day",
        "type": "PUBLIC_HOLIDAY"
    },
    {
        "country": "Northern Mariana Islands",
        "iso": "MP",
        "year": 2024,
        "date": "2024-11-11",
        "day": "Monday",
        "name": "Veterans Day",
        "type": "PUBLIC_HOLIDAY"
    },
    {
        "country": "Northern Mariana Islands",
        "iso": "MP",
        "year": 2024,
        "date": "2024-11-28",
        "day": "Thursday",
        "name": "Thanksgiving Day",
        "type": "PUBLIC_HOLIDAY"
    },
    {
        "country": "Northern Mariana Islands",
        "iso": "MP",
        "year": 2024,
        "date": "2024-12-08",
        "day": "Sunday",
        "name": "Constitution Day",
        "type": "PUBLIC_HOLIDAY"
    },
    {
        "country": "Northern Mariana Islands",
        "iso": "MP",
        "year": 2024,
        "date": "2024-12-09",
        "day": "Monday",
        "name": "Day off for Constitution Day",
        "type": "PUBLIC_HOLIDAY"
    },
    {
        "country": "Northern Mariana Islands",
        "iso": "MP",
        "year": 2024,
        "date": "2024-12-21",
        "day": "Saturday",
        "name": "December Solstice",
        "type": "SEASON"
    },
    {
        "country": "Northern Mariana Islands",
        "iso": "MP",
        "year": 2024,
        "date": "2024-12-25",
        "day": "Wednesday",
        "name": "Christmas Day",
        "type": "PUBLIC_HOLIDAY"
    }
]