[
    {
        "country": "French Polynesia",
        "iso": "PF",
        "year": 2024,
        "date": "2024-01-01",
        "day": "Monday",
        "name": "New Year's Day",
        "type": "PUBLIC_HOLIDAY"
    },
    {
        "country": "French Polynesia",
        "iso": "PF",
        "year": 2024,
        "date": "2024-03-05",
        "day": "Tuesday",
        "name": "Missionary Day",
        "type": "PUBLIC_HOLIDAY"
    },
    {
        "country": "French Polynesia",
        "iso": "PF",
        "year": 2024,
        "date": "2024-03-19",
        "day": "Tuesday",
        "name": "March Equinox",
        "type": "SEASON"
    },
    {
        "country": "French Polynesia",
        "iso": "PF",
        "year": 2024,
        "date": "2024-03-29",
        "day": "Friday",
        "name": "Good Friday",
        "type": "PUBLIC_HOLIDAY"
    },
    {
        "country": "French Polynesia",
        "iso": "PF",
        "year": 2024,
        "date": "2024-04-01",
        "day": "Monday",
        "name": "Easter Monday",
        "type": "PUBLIC_HOLIDAY"
    },
    {
        "country": "French Polynesia",
        "iso": "PF",
        "year": 2024,
        "date": "2024-05-01",
        "day": "Wednesday",
        "name": "Labor Day / May Day",
        "type": "PUBLIC_HOLIDAY"
    },
    {
        "country": "French Polynesia",
        "iso": "PF",
        "year": 2024,
        "date": "2024-05-08",
        "day": "Wednesday",
        "name": "Victory Day",
        "type": "PUBLIC_HOLIDAY"
    },
    {
        "country": "French Polynesia",
        "iso": "PF",
        "year": 2024,
        "date": "2024-05-09",
        "day": "Thursday",
        "name": "Ascension Day",
        "type": "PUBLIC_HOLIDAY"
    },
    {
        "country": "French Polynesia",
        "iso": "PF",
        "year": 2024,
        "date": "2024-05-20",
        "day": "Monday",
        "name": "Whit Monday",
        "type": "PUBLIC_HOLIDAY"
    },
    {
        "country": "French Polynesia",
        "iso": "PF",
        "year": 2024,
        "date": "2024-06-20",
        "day": "Thursday",
        "name": "June Solstice",
        "type": "SEASON"
    },
    {
        "country": "French Polynesia",
        "iso": "PF",
        "year": 2024,
        "date": "2024-06-29",
        "day": "Saturday",
        "name": "Autonomy Day",
        "type": "PUBLIC_HOLIDAY"
    },
    {
        "country": "French Polynesia",
        "iso": "PF",
        "year": 2024,
        "date": "2024-07-14",
        "day": "Sunday",
        "name": "French National Day",
        "type": "PUBLIC_HOLIDAY"
    },
    {
        "country": "French Polynesia",
        "iso": "PF",
        "year": 2024,
        "date": "2024-08-15",
        "day": "Thursday",
        "name": "Assumption of Mary",
        "type": "PUBLIC_HOLIDAY"
    },
    {
        "country": "French Polynesia",
        "iso": "PF",
        "year": 2024,
        "date": "2024-09-22",
        "day": "Sunday",
        "name": "September Equinox",
        "type": "SEASON"
    },
    {
        "country": "French Polynesia",
        "iso": "PF",
        "year": 2024,
        "date": "2024-11-01",
        "day": "Friday",
        "name": "All Saints' Day",
        "type": "PUBLIC_HOLIDAY"
    },
    {
        "country": "French Polynesia",
        "iso": "PF",
        "year": 2024,
        "date": "2024-11-11",
        "day": "Monday",
        "name": "Armistice Day",
        "type": "PUBLIC_HOLIDAY"
    },
    {
        "country": "French Polynesia",
        "iso": "PF",
        "year": 2024,
        "date": "2024-12-20",
        "day": "Friday",
        "name": "December Solstice",
        "type": "SEASON"
    },
    {
        "country": "French Polynesia",
        "iso": "PF",
        "year": 2024,
        "date": "2024-12-25",
        "day": "Wednesday",
        "name": "Christmas Day",
        "type": "PUBLIC_HOLIDAY"
    }
]