[
    {
        "country": "Kosovo",
        "iso": "RS",
        "year": 2024,
        "date": "2024-01-01",
        "day": "Monday",
        "name": "New Year's Day",
        "type": "OFFICIAL_HOLIDAY"
    },
    {
        "country": "Serbia",
        "iso": "RS",
        "year": 2024,
        "date": "2024-01-01",
        "day": "Monday",
        "name": "Western New Year's Day",
        "type": "NATIONAL_HOLIDAY"
    },
    {
        "country": "Kosovo",
        "iso": "RS",
        "year": 2024,
        "date": "2024-01-02",
        "day": "Tuesday",
        "name": "Second Day of New Year",
        "type": "OFFICIAL_HOLIDAY"
    },
    {
        "country": "Serbia",
        "iso": "RS",
        "year": 2024,
        "date": "2024-01-02",
        "day": "Tuesday",
        "name": "Second Day of Western New Year's Day",
        "type": "NATIONAL_HOLIDAY"
    },
    {
        "country": "Serbia",
        "iso": "RS",
        "year": 2024,
        "date": "2024-01-06",
        "day": "Saturday",
        "name": "First Day of Baptism",
        "type": "ORTHODOX_OPTIONAL_HOLIDAY"
    },
    {
        "country": "Kosovo",
        "iso": "RS",
        "year": 2024,
        "date": "2024-01-07",
        "day": "Sunday",
        "name": "Christmas Day",
        "type": "OFFICIAL_HOLIDAY"
    },
    {
        "country": "Serbia",
        "iso": "RS",
        "year": 2024,
        "date": "2024-01-07",
        "day": "Sunday",
        "name": "Christmas Day",
        "type": "NATIONAL_HOLIDAY_ORTHODOX"
    },
    {
        "country": "Kosovo",
        "iso": "RS",
        "year": 2024,
        "date": "2024-01-08",
        "day": "Monday",
        "name": "Day off for Christmas Day",
        "type": "OFFICIAL_HOLIDAY"
    },
    {
        "country": "Serbia",
        "iso": "RS",
        "year": 2024,
        "date": "2024-01-14",
        "day": "Sunday",
        "name": "New Year",
        "type": "OBSERVANCE_ORTHODOX"
    },
    {
        "country": "Serbia",
        "iso": "RS",
        "year": 2024,
        "date": "2024-01-27",
        "day": "Saturday",
        "name": "Spirituality Day/St Sava's Day",
        "type": "OBSERVANCE"
    },
    {
        "country": "Kosovo",
        "iso": "RS",
        "year": 2024,
        "date": "2024-02-15",
        "day": "Thursday",
        "name": "Day of Ashakalia",
        "type": "OBSERVANCE"
    },
    {
        "country": "Serbia",
        "iso": "RS",
        "year": 2024,
        "date": "2024-02-15",
        "day": "Thursday",
        "name": "Statehood Day of the Republic of Serbia",
        "type": "NATIONAL_HOLIDAY"
    },
    {
        "country": "Serbia",
        "iso": "RS",
        "year": 2024,
        "date": "2024-02-16",
        "day": "Friday",
        "name": "Statehood Day of the Republic of Serbia (Day 2)",
        "type": "NATIONAL_HOLIDAY"
    },
    {
        "country": "Kosovo",
        "iso": "RS",
        "year": 2024,
        "date": "2024-02-17",
        "day": "Saturday",
        "name": "Independence Day of the Republic of Kosovo",
        "type": "OFFICIAL_HOLIDAY"
    },
    {
        "country": "Kosovo",
        "iso": "RS",
        "year": 2024,
        "date": "2024-02-19",
        "day": "Monday",
        "name": "Day off for Independence Day of the Republic of Kosovo",
        "type": "OFFICIAL_HOLIDAY"
    },
    {
        "country": "Kosovo",
        "iso": "RS",
        "year": 2024,
        "date": "2024-03-06",
        "day": "Wednesday",
        "name": "Day of Memorial and Respect for Veterans",
        "type": "OBSERVANCE"
    },
    {
        "country": "Kosovo",
        "iso": "RS",
        "year": 2024,
        "date": "2024-03-20",
        "day": "Wednesday",
        "name": "March Equinox",
        "type": "SEASON"
    },
    {
        "country": "Serbia",
        "iso": "RS",
        "year": 2024,
        "date": "2024-03-20",
        "day": "Wednesday",
        "name": "March Equinox",
        "type": "SEASON"
    },
    {
        "country": "Serbia",
        "iso": "RS",
        "year": 2024,
        "date": "2024-03-29",
        "day": "Friday",
        "name": "Western Good Friday",
        "type": "CHRISTIAN_OPTIONAL_HOLIDAY"
    },
    {
        "country": "Serbia",
        "iso": "RS",
        "year": 2024,
        "date": "2024-03-30",
        "day": "Saturday",
        "name": "Western Easter Saturday",
        "type": "CHRISTIAN_OPTIONAL_HOLIDAY"
    },
    {
        "country": "Kosovo",
        "iso": "RS",
        "year": 2024,
        "date": "2024-03-31",
        "day": "Sunday",
        "name": "Daylight Saving Time starts",
        "type": "CLOCK_CHANGE_DAYLIGHT_SAVING_TIME"
    },
    {
        "country": "Serbia",
        "iso": "RS",
        "year": 2024,
        "date": "2024-03-31",
        "day": "Sunday",
        "name": "Western Easter Sunday",
        "type": "CHRISTIAN_OPTIONAL_HOLIDAY"
    },
    {
        "country": "Kosovo",
        "iso": "RS",
        "year": 2024,
        "date": "2024-04-01",
        "day": "Monday",
        "name": "Easter Monday",
        "type": "OFFICIAL_HOLIDAY"
    },
    {
        "country": "Serbia",
        "iso": "RS",
        "year": 2024,
        "date": "2024-04-01",
        "day": "Monday",
        "name": "Western Easter Monday",
        "type": "CHRISTIAN_OPTIONAL_HOLIDAY"
    },
    {
        "country": "Kosovo",
        "iso": "RS",
        "year": 2024,
        "date": "2024-04-08",
        "day": "Monday",
        "name": "Day of Romas",
        "type": "OBSERVANCE"
    },
    {
        "country": "Kosovo",
        "iso": "RS",
        "year": 2024,
        "date": "2024-04-09",
        "day": "Tuesday",
        "name": "Constitution Day of the Republic of Kosovo",
        "type": "OFFICIAL_HOLIDAY"
    },
    {
        "country": "Kosovo",
        "iso": "RS",
        "year": 2024,
        "date": "2024-04-10",
        "day": "Wednesday",
        "name": "Eid al-Fitr",
        "type": "OFFICIAL_HOLIDAY"
    },
    {
        "country": "Serbia",
        "iso": "RS",
        "year": 2024,
        "date": "2024-04-10",
        "day": "Wednesday",
        "name": "Eid al-Fitr",
        "type": "MUSLIM_OPTIONAL_HOLIDAY"
    },
    {
        "country": "Serbia",
        "iso": "RS",
        "year": 2024,
        "date": "2024-04-22",
        "day": "Monday",
        "name": "Holocaust Remembrance Day",
        "type": "OBSERVANCE"
    },
    {
        "country": "Kosovo",
        "iso": "RS",
        "year": 2024,
        "date": "2024-04-23",
        "day": "Tuesday",
        "name": "Day of Turks",
        "type": "OBSERVANCE"
    },
    {
        "country": "Kosovo",
        "iso": "RS",
        "year": 2024,
        "date": "2024-05-01",
        "day": "Wednesday",
        "name": "International Labour Day",
        "type": "OFFICIAL_HOLIDAY"
    },
    {
        "country": "Serbia",
        "iso": "RS",
        "year": 2024,
        "date": "2024-05-01",
        "day": "Wednesday",
        "name": "Labor holiday",
        "type": "NATIONAL_HOLIDAY"
    },
    {
        "country": "Serbia",
        "iso": "RS",
        "year": 2024,
        "date": "2024-05-02",
        "day": "Thursday",
        "name": "Labor holiday second day",
        "type": "NATIONAL_HOLIDAY"
    },
    {
        "country": "Serbia",
        "iso": "RS",
        "year": 2024,
        "date": "2024-05-03",
        "day": "Friday",
        "name": "Good Friday",
        "type": "NATIONAL_HOLIDAY_ORTHODOX"
    },
    {
        "country": "Serbia",
        "iso": "RS",
        "year": 2024,
        "date": "2024-05-04",
        "day": "Saturday",
        "name": "Holy Saturday",
        "type": "NATIONAL_HOLIDAY_ORTHODOX"
    },
    {
        "country": "Kosovo",
        "iso": "RS",
        "year": 2024,
        "date": "2024-05-05",
        "day": "Sunday",
        "name": "Orthodox Easter Day",
        "type": "OFFICIAL_HOLIDAY"
    },
    {
        "country": "Serbia",
        "iso": "RS",
        "year": 2024,
        "date": "2024-05-05",
        "day": "Sunday",
        "name": "Easter Day",
        "type": "NATIONAL_HOLIDAY_ORTHODOX"
    },
    {
        "country": "Kosovo",
        "iso": "RS",
        "year": 2024,
        "date": "2024-05-06",
        "day": "Monday",
        "name": "Day of Gorans",
        "type": "OBSERVANCE"
    },
    {
        "country": "Serbia",
        "iso": "RS",
        "year": 2024,
        "date": "2024-05-06",
        "day": "Monday",
        "name": "Easter Monday",
        "type": "NATIONAL_HOLIDAY_ORTHODOX"
    },
    {
        "country": "Kosovo",
        "iso": "RS",
        "year": 2024,
        "date": "2024-05-09",
        "day": "Thursday",
        "name": "Europe Day",
        "type": "OFFICIAL_HOLIDAY"
    },
    {
        "country": "Serbia",
        "iso": "RS",
        "year": 2024,
        "date": "2024-05-09",
        "day": "Thursday",
        "name": "Victory Day",
        "type": "OBSERVANCE"
    },
    {
        "country": "Kosovo",
        "iso": "RS",
        "year": 2024,
        "date": "2024-06-12",
        "day": "Wednesday",
        "name": "Peace Day",
        "type": "OBSERVANCE"
    },
    {
        "country": "Kosovo",
        "iso": "RS",
        "year": 2024,
        "date": "2024-06-17",
        "day": "Monday",
        "name": "Kurban Bayrami (Tentative Date)",
        "type": "OFFICIAL_HOLIDAY"
    },
    {
        "country": "Serbia",
        "iso": "RS",
        "year": 2024,
        "date": "2024-06-17",
        "day": "Monday",
        "name": "First Day of Eid al-Adha",
        "type": "MUSLIM_OPTIONAL_HOLIDAY"
    },
    {
        "country": "Kosovo",
        "iso": "RS",
        "year": 2024,
        "date": "2024-06-20",
        "day": "Thursday",
        "name": "June Solstice",
        "type": "SEASON"
    },
    {
        "country": "Serbia",
        "iso": "RS",
        "year": 2024,
        "date": "2024-06-20",
        "day": "Thursday",
        "name": "June Solstice",
        "type": "SEASON"
    },
    {
        "country": "Serbia",
        "iso": "RS",
        "year": 2024,
        "date": "2024-06-28",
        "day": "Friday",
        "name": "St Vitus Day",
        "type": "OBSERVANCE"
    },
    {
        "country": "Kosovo",
        "iso": "RS",
        "year": 2024,
        "date": "2024-09-22",
        "day": "Sunday",
        "name": "September Equinox",
        "type": "SEASON"
    },
    {
        "country": "Serbia",
        "iso": "RS",
        "year": 2024,
        "date": "2024-09-22",
        "day": "Sunday",
        "name": "September Equinox",
        "type": "SEASON"
    },
    {
        "country": "Kosovo",
        "iso": "RS",
        "year": 2024,
        "date": "2024-09-28",
        "day": "Saturday",
        "name": "Day of Bosnians",
        "type": "OBSERVANCE"
    },
    {
        "country": "Serbia",
        "iso": "RS",
        "year": 2024,
        "date": "2024-10-12",
        "day": "Saturday",
        "name": "Yom Kippur",
        "type": "HEBREW_OPTIONAL_HOLIDAY"
    },
    {
        "country": "Serbia",
        "iso": "RS",
        "year": 2024,
        "date": "2024-10-21",
        "day": "Monday",
        "name": "World War II Victims Remembrance Day",
        "type": "OBSERVANCE"
    },
    {
        "country": "Kosovo",
        "iso": "RS",
        "year": 2024,
        "date": "2024-10-27",
        "day": "Sunday",
        "name": "Daylight Saving Time ends",
        "type": "CLOCK_CHANGE_DAYLIGHT_SAVING_TIME"
    },
    {
        "country": "Serbia",
        "iso": "RS",
        "year": 2024,
        "date": "2024-11-11",
        "day": "Monday",
        "name": "Armistice Day",
        "type": "NATIONAL_HOLIDAY"
    },
    {
        "country": "Kosovo",
        "iso": "RS",
        "year": 2024,
        "date": "2024-11-28",
        "day": "Thursday",
        "name": "Day of Albanians",
        "type": "OBSERVANCE"
    },
    {
        "country": "Kosovo",
        "iso": "RS",
        "year": 2024,
        "date": "2024-12-21",
        "day": "Saturday",
        "name": "December Solstice",
        "type": "SEASON"
    },
    {
        "country": "Serbia",
        "iso": "RS",
        "year": 2024,
        "date": "2024-12-21",
        "day": "Saturday",
        "name": "December Solstice",
        "type": "SEASON"
    },
    {
        "country": "Kosovo",
        "iso": "RS",
        "year": 2024,
        "date": "2024-12-25",
        "day": "Wednesday",
        "name": "Christmas Day",
        "type": "OFFICIAL_HOLIDAY"
    },
    {
        "country": "Serbia",
        "iso": "RS",
        "year": 2024,
        "date": "2024-12-25",
        "day": "Wednesday",
        "name": "First Day of Western Christmas",
        "type": "CHRISTIAN_OPTIONAL_HOLIDAY"
    },
    {
        "country": "Kosovo",
        "iso": "RS",
        "year": 2024,
        "date": "2024-12-31",
        "day": "Tuesday",
        "name": "New Year's Eve",
        "type": "OBSERVANCE"
    },
    {
        "country": "Serbia",
        "iso": "RS",
        "year": 2024,
        "date": "2024-12-31",
        "day": "Tuesday",
        "name": "Western New Year's Eve",
        "type": "OBSERVANCE"
    }
]