[
    {
        "country": "Russia",
        "iso": "RU",
        "year": 2024,
        "date": "2024-01-01",
        "day": "Monday",
        "name": "New Year's Day",
        "type": "NATIONAL_HOLIDAY"
    },
    {
        "country": "Russia",
        "iso": "RU",
        "year": 2024,
        "date": "2024-01-02",
        "day": "Tuesday",
        "name": "New Year Holiday",
        "type": "NATIONAL_HOLIDAY"
    },
    {
        "country": "Russia",
        "iso": "RU",
        "year": 2024,
        "date": "2024-01-03",
        "day": "Wednesday",
        "name": "New Year Holiday",
        "type": "NATIONAL_HOLIDAY"
    },
    {
        "country": "Russia",
        "iso": "RU",
        "year": 2024,
        "date": "2024-01-04",
        "day": "Thursday",
        "name": "New Year Holiday",
        "type": "NATIONAL_HOLIDAY"
    },
    {
        "country": "Russia",
        "iso": "RU",
        "year": 2024,
        "date": "2024-01-05",
        "day": "Friday",
        "name": "New Year Holiday",
        "type": "NATIONAL_HOLIDAY"
    },
    {
        "country": "Russia",
        "iso": "RU",
        "year": 2024,
        "date": "2024-01-07",
        "day": "Sunday",
        "name": "Orthodox Christmas Day",
        "type": "NATIONAL_HOLIDAY_ORTHODOX"
    },
    {
        "country": "Russia",
        "iso": "RU",
        "year": 2024,
        "date": "2024-01-08",
        "day": "Monday",
        "name": "New Year Holiday",
        "type": "NATIONAL_HOLIDAY"
    },
    {
        "country": "Russia",
        "iso": "RU",
        "year": 2024,
        "date": "2024-01-14",
        "day": "Sunday",
        "name": "Old New Year",
        "type": "OBSERVANCE"
    },
    {
        "country": "Russia",
        "iso": "RU",
        "year": 2024,
        "date": "2024-02-07",
        "day": "Wednesday",
        "name": "Isra and Mi'raj",
        "type": "MUSLIM"
    },
    {
        "country": "Russia",
        "iso": "RU",
        "year": 2024,
        "date": "2024-02-14",
        "day": "Wednesday",
        "name": "Valentine's Day",
        "type": "OBSERVANCE"
    },
    {
        "country": "Russia",
        "iso": "RU",
        "year": 2024,
        "date": "2024-02-23",
        "day": "Friday",
        "name": "Defender of the Fatherland Day",
        "type": "NATIONAL_HOLIDAY"
    },
    {
        "country": "Russia",
        "iso": "RU",
        "year": 2024,
        "date": "2024-02-27",
        "day": "Tuesday",
        "name": "Special Operations Forces Day",
        "type": "OBSERVANCE"
    },
    {
        "country": "Russia",
        "iso": "RU",
        "year": 2024,
        "date": "2024-03-08",
        "day": "Friday",
        "name": "International Women's Day",
        "type": "NATIONAL_HOLIDAY"
    },
    {
        "country": "Russia",
        "iso": "RU",
        "year": 2024,
        "date": "2024-03-11",
        "day": "Monday",
        "name": "Ramadan starts",
        "type": "MUSLIM"
    },
    {
        "country": "Russia",
        "iso": "RU",
        "year": 2024,
        "date": "2024-03-20",
        "day": "Wednesday",
        "name": "March Equinox",
        "type": "SEASON"
    },
    {
        "country": "Russia",
        "iso": "RU",
        "year": 2024,
        "date": "2024-04-05",
        "day": "Friday",
        "name": "Lailat al-Qadr",
        "type": "MUSLIM"
    },
    {
        "country": "Russia",
        "iso": "RU",
        "year": 2024,
        "date": "2024-04-10",
        "day": "Wednesday",
        "name": "Eid al-Fitr (Tentative Date)",
        "type": "MUSLIM"
    },
    {
        "country": "Russia",
        "iso": "RU",
        "year": 2024,
        "date": "2024-05-01",
        "day": "Wednesday",
        "name": "Spring and Labor Day",
        "type": "NATIONAL_HOLIDAY"
    },
    {
        "country": "Russia",
        "iso": "RU",
        "year": 2024,
        "date": "2024-05-02",
        "day": "Thursday",
        "name": "Spring and Labor Day Holiday",
        "type": "NATIONAL_HOLIDAY"
    },
    {
        "country": "Russia",
        "iso": "RU",
        "year": 2024,
        "date": "2024-05-03",
        "day": "Friday",
        "name": "Spring and Labor Day Holiday",
        "type": "NATIONAL_HOLIDAY"
    },
    {
        "country": "Russia",
        "iso": "RU",
        "year": 2024,
        "date": "2024-05-05",
        "day": "Sunday",
        "name": "Orthodox Easter Day",
        "type": "OBSERVANCE_ORTHODOX"
    },
    {
        "country": "Russia",
        "iso": "RU",
        "year": 2024,
        "date": "2024-05-09",
        "day": "Thursday",
        "name": "Victory Day",
        "type": "NATIONAL_HOLIDAY"
    },
    {
        "country": "Russia",
        "iso": "RU",
        "year": 2024,
        "date": "2024-06-12",
        "day": "Wednesday",
        "name": "Russia Day",
        "type": "NATIONAL_HOLIDAY"
    },
    {
        "country": "Russia",
        "iso": "RU",
        "year": 2024,
        "date": "2024-06-17",
        "day": "Monday",
        "name": "Eid al-Adha (Tentative Date)",
        "type": "MUSLIM"
    },
    {
        "country": "Russia",
        "iso": "RU",
        "year": 2024,
        "date": "2024-06-20",
        "day": "Thursday",
        "name": "June Solstice",
        "type": "SEASON"
    },
    {
        "country": "Russia",
        "iso": "RU",
        "year": 2024,
        "date": "2024-07-08",
        "day": "Monday",
        "name": "Muharram",
        "type": "MUSLIM"
    },
    {
        "country": "Russia",
        "iso": "RU",
        "year": 2024,
        "date": "2024-09-01",
        "day": "Sunday",
        "name": "Day of Knowledge",
        "type": "OBSERVANCE"
    },
    {
        "country": "Russia",
        "iso": "RU",
        "year": 2024,
        "date": "2024-09-16",
        "day": "Monday",
        "name": "The Prophet's Birthday (Tentative Date)",
        "type": "MUSLIM"
    },
    {
        "country": "Russia",
        "iso": "RU",
        "year": 2024,
        "date": "2024-09-22",
        "day": "Sunday",
        "name": "September Equinox",
        "type": "SEASON"
    },
    {
        "country": "Russia",
        "iso": "RU",
        "year": 2024,
        "date": "2024-11-04",
        "day": "Monday",
        "name": "Unity Day",
        "type": "NATIONAL_HOLIDAY"
    },
    {
        "country": "Russia",
        "iso": "RU",
        "year": 2024,
        "date": "2024-12-21",
        "day": "Saturday",
        "name": "December Solstice",
        "type": "SEASON"
    }
]