[
    {
        "country": "Somalia",
        "iso": "SO",
        "year": 2024,
        "date": "2024-01-01",
        "day": "Monday",
        "name": "New Year",
        "type": "PUBLIC_HOLIDAY"
    },
    {
        "country": "Somalia",
        "iso": "SO",
        "year": 2024,
        "date": "2024-02-07",
        "day": "Wednesday",
        "name": "Isra and Mi'raj",
        "type": "COMMON_LOCAL_HOLIDAY"
    },
    {
        "country": "Somalia",
        "iso": "SO",
        "year": 2024,
        "date": "2024-03-20",
        "day": "Wednesday",
        "name": "March Equinox",
        "type": "SEASON"
    },
    {
        "country": "Somalia",
        "iso": "SO",
        "year": 2024,
        "date": "2024-04-10",
        "day": "Wednesday",
        "name": "Eid al-Fitr (Tentative Date)",
        "type": "PUBLIC_HOLIDAY"
    },
    {
        "country": "Somalia",
        "iso": "SO",
        "year": 2024,
        "date": "2024-04-11",
        "day": "Thursday",
        "name": "Eid al-Fitr Holiday (Tentative Date)",
        "type": "COMMON_LOCAL_HOLIDAY"
    },
    {
        "country": "Somalia",
        "iso": "SO",
        "year": 2024,
        "date": "2024-05-01",
        "day": "Wednesday",
        "name": "May Day",
        "type": "PUBLIC_HOLIDAY"
    },
    {
        "country": "Somalia",
        "iso": "SO",
        "year": 2024,
        "date": "2024-05-18",
        "day": "Saturday",
        "name": "Restoration of Somaliland Sovereignty",
        "type": "COMMON_LOCAL_HOLIDAY"
    },
    {
        "country": "Somalia",
        "iso": "SO",
        "year": 2024,
        "date": "2024-05-19",
        "day": "Sunday",
        "name": "Restoration of Somaliland Sovereignty Holiday",
        "type": "COMMON_LOCAL_HOLIDAY"
    },
    {
        "country": "Somalia",
        "iso": "SO",
        "year": 2024,
        "date": "2024-06-17",
        "day": "Monday",
        "name": "Eid al-Adha (Tentative Date)",
        "type": "PUBLIC_HOLIDAY"
    },
    {
        "country": "Somalia",
        "iso": "SO",
        "year": 2024,
        "date": "2024-06-18",
        "day": "Tuesday",
        "name": "Eid al-Adha Holiday (Tentative Date)",
        "type": "COMMON_LOCAL_HOLIDAY"
    },
    {
        "country": "Somalia",
        "iso": "SO",
        "year": 2024,
        "date": "2024-06-20",
        "day": "Thursday",
        "name": "June Solstice",
        "type": "SEASON"
    },
    {
        "country": "Somalia",
        "iso": "SO",
        "year": 2024,
        "date": "2024-06-26",
        "day": "Wednesday",
        "name": "Independence Day",
        "type": "PUBLIC_HOLIDAY"
    },
    {
        "country": "Somalia",
        "iso": "SO",
        "year": 2024,
        "date": "2024-07-01",
        "day": "Monday",
        "name": "Republic Day",
        "type": "COMMON_LOCAL_HOLIDAY"
    },
    {
        "country": "Somalia",
        "iso": "SO",
        "year": 2024,
        "date": "2024-07-08",
        "day": "Monday",
        "name": "Muharram (Tentative Date)",
        "type": "COMMON_LOCAL_HOLIDAY"
    },
    {
        "country": "Somalia",
        "iso": "SO",
        "year": 2024,
        "date": "2024-07-17",
        "day": "Wednesday",
        "name": "Ashura (Tentative Date)",
        "type": "PUBLIC_HOLIDAY"
    },
    {
        "country": "Somalia",
        "iso": "SO",
        "year": 2024,
        "date": "2024-09-16",
        "day": "Monday",
        "name": "The Prophet's Birthday (Tentative Date)",
        "type": "PUBLIC_HOLIDAY"
    },
    {
        "country": "Somalia",
        "iso": "SO",
        "year": 2024,
        "date": "2024-09-22",
        "day": "Sunday",
        "name": "September Equinox",
        "type": "SEASON"
    },
    {
        "country": "Somalia",
        "iso": "SO",
        "year": 2024,
        "date": "2024-12-21",
        "day": "Saturday",
        "name": "December Solstice",
        "type": "SEASON"
    }
]