[
    {
        "country": "Sao Tome and Principe",
        "iso": "ST",
        "year": 2024,
        "date": "2024-01-01",
        "day": "Monday",
        "name": "New Year",
        "type": "PUBLIC_HOLIDAY"
    },
    {
        "country": "Sao Tome and Principe",
        "iso": "ST",
        "year": 2024,
        "date": "2024-01-04",
        "day": "Thursday",
        "name": "Day of King Amador",
        "type": "PUBLIC_HOLIDAY"
    },
    {
        "country": "Sao Tome and Principe",
        "iso": "ST",
        "year": 2024,
        "date": "2024-02-02",
        "day": "Friday",
        "name": "Day off for Commemoration of the Batep\u00e1 Massacre",
        "type": "PUBLIC_HOLIDAY"
    },
    {
        "country": "Sao Tome and Principe",
        "iso": "ST",
        "year": 2024,
        "date": "2024-02-03",
        "day": "Saturday",
        "name": "Commemoration of the Batep\u00e1 Massacre",
        "type": "PUBLIC_HOLIDAY"
    },
    {
        "country": "Sao Tome and Principe",
        "iso": "ST",
        "year": 2024,
        "date": "2024-03-20",
        "day": "Wednesday",
        "name": "March Equinox",
        "type": "SEASON"
    },
    {
        "country": "Sao Tome and Principe",
        "iso": "ST",
        "year": 2024,
        "date": "2024-05-01",
        "day": "Wednesday",
        "name": "Labour Day",
        "type": "PUBLIC_HOLIDAY"
    },
    {
        "country": "Sao Tome and Principe",
        "iso": "ST",
        "year": 2024,
        "date": "2024-06-20",
        "day": "Thursday",
        "name": "June Solstice",
        "type": "SEASON"
    },
    {
        "country": "Sao Tome and Principe",
        "iso": "ST",
        "year": 2024,
        "date": "2024-07-12",
        "day": "Friday",
        "name": "Independence Day",
        "type": "PUBLIC_HOLIDAY"
    },
    {
        "country": "Sao Tome and Principe",
        "iso": "ST",
        "year": 2024,
        "date": "2024-09-06",
        "day": "Friday",
        "name": "Armed Forces' Day",
        "type": "PUBLIC_HOLIDAY"
    },
    {
        "country": "Sao Tome and Principe",
        "iso": "ST",
        "year": 2024,
        "date": "2024-09-22",
        "day": "Sunday",
        "name": "September Equinox",
        "type": "SEASON"
    },
    {
        "country": "Sao Tome and Principe",
        "iso": "ST",
        "year": 2024,
        "date": "2024-09-30",
        "day": "Monday",
        "name": "Nationalization of the Ro\u00e7as",
        "type": "PUBLIC_HOLIDAY"
    },
    {
        "country": "Sao Tome and Principe",
        "iso": "ST",
        "year": 2024,
        "date": "2024-12-20",
        "day": "Friday",
        "name": "Day off for S\u00e3o Tom\u00e9 Day",
        "type": "PUBLIC_HOLIDAY"
    },
    {
        "country": "Sao Tome and Principe",
        "iso": "ST",
        "year": 2024,
        "date": "2024-12-21",
        "day": "Saturday",
        "name": "December Solstice",
        "type": "SEASON"
    },
    {
        "country": "Sao Tome and Principe",
        "iso": "ST",
        "year": 2024,
        "date": "2024-12-25",
        "day": "Wednesday",
        "name": "Christmas Day",
        "type": "PUBLIC_HOLIDAY"
    }
]