[
    {
        "country": "Tunisia",
        "iso": "TN",
        "year": 2024,
        "date": "2024-01-01",
        "day": "Monday",
        "name": "New Year",
        "type": "PUBLIC_HOLIDAY"
    },
    {
        "country": "Tunisia",
        "iso": "TN",
        "year": 2024,
        "date": "2024-01-14",
        "day": "Sunday",
        "name": "Revolution and Youth Day",
        "type": "PUBLIC_HOLIDAY"
    },
    {
        "country": "Tunisia",
        "iso": "TN",
        "year": 2024,
        "date": "2024-03-20",
        "day": "Wednesday",
        "name": "March Equinox",
        "type": "SEASON"
    },
    {
        "country": "Tunisia",
        "iso": "TN",
        "year": 2024,
        "date": "2024-04-09",
        "day": "Tuesday",
        "name": "Martyrs' Day",
        "type": "PUBLIC_HOLIDAY"
    },
    {
        "country": "Tunisia",
        "iso": "TN",
        "year": 2024,
        "date": "2024-04-10",
        "day": "Wednesday",
        "name": "Eid al-Fitr",
        "type": "PUBLIC_HOLIDAY"
    },
    {
        "country": "Tunisia",
        "iso": "TN",
        "year": 2024,
        "date": "2024-04-11",
        "day": "Thursday",
        "name": "Eid al-Fitr Holiday",
        "type": "PUBLIC_HOLIDAY"
    },
    {
        "country": "Tunisia",
        "iso": "TN",
        "year": 2024,
        "date": "2024-04-12",
        "day": "Friday",
        "name": "Eid al-Fitr Holiday",
        "type": "PUBLIC_HOLIDAY"
    },
    {
        "country": "Tunisia",
        "iso": "TN",
        "year": 2024,
        "date": "2024-05-01",
        "day": "Wednesday",
        "name": "Labour Day",
        "type": "PUBLIC_HOLIDAY"
    },
    {
        "country": "Tunisia",
        "iso": "TN",
        "year": 2024,
        "date": "2024-06-17",
        "day": "Monday",
        "name": "Eid al-Adha (Tentative Date)",
        "type": "PUBLIC_HOLIDAY"
    },
    {
        "country": "Tunisia",
        "iso": "TN",
        "year": 2024,
        "date": "2024-06-18",
        "day": "Tuesday",
        "name": "Eid al-Adha Holiday (Tentative Date)",
        "type": "PUBLIC_HOLIDAY"
    },
    {
        "country": "Tunisia",
        "iso": "TN",
        "year": 2024,
        "date": "2024-06-20",
        "day": "Thursday",
        "name": "June Solstice",
        "type": "SEASON"
    },
    {
        "country": "Tunisia",
        "iso": "TN",
        "year": 2024,
        "date": "2024-07-08",
        "day": "Monday",
        "name": "Muharram (Tentative Date)",
        "type": "PUBLIC_HOLIDAY"
    },
    {
        "country": "Tunisia",
        "iso": "TN",
        "year": 2024,
        "date": "2024-07-25",
        "day": "Thursday",
        "name": "Republic Day",
        "type": "PUBLIC_HOLIDAY"
    },
    {
        "country": "Tunisia",
        "iso": "TN",
        "year": 2024,
        "date": "2024-08-13",
        "day": "Tuesday",
        "name": "Women's and Family Day",
        "type": "OBSERVANCE"
    },
    {
        "country": "Tunisia",
        "iso": "TN",
        "year": 2024,
        "date": "2024-09-16",
        "day": "Monday",
        "name": "The Prophet's Birthday (Tentative Date)",
        "type": "PUBLIC_HOLIDAY"
    },
    {
        "country": "Tunisia",
        "iso": "TN",
        "year": 2024,
        "date": "2024-09-22",
        "day": "Sunday",
        "name": "September Equinox",
        "type": "SEASON"
    },
    {
        "country": "Tunisia",
        "iso": "TN",
        "year": 2024,
        "date": "2024-10-15",
        "day": "Tuesday",
        "name": "Evacuation Day",
        "type": "PUBLIC_HOLIDAY"
    },
    {
        "country": "Tunisia",
        "iso": "TN",
        "year": 2024,
        "date": "2024-12-21",
        "day": "Saturday",
        "name": "December Solstice",
        "type": "SEASON"
    }
]